EESchema Schematic File Version 4
LIBS:CellTesterX6-cache
EELAYER 26 0
EELAYER END
$Descr A4 11693 8268
encoding utf-8
Sheet 2 7
Title ""
Date "2 may 2016"
Rev ""
Comp ""
Comment1 ""
Comment2 ""
Comment3 ""
Comment4 ""
$EndDescr
$Comp
L Device:R R33
U 1 1 55E8BE70
P 2050 1000
AR Path="/55E8A312/55EA30DE/55E8BE70" Ref="R33"  Part="1" 
AR Path="/55E8A312/57134280/55E8BE70" Ref="R56"  Part="1" 
AR Path="/5BFE4F92/55E8BE70" Ref="R15"  Part="1" 
F 0 "R15" V 2130 1000 40  0000 C CNN
F 1 "10K" V 2057 1001 40  0000 C CNN
F 2 "Resistor_SMD:R_0805_2012Metric" V 1980 1000 30  0000 C CNN
F 3 "~" H 2050 1000 30  0000 C CNN
	1    2050 1000
	0    -1   -1   0   
$EndComp
$Comp
L Device:C C27
U 1 1 55E8BEEA
P 10000 4250
AR Path="/55E8A312/55EA30DE/55E8BEEA" Ref="C27"  Part="1" 
AR Path="/55E8A312/57134280/55E8BEEA" Ref="C41"  Part="1" 
AR Path="/5BFE4F92/55E8BEEA" Ref="C17"  Part="1" 
F 0 "C17" H 10000 4350 40  0000 L CNN
F 1 "1uF" H 10006 4165 40  0000 L CNN
F 2 "Capacitor_SMD:C_0805_2012Metric_Pad1.15x1.40mm_HandSolder" H 10038 4100 30  0000 C CNN
F 3 "~" H 10000 4250 60  0000 C CNN
	1    10000 4250
	1    0    0    -1  
$EndComp
$Comp
L Device:C C25
U 1 1 55E8BEF0
P 9400 4400
AR Path="/55E8A312/55EA30DE/55E8BEF0" Ref="C25"  Part="1" 
AR Path="/55E8A312/57134280/55E8BEF0" Ref="C39"  Part="1" 
AR Path="/5BFE4F92/55E8BEF0" Ref="C15"  Part="1" 
F 0 "C15" H 9400 4500 40  0000 L CNN
F 1 "0.1uF" H 9406 4315 40  0000 L CNN
F 2 "Capacitor_SMD:C_0805_2012Metric_Pad1.15x1.40mm_HandSolder" H 9438 4250 30  0000 C CNN
F 3 "~" H 9400 4400 60  0000 C CNN
	1    9400 4400
	1    0    0    -1  
$EndComp
$Comp
L Device:C C26
U 1 1 55E8BEF6
P 9700 4350
AR Path="/55E8A312/55EA30DE/55E8BEF6" Ref="C26"  Part="1" 
AR Path="/55E8A312/57134280/55E8BEF6" Ref="C40"  Part="1" 
AR Path="/5BFE4F92/55E8BEF6" Ref="C16"  Part="1" 
F 0 "C16" H 9700 4450 40  0000 L CNN
F 1 "0.1uF" H 9706 4265 40  0000 L CNN
F 2 "Capacitor_SMD:C_0805_2012Metric_Pad1.15x1.40mm_HandSolder" H 9738 4200 30  0000 C CNN
F 3 "~" H 9700 4350 60  0000 C CNN
	1    9700 4350
	1    0    0    -1  
$EndComp
$Comp
L Device:CP1 C24
U 1 1 55E8BF08
P 5800 1100
AR Path="/55E8A312/55EA30DE/55E8BF08" Ref="C24"  Part="1" 
AR Path="/55E8A312/57134280/55E8BF08" Ref="C38"  Part="1" 
AR Path="/5BFE4F92/55E8BF08" Ref="C14"  Part="1" 
F 0 "C14" H 5800 1200 40  0000 L CNN
F 1 "10uF100V" H 5806 1015 40  0000 L CNN
F 2 "Capacitor_SMD:C_1206_3216Metric" H 5838 950 30  0000 C CNN
F 3 "~" H 5800 1100 60  0000 C CNN
	1    5800 1100
	1    0    0    -1  
$EndComp
$Comp
L Device:D_Zener_ALT D4
U 1 1 55E8BF6B
P 5000 1100
AR Path="/55E8A312/55EA30DE/55E8BF6B" Ref="D4"  Part="1" 
AR Path="/55E8A312/57134280/55E8BF6B" Ref="D5"  Part="1" 
AR Path="/5BFE4F92/55E8BF6B" Ref="D4"  Part="1" 
F 0 "D4" H 5000 1200 50  0000 C CNN
F 1 "ZENER 29V" H 5000 1000 40  0000 C CNN
F 2 "Diode_SMD:D_SOD-323" H 5000 1100 60  0001 C CNN
F 3 "~" H 5000 1100 60  0000 C CNN
	1    5000 1100
	0    1    1    0   
$EndComp
$Comp
L Device:C C29
U 1 1 55E8C28D
P 10700 4350
AR Path="/55E8A312/55EA30DE/55E8C28D" Ref="C29"  Part="1" 
AR Path="/55E8A312/57134280/55E8C28D" Ref="C43"  Part="1" 
AR Path="/5BFE4F92/55E8C28D" Ref="C19"  Part="1" 
F 0 "C19" H 10700 4450 40  0000 L CNN
F 1 "1uF" H 10706 4265 40  0000 L CNN
F 2 "Capacitor_SMD:C_0805_2012Metric_Pad1.15x1.40mm_HandSolder" H 10738 4200 30  0000 C CNN
F 3 "~" H 10700 4350 60  0000 C CNN
	1    10700 4350
	1    0    0    -1  
$EndComp
$Comp
L Device:C C28
U 1 1 55E8C293
P 10450 4350
AR Path="/55E8A312/55EA30DE/55E8C293" Ref="C28"  Part="1" 
AR Path="/55E8A312/57134280/55E8C293" Ref="C42"  Part="1" 
AR Path="/5BFE4F92/55E8C293" Ref="C18"  Part="1" 
F 0 "C18" H 10450 4450 40  0000 L CNN
F 1 "0.1uF" H 10456 4265 40  0000 L CNN
F 2 "Capacitor_SMD:C_0805_2012Metric_Pad1.15x1.40mm_HandSolder" H 10488 4200 30  0000 C CNN
F 3 "~" H 10450 4350 60  0000 C CNN
	1    10450 4350
	1    0    0    -1  
$EndComp
Text Label 5100 4150 0    60   ~ 0
VRef
Text Label 5100 4250 0    60   ~ 0
CRef
Text Label 10150 3900 0    60   ~ 0
CRef
Text Label 10800 3900 0    60   ~ 0
VRef
Text Label 5100 4550 0    60   ~ 0
VDD
Text Label 5100 5300 0    60   ~ 0
SCLK
Text Label 5100 5400 0    60   ~ 0
SDI
Text Label 5100 5500 0    60   ~ 0
SDO
Text Label 5100 5600 0    60   ~ 0
ALERT
Text Label 5100 5700 0    60   ~ 0
CS/
Text Label 5100 5800 0    60   ~ 0
PD/
Text Label 5100 5900 0    60   ~ 0
CNVST/
Text Label 5100 6000 0    60   ~ 0
MASTER
$Comp
L Device:C C16
U 1 1 55E8C539
P 2750 1250
AR Path="/55E8A312/55EA30DE/55E8C539" Ref="C16"  Part="1" 
AR Path="/55E8A312/57134280/55E8C539" Ref="C30"  Part="1" 
AR Path="/5BFE4F92/55E8C539" Ref="C6"  Part="1" 
F 0 "C6" H 2750 1350 40  0000 L CNN
F 1 "0.1uF50V" H 2756 1165 40  0000 L CNN
F 2 "Capacitor_SMD:C_0805_2012Metric_Pad1.15x1.40mm_HandSolder" H 2788 1100 30  0000 C CNN
F 3 "~" H 2750 1250 60  0000 C CNN
	1    2750 1250
	1    0    0    -1  
$EndComp
$Comp
L Device:R R40
U 1 1 55E8C585
P 2300 1600
AR Path="/55E8A312/55EA30DE/55E8C585" Ref="R40"  Part="1" 
AR Path="/55E8A312/57134280/55E8C585" Ref="R63"  Part="1" 
AR Path="/5BFE4F92/55E8C585" Ref="R16"  Part="1" 
F 0 "R16" V 2380 1600 40  0000 C CNN
F 1 "10K" V 2307 1601 40  0000 C CNN
F 2 "Resistor_SMD:R_0805_2012Metric" V 2230 1600 30  0000 C CNN
F 3 "~" H 2300 1600 30  0000 C CNN
	1    2300 1600
	0    1    1    0   
$EndComp
$Comp
L Device:R R34
U 1 1 55E8CCFE
P 2300 1950
AR Path="/55E8A312/55EA30DE/55E8CCFE" Ref="R34"  Part="1" 
AR Path="/55E8A312/57134280/55E8CCFE" Ref="R57"  Part="1" 
AR Path="/5BFE4F92/55E8CCFE" Ref="R17"  Part="1" 
F 0 "R17" V 2380 1950 40  0000 C CNN
F 1 "10K" V 2307 1951 40  0000 C CNN
F 2 "Resistor_SMD:R_0805_2012Metric" V 2230 1950 30  0000 C CNN
F 3 "~" H 2300 1950 30  0000 C CNN
	1    2300 1950
	0    -1   -1   0   
$EndComp
$Comp
L Device:C C17
U 1 1 55E8CD16
P 2750 2150
AR Path="/55E8A312/55EA30DE/55E8CD16" Ref="C17"  Part="1" 
AR Path="/55E8A312/57134280/55E8CD16" Ref="C31"  Part="1" 
AR Path="/5BFE4F92/55E8CD16" Ref="C7"  Part="1" 
F 0 "C7" H 2750 2250 40  0000 L CNN
F 1 "0.1uF50V" H 2756 2065 40  0000 L CNN
F 2 "Capacitor_SMD:C_0805_2012Metric_Pad1.15x1.40mm_HandSolder" H 2788 2000 30  0000 C CNN
F 3 "~" H 2750 2150 60  0000 C CNN
	1    2750 2150
	1    0    0    -1  
$EndComp
$Comp
L Device:C C18
U 1 1 55E8CE86
P 2750 3200
AR Path="/55E8A312/55EA30DE/55E8CE86" Ref="C18"  Part="1" 
AR Path="/55E8A312/57134280/55E8CE86" Ref="C32"  Part="1" 
AR Path="/5BFE4F92/55E8CE86" Ref="C8"  Part="1" 
F 0 "C8" H 2750 3300 40  0000 L CNN
F 1 "0.1uF50V" H 2756 3115 40  0000 L CNN
F 2 "Capacitor_SMD:C_0805_2012Metric_Pad1.15x1.40mm_HandSolder" H 2788 3050 30  0000 C CNN
F 3 "~" H 2750 3200 60  0000 C CNN
	1    2750 3200
	1    0    0    -1  
$EndComp
$Comp
L Device:C C19
U 1 1 55E8CEBA
P 2750 4100
AR Path="/55E8A312/55EA30DE/55E8CEBA" Ref="C19"  Part="1" 
AR Path="/55E8A312/57134280/55E8CEBA" Ref="C33"  Part="1" 
AR Path="/5BFE4F92/55E8CEBA" Ref="C9"  Part="1" 
F 0 "C9" H 2750 4200 40  0000 L CNN
F 1 "0.1uF50V" H 2756 4015 40  0000 L CNN
F 2 "Capacitor_SMD:C_0805_2012Metric_Pad1.15x1.40mm_HandSolder" H 2788 3950 30  0000 C CNN
F 3 "~" H 2750 4100 60  0000 C CNN
	1    2750 4100
	1    0    0    -1  
$EndComp
$Comp
L Device:C C20
U 1 1 55E8CEEE
P 2750 5100
AR Path="/55E8A312/55EA30DE/55E8CEEE" Ref="C20"  Part="1" 
AR Path="/55E8A312/57134280/55E8CEEE" Ref="C34"  Part="1" 
AR Path="/5BFE4F92/55E8CEEE" Ref="C10"  Part="1" 
F 0 "C10" H 2750 5200 40  0000 L CNN
F 1 "0.1uF50V" H 2756 5015 40  0000 L CNN
F 2 "Capacitor_SMD:C_0805_2012Metric_Pad1.15x1.40mm_HandSolder" H 2788 4950 30  0000 C CNN
F 3 "~" H 2750 5100 60  0000 C CNN
	1    2750 5100
	1    0    0    -1  
$EndComp
$Comp
L Device:C C21
U 1 1 55E8CF22
P 2750 6200
AR Path="/55E8A312/55EA30DE/55E8CF22" Ref="C21"  Part="1" 
AR Path="/55E8A312/57134280/55E8CF22" Ref="C35"  Part="1" 
AR Path="/5BFE4F92/55E8CF22" Ref="C11"  Part="1" 
F 0 "C11" H 2750 6300 40  0000 L CNN
F 1 "0.1uF50V" H 2756 6115 40  0000 L CNN
F 2 "Capacitor_SMD:C_0805_2012Metric_Pad1.15x1.40mm_HandSolder" H 2788 6050 30  0000 C CNN
F 3 "~" H 2750 6200 60  0000 C CNN
	1    2750 6200
	1    0    0    -1  
$EndComp
Text Label 5250 2450 0    60   ~ 0
VIN6
Text Label 5250 2550 0    60   ~ 0
VIN5
Text Label 5250 2750 0    60   ~ 0
VIN3
Text Label 5250 2850 0    60   ~ 0
VIN2
Text Label 5250 2950 0    60   ~ 0
VIN1
Text Label 2950 1000 0    60   ~ 0
VIN6
Text Label 2950 1950 0    60   ~ 0
VIN5
Text Label 2950 2900 0    60   ~ 0
VIN4
Text Label 2950 3850 0    60   ~ 0
VIN3
Text Label 2950 4850 0    60   ~ 0
VIN2
Text Label 2950 5850 0    60   ~ 0
VIN1
Text Label 8600 3750 0    60   ~ 0
CB1
Text Label 8600 3650 0    60   ~ 0
CB2
Text Label 8600 3550 0    60   ~ 0
CB3
Text Label 8600 3450 0    60   ~ 0
CB4
Text Label 8600 3350 0    60   ~ 0
CB5
Text Label 8600 3250 0    60   ~ 0
CB6
Text Label 2550 6450 0    60   ~ 0
CB1
Text Label 2550 5500 0    60   ~ 0
CB2
Text Label 2550 4450 0    60   ~ 0
CB3
Text Label 2550 3500 0    60   ~ 0
CB4
Text Label 2550 2550 0    60   ~ 0
CB5
Text Label 2550 1600 0    60   ~ 0
CB6
Text Label 5250 2650 0    60   ~ 0
VIN4
Text Label 5550 800  0    60   ~ 0
VDD
Text Label 5100 4650 0    60   ~ 0
VSS
Text Label 4100 4600 0    60   ~ 0
VSS
Text HLabel 4750 5300 0    60   Input ~ 0
SCLK
Text HLabel 4750 5400 0    60   Input ~ 0
SDI
Text HLabel 4750 5500 0    60   Output ~ 0
SDO
Text HLabel 4750 5600 0    60   Output ~ 0
ALERT
Text HLabel 4750 5700 0    60   Input ~ 0
CS/
Text HLabel 4750 5800 0    60   Input ~ 0
PD/
Text HLabel 4750 5900 0    60   Input ~ 0
CNVST/
Text HLabel 1350 800  0    60   Output ~ 0
HIBAT
Text HLabel 9150 4700 0    60   Input ~ 0
VSSN
Text Label 6250 1400 0    60   ~ 0
VSS
Text Label 10800 4700 0    60   ~ 0
VSS
Text Label 5250 3050 0    60   ~ 0
VIN0
Text Label 5100 4750 0    60   ~ 0
VSS
Text Label 8650 4450 0    60   ~ 0
VSS
Text Label 9050 3950 2    60   ~ 0
AO5.2V
Connection ~ 5400 800 
Connection ~ 5000 800 
Connection ~ 5400 1400
Wire Wire Line
	8400 3950 8650 3950
Wire Wire Line
	8650 4250 8400 4250
Wire Wire Line
	8400 4150 8650 4150
Connection ~ 8650 4150
Wire Wire Line
	8400 4050 8650 4050
Connection ~ 8650 4050
Connection ~ 8650 3950
Wire Wire Line
	9150 4700 9400 4700
Connection ~ 10000 4700
Connection ~ 9700 4700
Wire Wire Line
	5100 4250 5550 4250
Wire Wire Line
	5550 4150 5100 4150
Wire Wire Line
	10450 3900 10150 3900
Connection ~ 10450 4700
Wire Wire Line
	5550 4550 5100 4550
Wire Wire Line
	4750 5300 5550 5300
Wire Wire Line
	4750 5400 5550 5400
Wire Wire Line
	4750 5500 5550 5500
Wire Wire Line
	4750 5600 5550 5600
Wire Wire Line
	4750 5700 5550 5700
Wire Wire Line
	4750 5800 5550 5800
Wire Wire Line
	4750 5900 5550 5900
Wire Wire Line
	1600 800  1600 1000
Connection ~ 2750 1000
Connection ~ 2750 3850
Connection ~ 2750 4850
Wire Wire Line
	1350 800  1600 800 
Wire Wire Line
	5550 2450 5250 2450
Wire Wire Line
	5250 2550 5550 2550
Wire Wire Line
	5550 2750 5250 2750
Wire Wire Line
	5250 2850 5550 2850
Wire Wire Line
	5550 2950 5250 2950
Wire Wire Line
	8400 3750 8600 3750
Wire Wire Line
	8400 3650 8600 3650
Wire Wire Line
	8400 3550 8600 3550
Wire Wire Line
	8400 3450 8600 3450
Wire Wire Line
	8400 3350 8600 3350
Wire Wire Line
	8400 3250 8600 3250
Wire Wire Line
	4450 4600 4100 4600
Wire Wire Line
	4750 4950 5550 4950
Wire Wire Line
	4750 5050 5550 5050
Wire Wire Line
	5550 2650 5250 2650
Wire Wire Line
	5550 4650 5100 4650
Connection ~ 1600 800 
Connection ~ 5800 1400
Wire Wire Line
	5550 4750 5100 4750
Wire Wire Line
	8400 4450 8650 4450
Text Label 4100 6400 0    60   ~ 0
AO5.2V
Connection ~ 5800 800 
Text HLabel 6300 800  2    60   Output ~ 0
VDDNFILTERED
Text HLabel 1350 7000 0    60   Input ~ 0
LOBAT
Connection ~ 9400 4700
Wire Wire Line
	5550 3050 5250 3050
Text Label 2950 7000 0    60   ~ 0
VIN0
$Comp
L Device:C C22
U 1 1 55EAF87B
P 3450 1100
AR Path="/55E8A312/55EA30DE/55EAF87B" Ref="C22"  Part="1" 
AR Path="/55E8A312/57134280/55EAF87B" Ref="C36"  Part="1" 
AR Path="/5BFE4F92/55EAF87B" Ref="C12"  Part="1" 
F 0 "C12" H 3450 1200 40  0000 L CNN
F 1 "0.1uF100V" H 3456 1015 40  0000 L CNN
F 2 "Capacitor_SMD:C_0805_2012Metric_Pad1.15x1.40mm_HandSolder" H 3488 950 30  0000 C CNN
F 3 "~" H 3450 1100 60  0000 C CNN
	1    3450 1100
	1    0    0    -1  
$EndComp
Connection ~ 3450 800 
Text Label 3950 1400 2    60   ~ 0
LOBAT
Text Label 5100 4350 0    60   ~ 0
VSS
Wire Wire Line
	5550 4350 5100 4350
Wire Wire Line
	4450 4050 5550 4050
Wire Wire Line
	6250 1400 5800 1400
$Comp
L Device:EMI_Filter_C FB3
U 1 1 5712753F
P 4300 900
AR Path="/55E8A312/55EA30DE/5712753F" Ref="FB3"  Part="1" 
AR Path="/55E8A312/57134280/5712753F" Ref="FB4"  Part="1" 
AR Path="/5BFE4F92/5712753F" Ref="FB1"  Part="1" 
F 0 "FB1" H 4300 1050 60  0000 C CNN
F 1 "FILTER" H 4300 800 60  0000 C CNN
F 2 "lib:NFE61H" H 4300 900 60  0001 C CNN
F 3 "~" H 4300 900 60  0000 C CNN
	1    4300 900 
	1    0    0    -1  
$EndComp
Wire Wire Line
	8650 3950 8650 4050
Wire Wire Line
	5000 800  5400 800 
Wire Wire Line
	5400 1400 5000 1400
Wire Wire Line
	8650 4150 9400 4150
Wire Wire Line
	8650 4050 9700 4050
Wire Wire Line
	8650 4050 8650 4150
Wire Wire Line
	10000 4700 10450 4700
Wire Wire Line
	9700 4700 10000 4700
Wire Wire Line
	10450 4700 10700 4700
Wire Wire Line
	2750 1000 2950 1000
Wire Wire Line
	2750 3850 2950 3850
Wire Wire Line
	2750 4850 2950 4850
Wire Wire Line
	2750 5850 2950 5850
Wire Wire Line
	1600 800  3450 800 
Wire Wire Line
	5800 1400 5400 1400
Wire Wire Line
	5800 800  6300 800 
Wire Wire Line
	9400 4700 9700 4700
Wire Wire Line
	4450 4050 4450 4200
Wire Wire Line
	4450 4500 4450 4600
Wire Wire Line
	9400 4550 9400 4700
Wire Wire Line
	9400 4150 9400 4250
Wire Wire Line
	9700 4050 9700 4200
Wire Wire Line
	9700 4500 9700 4700
Wire Wire Line
	10000 4400 10000 4700
Wire Wire Line
	10000 3950 10000 4100
Wire Wire Line
	10450 3900 10450 4200
Wire Wire Line
	10450 4500 10450 4700
Wire Wire Line
	10700 4500 10700 4700
Wire Wire Line
	10700 3900 10700 4200
$Comp
L Device:Thermistor TH3
U 1 1 5C088ADC
P 4900 7300
F 0 "TH3" H 5005 7346 50  0000 L CNN
F 1 "10K" H 5005 7255 50  0000 L CNN
F 2 "Resistor_SMD:R_0805_2012Metric" H 4900 7300 50  0001 C CNN
F 3 "~" H 4900 7300 50  0001 C CNN
	1    4900 7300
	1    0    0    -1  
$EndComp
$Comp
L Device:Thermistor TH1
U 1 1 5C094D03
P 4400 7300
F 0 "TH1" H 4505 7346 50  0000 L CNN
F 1 "10K" H 4505 7255 50  0000 L CNN
F 2 "Resistor_SMD:R_0805_2012Metric" H 4400 7300 50  0001 C CNN
F 3 "~" H 4400 7300 50  0001 C CNN
	1    4400 7300
	1    0    0    -1  
$EndComp
Wire Wire Line
	2750 4850 2750 4950
Wire Wire Line
	2750 3850 2750 3950
Wire Wire Line
	2750 3350 2750 3850
Wire Wire Line
	3450 800  3450 950 
Wire Wire Line
	2750 1000 2750 1100
Wire Wire Line
	2200 1000 2750 1000
Wire Wire Line
	1600 1000 1700 1000
Wire Wire Line
	3450 800  4100 800 
Wire Wire Line
	4300 1000 4300 1400
Wire Wire Line
	4300 1400 4600 1400
Connection ~ 5000 1400
Wire Wire Line
	5000 1250 5000 1400
Wire Wire Line
	5000 800  5000 950 
Wire Wire Line
	5400 800  5400 950 
Wire Wire Line
	5400 1250 5400 1400
Wire Wire Line
	5800 1250 5800 1400
Wire Wire Line
	5800 800  5800 950 
$Comp
L Device:R R?
U 1 1 5C41D309
P 2300 2550
AR Path="/55E8A312/55EA30DE/5C41D309" Ref="R?"  Part="1" 
AR Path="/55E8A312/57134280/5C41D309" Ref="R?"  Part="1" 
AR Path="/5BFE4F92/5C41D309" Ref="R18"  Part="1" 
F 0 "R18" V 2380 2550 40  0000 C CNN
F 1 "10K" V 2307 2551 40  0000 C CNN
F 2 "Resistor_SMD:R_0805_2012Metric" V 2230 2550 30  0000 C CNN
F 3 "~" H 2300 2550 30  0000 C CNN
	1    2300 2550
	0    1    1    0   
$EndComp
$Comp
L Device:R R?
U 1 1 5C41D30F
P 2300 2900
AR Path="/55E8A312/55EA30DE/5C41D30F" Ref="R?"  Part="1" 
AR Path="/55E8A312/57134280/5C41D30F" Ref="R?"  Part="1" 
AR Path="/5BFE4F92/5C41D30F" Ref="R19"  Part="1" 
F 0 "R19" V 2380 2900 40  0000 C CNN
F 1 "10K" V 2307 2901 40  0000 C CNN
F 2 "Resistor_SMD:R_0805_2012Metric" V 2230 2900 30  0000 C CNN
F 3 "~" H 2300 2900 30  0000 C CNN
	1    2300 2900
	0    -1   -1   0   
$EndComp
$Comp
L Device:R R?
U 1 1 5C426144
P 2300 4450
AR Path="/55E8A312/55EA30DE/5C426144" Ref="R?"  Part="1" 
AR Path="/55E8A312/57134280/5C426144" Ref="R?"  Part="1" 
AR Path="/5BFE4F92/5C426144" Ref="R22"  Part="1" 
F 0 "R22" V 2380 4450 40  0000 C CNN
F 1 "10K" V 2307 4451 40  0000 C CNN
F 2 "Resistor_SMD:R_0805_2012Metric" V 2230 4450 30  0000 C CNN
F 3 "~" H 2300 4450 30  0000 C CNN
	1    2300 4450
	0    1    1    0   
$EndComp
$Comp
L Device:R R?
U 1 1 5C42614A
P 2300 4850
AR Path="/55E8A312/55EA30DE/5C42614A" Ref="R?"  Part="1" 
AR Path="/55E8A312/57134280/5C42614A" Ref="R?"  Part="1" 
AR Path="/5BFE4F92/5C42614A" Ref="R23"  Part="1" 
F 0 "R23" V 2380 4850 40  0000 C CNN
F 1 "10K" V 2307 4851 40  0000 C CNN
F 2 "Resistor_SMD:R_0805_2012Metric" V 2230 4850 30  0000 C CNN
F 3 "~" H 2300 4850 30  0000 C CNN
	1    2300 4850
	0    -1   -1   0   
$EndComp
$Comp
L Device:R R?
U 1 1 5C42FE44
P 2300 5500
AR Path="/55E8A312/55EA30DE/5C42FE44" Ref="R?"  Part="1" 
AR Path="/55E8A312/57134280/5C42FE44" Ref="R?"  Part="1" 
AR Path="/5BFE4F92/5C42FE44" Ref="R24"  Part="1" 
F 0 "R24" V 2380 5500 40  0000 C CNN
F 1 "10K" V 2307 5501 40  0000 C CNN
F 2 "Resistor_SMD:R_0805_2012Metric" V 2230 5500 30  0000 C CNN
F 3 "~" H 2300 5500 30  0000 C CNN
	1    2300 5500
	0    1    1    0   
$EndComp
$Comp
L Device:R R?
U 1 1 5C42FE4A
P 2300 5850
AR Path="/55E8A312/55EA30DE/5C42FE4A" Ref="R?"  Part="1" 
AR Path="/55E8A312/57134280/5C42FE4A" Ref="R?"  Part="1" 
AR Path="/5BFE4F92/5C42FE4A" Ref="R25"  Part="1" 
F 0 "R25" V 2380 5850 40  0000 C CNN
F 1 "10K" V 2307 5851 40  0000 C CNN
F 2 "Resistor_SMD:R_0805_2012Metric" V 2230 5850 30  0000 C CNN
F 3 "~" H 2300 5850 30  0000 C CNN
	1    2300 5850
	0    -1   -1   0   
$EndComp
$Comp
L Device:R R?
U 1 1 5C43AE0E
P 2300 6450
AR Path="/55E8A312/55EA30DE/5C43AE0E" Ref="R?"  Part="1" 
AR Path="/55E8A312/57134280/5C43AE0E" Ref="R?"  Part="1" 
AR Path="/5BFE4F92/5C43AE0E" Ref="R26"  Part="1" 
F 0 "R26" V 2380 6450 40  0000 C CNN
F 1 "10K" V 2307 6451 40  0000 C CNN
F 2 "Resistor_SMD:R_0805_2012Metric" V 2230 6450 30  0000 C CNN
F 3 "~" H 2300 6450 30  0000 C CNN
	1    2300 6450
	0    1    1    0   
$EndComp
$Comp
L Device:R R?
U 1 1 5C43AE14
P 2300 7000
AR Path="/55E8A312/55EA30DE/5C43AE14" Ref="R?"  Part="1" 
AR Path="/55E8A312/57134280/5C43AE14" Ref="R?"  Part="1" 
AR Path="/5BFE4F92/5C43AE14" Ref="R27"  Part="1" 
F 0 "R27" V 2380 7000 40  0000 C CNN
F 1 "10K" V 2307 7001 40  0000 C CNN
F 2 "Resistor_SMD:R_0805_2012Metric" V 2230 7000 30  0000 C CNN
F 3 "~" H 2300 7000 30  0000 C CNN
	1    2300 7000
	0    -1   -1   0   
$EndComp
Wire Wire Line
	1700 6700 1700 6650
Wire Wire Line
	1700 7000 1700 6700
Wire Wire Line
	1700 7000 1350 7000
Connection ~ 1700 6700
Wire Wire Line
	2750 5250 2750 5850
Connection ~ 2750 5850
Wire Wire Line
	2750 5850 2750 6050
Wire Wire Line
	2750 6350 2750 7000
Wire Wire Line
	2750 7000 2950 7000
Wire Wire Line
	850  6700 1700 6700
Connection ~ 1600 1000
Wire Wire Line
	850  1000 1600 1000
$Comp
L Device:R R?
U 1 1 5C63AEA7
P 2300 3500
AR Path="/55E8A312/55EA30DE/5C63AEA7" Ref="R?"  Part="1" 
AR Path="/55E8A312/57134280/5C63AEA7" Ref="R?"  Part="1" 
AR Path="/5BFE4F92/5C63AEA7" Ref="R20"  Part="1" 
F 0 "R20" V 2380 3500 40  0000 C CNN
F 1 "10K" V 2307 3501 40  0000 C CNN
F 2 "Resistor_SMD:R_0805_2012Metric" V 2230 3500 30  0000 C CNN
F 3 "~" H 2300 3500 30  0000 C CNN
	1    2300 3500
	0    1    1    0   
$EndComp
$Comp
L Device:R R?
U 1 1 5C63AEAD
P 2300 3850
AR Path="/55E8A312/55EA30DE/5C63AEAD" Ref="R?"  Part="1" 
AR Path="/55E8A312/57134280/5C63AEAD" Ref="R?"  Part="1" 
AR Path="/5BFE4F92/5C63AEAD" Ref="R21"  Part="1" 
F 0 "R21" V 2380 3850 40  0000 C CNN
F 1 "10K" V 2307 3851 40  0000 C CNN
F 2 "Resistor_SMD:R_0805_2012Metric" V 2230 3850 30  0000 C CNN
F 3 "~" H 2300 3850 30  0000 C CNN
	1    2300 3850
	0    -1   -1   0   
$EndComp
Wire Wire Line
	2750 2300 2750 2900
Connection ~ 2750 2900
Wire Wire Line
	2750 2900 2750 3050
Connection ~ 2750 1950
Wire Wire Line
	2750 1950 2750 2000
Wire Wire Line
	2750 4250 2750 4850
Wire Wire Line
	2750 1400 2750 1950
Wire Wire Line
	10800 4700 10700 4700
Connection ~ 10700 4700
Wire Wire Line
	10700 3900 10800 3900
Wire Wire Line
	4300 1400 3450 1400
Wire Wire Line
	3450 1400 3450 1250
Connection ~ 4300 1400
$Comp
L Device:R R33
U 1 1 5C84487F
P 9100 2750
F 0 "R33" V 8893 2750 50  0000 C CNN
F 1 "1K" V 8984 2750 50  0000 C CNN
F 2 "Resistor_SMD:R_0805_2012Metric" V 9030 2750 50  0001 C CNN
F 3 "~" H 9100 2750 50  0001 C CNN
	1    9100 2750
	0    1    1    0   
$EndComp
Wire Wire Line
	8400 2750 8750 2750
Wire Wire Line
	8400 2550 8750 2550
Wire Wire Line
	8750 2550 8750 2750
Connection ~ 8750 2750
Wire Wire Line
	8750 2750 8950 2750
Wire Wire Line
	5400 800  5800 800 
Text Label 3700 6000 0    60   ~ 0
VDD
Wire Wire Line
	8650 4250 8650 4150
$Comp
L Device:R R30
U 1 1 5C913194
P 4100 6000
F 0 "R30" V 3893 6000 50  0000 C CNN
F 1 "10K" V 3984 6000 50  0000 C CNN
F 2 "Resistor_SMD:R_0805_2012Metric" V 4030 6000 50  0001 C CNN
F 3 "~" H 4100 6000 50  0001 C CNN
	1    4100 6000
	0    1    1    0   
$EndComp
Wire Wire Line
	4250 6000 5550 6000
Wire Wire Line
	3950 6000 3700 6000
Text Label 9950 2450 0    50   ~ 0
VDD
$Comp
L Device:R R32
U 1 1 5C948074
P 4450 4850
F 0 "R32" H 4520 4896 50  0000 L CNN
F 1 "1K" H 4520 4805 50  0000 L CNN
F 2 "Resistor_SMD:R_0805_2012Metric" V 4380 4850 50  0001 C CNN
F 3 "~" H 4450 4850 50  0001 C CNN
	1    4450 4850
	1    0    0    -1  
$EndComp
Connection ~ 4450 4600
Wire Wire Line
	4450 4600 4450 4700
Wire Wire Line
	4750 4950 4750 5050
Wire Wire Line
	4750 5050 4450 5050
Wire Wire Line
	4450 5050 4450 5000
Connection ~ 4750 5050
$Comp
L Device:R R31
U 1 1 5C9A079C
P 4450 4350
F 0 "R31" H 4520 4396 50  0000 L CNN
F 1 "10K" H 4520 4305 50  0000 L CNN
F 2 "Resistor_SMD:R_0805_2012Metric" V 4380 4350 50  0001 C CNN
F 3 "~" H 4450 4350 50  0001 C CNN
	1    4450 4350
	1    0    0    -1  
$EndComp
$Comp
L Device:Thermistor TH2
U 1 1 5BFE849C
P 4650 7300
F 0 "TH2" H 4755 7346 50  0000 L CNN
F 1 "10K" H 4755 7255 50  0000 L CNN
F 2 "Resistor_SMD:R_0805_2012Metric" H 4650 7300 50  0001 C CNN
F 3 "~" H 4650 7300 50  0001 C CNN
	1    4650 7300
	1    0    0    -1  
$EndComp
Wire Wire Line
	4400 6500 4400 6400
Wire Wire Line
	4400 6400 4650 6400
Wire Wire Line
	4650 6500 4650 6400
Connection ~ 4650 6400
Wire Wire Line
	4650 6400 4900 6400
Wire Wire Line
	4900 6500 4900 6400
$Comp
L power:PWR_FLAG #FLG0102
U 1 1 5C118CC4
P 9400 4850
F 0 "#FLG0102" H 9400 4925 50  0001 C CNN
F 1 "PWR_FLAG" H 9400 5023 50  0000 C CNN
F 2 "" H 9400 4850 50  0001 C CNN
F 3 "~" H 9400 4850 50  0001 C CNN
	1    9400 4850
	-1   0    0    1   
$EndComp
Wire Wire Line
	9400 4850 9400 4700
Wire Wire Line
	2450 3500 2500 3500
Wire Wire Line
	2450 4450 2500 4450
Wire Wire Line
	2450 5500 2500 5500
Wire Wire Line
	2450 6450 2500 6450
Wire Wire Line
	2450 2550 2500 2550
Wire Wire Line
	2450 1600 2500 1600
Wire Wire Line
	2450 7000 2750 7000
Connection ~ 2750 7000
Wire Wire Line
	2150 7000 1700 7000
Connection ~ 1700 7000
Wire Wire Line
	2750 5850 2450 5850
Wire Wire Line
	2150 5850 1700 5850
Connection ~ 1700 5850
Wire Wire Line
	1700 4850 2150 4850
Connection ~ 1700 4850
Wire Wire Line
	2450 4850 2750 4850
Wire Wire Line
	1700 3850 2150 3850
Connection ~ 1700 3850
Wire Wire Line
	2450 3850 2750 3850
Wire Wire Line
	1700 2900 2150 2900
Connection ~ 1700 2900
Wire Wire Line
	2450 2900 2750 2900
Wire Wire Line
	2150 1950 1700 1950
Connection ~ 1700 1950
Wire Wire Line
	2450 1950 2750 1950
$Comp
L tinkerforge:TVS D5
U 1 1 5C27B1BD
P 4600 1100
F 0 "D5" V 4638 1022 40  0000 R CNN
F 1 "TVS" V 4562 1022 40  0000 R CNN
F 2 "kicad-libraries:DO-214AA" H 4600 1100 60  0001 C CNN
F 3 "" H 4600 1100 60  0000 C CNN
	1    4600 1100
	0    -1   -1   0   
$EndComp
Wire Wire Line
	4600 1350 4600 1400
Wire Wire Line
	4500 800  4600 800 
Connection ~ 4600 1400
Wire Wire Line
	4600 1400 5000 1400
Wire Wire Line
	4600 850  4600 800 
Connection ~ 4600 800 
Wire Wire Line
	4600 800  5000 800 
$Comp
L tinkerforge:ZENER D11
U 1 1 5C2DA94B
P 2000 6700
F 0 "D11" H 2000 6484 50  0000 C CNN
F 1 "15V" H 2000 6575 50  0000 C CNN
F 2 "kicad-libraries:SOT23-3" H 2000 6700 50  0001 C CNN
F 3 "" H 2000 6700 50  0000 C CNN
	1    2000 6700
	-1   0    0    1   
$EndComp
$Comp
L tinkerforge:ZENER D10
U 1 1 5C310C6D
P 1950 5750
F 0 "D10" H 1950 5534 50  0000 C CNN
F 1 "15V" H 1950 5625 50  0000 C CNN
F 2 "kicad-libraries:SOT23-3" H 1950 5750 50  0001 C CNN
F 3 "" H 1950 5750 50  0000 C CNN
	1    1950 5750
	-1   0    0    1   
$EndComp
$Comp
L tinkerforge:ZENER D9
U 1 1 5C310DB1
P 1950 4750
F 0 "D9" H 1950 4534 50  0000 C CNN
F 1 "15V" H 1950 4625 50  0000 C CNN
F 2 "kicad-libraries:SOT23-3" H 1950 4750 50  0001 C CNN
F 3 "" H 1950 4750 50  0000 C CNN
	1    1950 4750
	-1   0    0    1   
$EndComp
$Comp
L tinkerforge:ZENER D8
U 1 1 5C310E6B
P 1950 3750
F 0 "D8" H 1950 3534 50  0000 C CNN
F 1 "15V" H 1950 3625 50  0000 C CNN
F 2 "kicad-libraries:SOT23-3" H 1950 3750 50  0001 C CNN
F 3 "" H 1950 3750 50  0000 C CNN
	1    1950 3750
	-1   0    0    1   
$EndComp
$Comp
L tinkerforge:ZENER D7
U 1 1 5C310FB1
P 1950 2800
F 0 "D7" H 1950 2584 50  0000 C CNN
F 1 "15V" H 1950 2675 50  0000 C CNN
F 2 "kicad-libraries:SOT23-3" H 1950 2800 50  0001 C CNN
F 3 "" H 1950 2800 50  0000 C CNN
	1    1950 2800
	-1   0    0    1   
$EndComp
$Comp
L tinkerforge:ZENER D6
U 1 1 5C3110FB
P 1950 1850
F 0 "D6" H 1950 1634 50  0000 C CNN
F 1 "15V" H 1950 1725 50  0000 C CNN
F 2 "kicad-libraries:SOT23-3" H 1950 1850 50  0001 C CNN
F 3 "" H 1950 1850 50  0000 C CNN
	1    1950 1850
	-1   0    0    1   
$EndComp
Wire Wire Line
	4400 7500 4400 7600
Connection ~ 4400 7600
Wire Wire Line
	4650 7500 4650 7600
Connection ~ 4650 7600
Wire Wire Line
	4650 7600 4400 7600
Wire Wire Line
	4900 7500 4900 7600
Wire Wire Line
	4900 7600 4650 7600
$Comp
L Device:R R34
U 1 1 5C4AB649
P 4400 6650
F 0 "R34" H 4470 6696 50  0000 L CNN
F 1 "10K" H 4470 6605 50  0000 L CNN
F 2 "Resistor_SMD:R_0805_2012Metric" V 4330 6650 50  0001 C CNN
F 3 "~" H 4400 6650 50  0001 C CNN
	1    4400 6650
	1    0    0    -1  
$EndComp
$Comp
L Device:R R35
U 1 1 5C4AB85F
P 4650 6650
F 0 "R35" H 4720 6696 50  0000 L CNN
F 1 "10K" H 4720 6605 50  0000 L CNN
F 2 "Resistor_SMD:R_0805_2012Metric" V 4580 6650 50  0001 C CNN
F 3 "~" H 4650 6650 50  0001 C CNN
	1    4650 6650
	1    0    0    -1  
$EndComp
$Comp
L Device:R R36
U 1 1 5C4AB8FF
P 4900 6650
F 0 "R36" H 4970 6696 50  0000 L CNN
F 1 "10K" H 4970 6605 50  0000 L CNN
F 2 "Resistor_SMD:R_0805_2012Metric" V 4830 6650 50  0001 C CNN
F 3 "~" H 4900 6650 50  0001 C CNN
	1    4900 6650
	1    0    0    -1  
$EndComp
Wire Wire Line
	4650 7100 4650 7000
Wire Wire Line
	4900 6800 4900 6950
Wire Wire Line
	5550 3750 4800 3750
Wire Wire Line
	4800 3650 5550 3650
Wire Wire Line
	5550 3550 4800 3550
Text Label 4800 3550 0    50   ~ 0
TEMP3
Text Label 4800 3650 0    50   ~ 0
TEMP2
Text Label 4800 3750 0    50   ~ 0
TEMP1
Text Label 3800 6850 0    50   ~ 0
TEMP3
Text Label 3800 6950 0    50   ~ 0
TEMP2
Text Label 3800 7050 0    50   ~ 0
TEMP1
Wire Wire Line
	4200 6950 4200 7000
Wire Wire Line
	4200 7000 4650 7000
Connection ~ 4650 7000
Wire Wire Line
	4650 7000 4650 6800
Wire Wire Line
	4250 6950 4250 6850
Connection ~ 4900 6950
Wire Wire Line
	4900 6950 4900 7100
Wire Wire Line
	4400 6800 4400 7050
Connection ~ 4400 7050
Wire Wire Line
	4400 7050 4400 7100
Wire Wire Line
	3800 7050 3950 7050
Connection ~ 4400 6400
Wire Wire Line
	4100 6400 4400 6400
$Comp
L Device:C C?
U 1 1 5C779636
P 3450 7300
AR Path="/55E8A312/55EA30DE/5C779636" Ref="C?"  Part="1" 
AR Path="/55E8A312/57134280/5C779636" Ref="C?"  Part="1" 
AR Path="/5BFE4F92/5C779636" Ref="C22"  Part="1" 
F 0 "C22" H 3450 7400 40  0000 L CNN
F 1 "0.1uF50V" H 3456 7215 40  0000 L CNN
F 2 "Capacitor_SMD:C_0805_2012Metric_Pad1.15x1.40mm_HandSolder" H 3488 7150 30  0000 C CNN
F 3 "~" H 3450 7300 60  0000 C CNN
	1    3450 7300
	1    0    0    -1  
$EndComp
$Comp
L Device:C C?
U 1 1 5C793570
P 3950 7300
AR Path="/55E8A312/55EA30DE/5C793570" Ref="C?"  Part="1" 
AR Path="/55E8A312/57134280/5C793570" Ref="C?"  Part="1" 
AR Path="/5BFE4F92/5C793570" Ref="C24"  Part="1" 
F 0 "C24" H 3950 7400 40  0000 L CNN
F 1 "0.1uF50V" H 3956 7215 40  0000 L CNN
F 2 "Capacitor_SMD:C_0805_2012Metric_Pad1.15x1.40mm_HandSolder" H 3988 7150 30  0000 C CNN
F 3 "~" H 3950 7300 60  0000 C CNN
	1    3950 7300
	1    0    0    -1  
$EndComp
$Comp
L Device:C C?
U 1 1 5C793576
P 3700 7300
AR Path="/55E8A312/55EA30DE/5C793576" Ref="C?"  Part="1" 
AR Path="/55E8A312/57134280/5C793576" Ref="C?"  Part="1" 
AR Path="/5BFE4F92/5C793576" Ref="C23"  Part="1" 
F 0 "C23" H 3700 7400 40  0000 L CNN
F 1 "0.1uF50V" H 3706 7215 40  0000 L CNN
F 2 "Capacitor_SMD:C_0805_2012Metric_Pad1.15x1.40mm_HandSolder" H 3738 7150 30  0000 C CNN
F 3 "~" H 3700 7300 60  0000 C CNN
	1    3700 7300
	1    0    0    -1  
$EndComp
Wire Wire Line
	3950 7050 3950 7150
Connection ~ 3950 7050
Wire Wire Line
	3950 7050 4400 7050
Wire Wire Line
	3950 7450 3950 7600
Wire Wire Line
	3950 7600 4400 7600
Wire Wire Line
	3950 7600 3700 7600
Wire Wire Line
	3700 7600 3700 7450
Connection ~ 3950 7600
Wire Wire Line
	3700 7600 3450 7600
Wire Wire Line
	3450 7600 3450 7450
Connection ~ 3700 7600
Wire Wire Line
	3700 7150 3700 6950
Wire Wire Line
	3700 6950 4200 6950
Wire Wire Line
	3450 6850 3450 7150
Wire Wire Line
	3450 6850 4250 6850
$Comp
L Connector:TestPoint TP1
U 1 1 5C8BDDCF
P 2500 1500
F 0 "TP1" H 2558 1620 50  0000 L CNN
F 1 "TestPoint" H 2558 1529 50  0000 L CNN
F 2 "TestPoint:TestPoint_Pad_D1.0mm" H 2700 1500 50  0001 C CNN
F 3 "~" H 2700 1500 50  0001 C CNN
	1    2500 1500
	1    0    0    -1  
$EndComp
$Comp
L Connector:TestPoint TP2
U 1 1 5C8BDF99
P 2500 2450
F 0 "TP2" H 2558 2570 50  0000 L CNN
F 1 "TestPoint" H 2558 2479 50  0000 L CNN
F 2 "TestPoint:TestPoint_Pad_D1.0mm" H 2700 2450 50  0001 C CNN
F 3 "~" H 2700 2450 50  0001 C CNN
	1    2500 2450
	1    0    0    -1  
$EndComp
$Comp
L Connector:TestPoint TP3
U 1 1 5C8BE247
P 2500 3400
F 0 "TP3" H 2558 3520 50  0000 L CNN
F 1 "TestPoint" H 2558 3429 50  0000 L CNN
F 2 "TestPoint:TestPoint_Pad_D1.0mm" H 2700 3400 50  0001 C CNN
F 3 "~" H 2700 3400 50  0001 C CNN
	1    2500 3400
	1    0    0    -1  
$EndComp
$Comp
L Connector:TestPoint TP4
U 1 1 5C8BE461
P 2500 4350
F 0 "TP4" H 2558 4470 50  0000 L CNN
F 1 "TestPoint" H 2558 4379 50  0000 L CNN
F 2 "TestPoint:TestPoint_Pad_D1.0mm" H 2700 4350 50  0001 C CNN
F 3 "~" H 2700 4350 50  0001 C CNN
	1    2500 4350
	1    0    0    -1  
$EndComp
$Comp
L Connector:TestPoint TP5
U 1 1 5C8BE62C
P 2500 5400
F 0 "TP5" H 2558 5520 50  0000 L CNN
F 1 "TestPoint" H 2558 5429 50  0000 L CNN
F 2 "TestPoint:TestPoint_Pad_D1.0mm" H 2700 5400 50  0001 C CNN
F 3 "~" H 2700 5400 50  0001 C CNN
	1    2500 5400
	1    0    0    -1  
$EndComp
$Comp
L Connector:TestPoint TP6
U 1 1 5C8BE7B0
P 2500 6350
F 0 "TP6" H 2558 6470 50  0000 L CNN
F 1 "TestPoint" H 2558 6379 50  0000 L CNN
F 2 "TestPoint:TestPoint_Pad_D1.0mm" H 2700 6350 50  0001 C CNN
F 3 "~" H 2700 6350 50  0001 C CNN
	1    2500 6350
	1    0    0    -1  
$EndComp
Wire Wire Line
	2500 6450 2500 6350
Connection ~ 2500 6450
Wire Wire Line
	2500 6450 2550 6450
Wire Wire Line
	2500 5400 2500 5500
Connection ~ 2500 5500
Wire Wire Line
	2500 5500 2550 5500
Wire Wire Line
	2500 4350 2500 4450
Connection ~ 2500 4450
Wire Wire Line
	2500 4450 2550 4450
Wire Wire Line
	2500 3400 2500 3500
Connection ~ 2500 3500
Wire Wire Line
	2500 3500 2550 3500
Wire Wire Line
	2500 2450 2500 2550
Connection ~ 2500 2550
Wire Wire Line
	2500 2550 2550 2550
Wire Wire Line
	2500 1500 2500 1600
Connection ~ 2500 1600
Wire Wire Line
	2500 1600 2550 1600
$Comp
L Device:C C27
U 1 1 5C96FEAF
P 9100 3300
F 0 "C27" H 9215 3346 50  0000 L CNN
F 1 "22pF50V" H 9215 3255 50  0000 L CNN
F 2 "Capacitor_SMD:C_0805_2012Metric" H 9138 3150 50  0001 C CNN
F 3 "~" H 9100 3300 50  0001 C CNN
	1    9100 3300
	1    0    0    -1  
$EndComp
Wire Wire Line
	8750 2750 8750 3150
Wire Wire Line
	8750 3150 9100 3150
Wire Wire Line
	9100 3450 9100 3550
Wire Wire Line
	9100 3550 9350 3550
Text Label 9350 3550 0    60   ~ 0
VSS
$Comp
L Device:R R39
U 1 1 5C9AEE89
P 8950 2450
F 0 "R39" V 8743 2450 50  0000 C CNN
F 1 "1M" V 8834 2450 50  0000 C CNN
F 2 "Resistor_SMD:R_0805_2012Metric" V 8880 2450 50  0001 C CNN
F 3 "~" H 8950 2450 50  0001 C CNN
	1    8950 2450
	0    1    1    0   
$EndComp
Wire Wire Line
	8400 2450 8800 2450
$Comp
L Device:R R40
U 1 1 5C9EC541
P 9600 2850
F 0 "R40" V 9500 2850 50  0000 C CNN
F 1 "1M" V 9600 2850 50  0000 C CNN
F 2 "Resistor_SMD:R_0805_2012Metric" V 9530 2850 50  0001 C CNN
F 3 "~" H 9600 2850 50  0001 C CNN
	1    9600 2850
	0    1    1    0   
$EndComp
$Comp
L Device:R R41
U 1 1 5C9EC611
P 9250 2950
F 0 "R41" V 9250 2950 50  0000 C CNN
F 1 "1M" V 9150 2950 50  0000 C CNN
F 2 "Resistor_SMD:R_0805_2012Metric" V 9180 2950 50  0001 C CNN
F 3 "~" H 9250 2950 50  0001 C CNN
	1    9250 2950
	0    1    1    0   
$EndComp
$Comp
L Device:R R42
U 1 1 5C9EC6CF
P 8950 3050
F 0 "R42" V 8950 3050 50  0000 C CNN
F 1 "1M" V 8850 3050 50  0000 C CNN
F 2 "Resistor_SMD:R_0805_2012Metric" V 8880 3050 50  0001 C CNN
F 3 "~" H 8950 3050 50  0001 C CNN
	1    8950 3050
	0    1    1    0   
$EndComp
Wire Wire Line
	8800 3050 8400 3050
NoConn ~ 5550 3250
$Comp
L Device:C C23
U 1 1 55E8BEDF
P 5400 1100
AR Path="/55E8A312/55EA30DE/55E8BEDF" Ref="C23"  Part="1" 
AR Path="/55E8A312/57134280/55E8BEDF" Ref="C37"  Part="1" 
AR Path="/5BFE4F92/55E8BEDF" Ref="C13"  Part="1" 
F 0 "C13" H 5400 1200 40  0000 L CNN
F 1 "0.1uF100V" H 5406 1015 40  0000 L CNN
F 2 "Capacitor_SMD:C_0805_2012Metric_Pad1.15x1.40mm_HandSolder" H 5438 950 30  0000 C CNN
F 3 "~" H 5400 1100 60  0000 C CNN
	1    5400 1100
	1    0    0    -1  
$EndComp
Wire Wire Line
	850  6700 850  6250
Wire Wire Line
	850  5950 850  5850
Connection ~ 850  5850
Wire Wire Line
	850  5850 850  5500
Wire Wire Line
	850  5200 850  4850
Connection ~ 850  4850
Wire Wire Line
	850  4850 850  4250
Wire Wire Line
	850  3950 850  3850
Connection ~ 850  3850
Wire Wire Line
	850  3850 850  3500
Wire Wire Line
	850  3200 850  2900
Connection ~ 850  2900
Wire Wire Line
	850  2900 850  2350
Wire Wire Line
	850  2050 850  1950
Connection ~ 850  1950
Wire Wire Line
	850  1950 850  1600
Wire Wire Line
	850  1300 850  1000
NoConn ~ 5550 3350
Wire Wire Line
	8400 2950 9100 2950
Wire Wire Line
	8400 2850 9450 2850
Wire Wire Line
	9100 3050 9850 3050
Wire Wire Line
	9850 3050 9850 2950
Wire Wire Line
	9750 2850 9850 2850
Connection ~ 9850 2850
Wire Wire Line
	9850 2850 9850 2750
Wire Wire Line
	9400 2950 9850 2950
Connection ~ 9850 2950
Wire Wire Line
	9850 2950 9850 2850
Wire Wire Line
	9250 2750 9850 2750
Connection ~ 9850 2750
Wire Wire Line
	9100 2450 9850 2450
Wire Wire Line
	9850 2450 9850 2650
Wire Wire Line
	9850 2450 9950 2450
Connection ~ 9850 2450
Wire Wire Line
	8400 2650 9850 2650
Connection ~ 9850 2650
Wire Wire Line
	9850 2650 9850 2750
Wire Wire Line
	4900 6950 4250 6950
$Comp
L Device:Thermistor TH4
U 1 1 5C5C53AA
P 5200 7300
F 0 "TH4" H 5305 7346 50  0000 L CNN
F 1 "10K" H 5305 7255 50  0000 L CNN
F 2 "Resistor_SMD:R_0805_2012Metric" H 5200 7300 50  0001 C CNN
F 3 "~" H 5200 7300 50  0001 C CNN
	1    5200 7300
	1    0    0    -1  
$EndComp
Wire Wire Line
	5200 6500 5200 6400
Wire Wire Line
	5200 7500 5200 7600
$Comp
L Device:R R37
U 1 1 5C5C53B2
P 5200 6650
F 0 "R37" H 5270 6696 50  0000 L CNN
F 1 "10K" H 5270 6605 50  0000 L CNN
F 2 "Resistor_SMD:R_0805_2012Metric" V 5130 6650 50  0001 C CNN
F 3 "~" H 5200 6650 50  0001 C CNN
	1    5200 6650
	1    0    0    -1  
$EndComp
Wire Wire Line
	5200 6800 5200 6950
Wire Wire Line
	4900 6400 5200 6400
Connection ~ 4900 6400
Wire Wire Line
	4900 7600 5200 7600
Connection ~ 4900 7600
$Comp
L ad7280a:AD7280A U3
U 1 1 5609CEF3
P 6950 6200
AR Path="/55E8A312/55EA30DE/5609CEF3" Ref="U3"  Part="1" 
AR Path="/55E8A312/57134280/5609CEF3" Ref="U4"  Part="1" 
AR Path="/5BFE4F92/5609CEF3" Ref="U5"  Part="1" 
F 0 "U5" H 7200 6100 60  0000 C CNN
F 1 "AD7280A" H 6850 6100 60  0000 C CNN
F 2 "Package_QFP:LQFP-48_7x7mm_P0.5mm" H 7250 6200 60  0000 C CNN
F 3 "~" H 7250 6200 60  0000 C CNN
	1    6950 6200
	1    0    0    -1  
$EndComp
Wire Wire Line
	5550 3450 4800 3450
Text Label 4800 3450 0    50   ~ 0
TEMP4
Text Label 5850 6950 0    50   ~ 0
TEMP4
Connection ~ 5200 6950
Wire Wire Line
	5200 6950 5200 7100
$Comp
L Device:C C?
U 1 1 5C671603
P 5700 7300
AR Path="/55E8A312/55EA30DE/5C671603" Ref="C?"  Part="1" 
AR Path="/55E8A312/57134280/5C671603" Ref="C?"  Part="1" 
AR Path="/5BFE4F92/5C671603" Ref="C5"  Part="1" 
F 0 "C5" H 5700 7400 40  0000 L CNN
F 1 "0.1uF50V" H 5706 7215 40  0000 L CNN
F 2 "Capacitor_SMD:C_0805_2012Metric_Pad1.15x1.40mm_HandSolder" H 5738 7150 30  0000 C CNN
F 3 "~" H 5700 7300 60  0000 C CNN
	1    5700 7300
	1    0    0    -1  
$EndComp
Wire Wire Line
	5700 7600 5700 7450
Wire Wire Line
	5200 7600 5700 7600
Connection ~ 5200 7600
Wire Wire Line
	5200 6950 5700 6950
Wire Wire Line
	5700 7150 5700 6950
Connection ~ 5700 6950
Wire Wire Line
	5700 6950 5850 6950
$Comp
L Device:R R?
U 1 1 5CCC36EF
P 1700 2150
AR Path="/55E8A312/55EA30DE/5CCC36EF" Ref="R?"  Part="1" 
AR Path="/55E8A312/57134280/5CCC36EF" Ref="R?"  Part="1" 
AR Path="/5BFE4F92/5CCC36EF" Ref="R43"  Part="1" 
F 0 "R43" V 1780 2150 40  0000 C CNN
F 1 "5R" V 1707 2151 40  0000 C CNN
F 2 "POW_RES:POW_RES" V 1630 2150 30  0000 C CNN
F 3 "~" H 1700 2150 30  0000 C CNN
	1    1700 2150
	1    0    0    -1  
$EndComp
Wire Wire Line
	1700 2000 1700 1950
Wire Wire Line
	1700 2300 1700 2350
$Comp
L Device:R R?
U 1 1 5CCFF772
P 1700 4050
AR Path="/55E8A312/55EA30DE/5CCFF772" Ref="R?"  Part="1" 
AR Path="/55E8A312/57134280/5CCFF772" Ref="R?"  Part="1" 
AR Path="/5BFE4F92/5CCFF772" Ref="R45"  Part="1" 
F 0 "R45" V 1780 4050 40  0000 C CNN
F 1 "5R" V 1707 4051 40  0000 C CNN
F 2 "POW_RES:POW_RES" V 1630 4050 30  0000 C CNN
F 3 "~" H 1700 4050 30  0000 C CNN
	1    1700 4050
	1    0    0    -1  
$EndComp
Wire Wire Line
	1700 4250 1700 4200
Wire Wire Line
	1700 3900 1700 3850
$Comp
L Device:R R?
U 1 1 5CD96CF9
P 1700 5100
AR Path="/55E8A312/55EA30DE/5CD96CF9" Ref="R?"  Part="1" 
AR Path="/55E8A312/57134280/5CD96CF9" Ref="R?"  Part="1" 
AR Path="/5BFE4F92/5CD96CF9" Ref="R46"  Part="1" 
F 0 "R46" V 1780 5100 40  0000 C CNN
F 1 "5R" V 1707 5101 40  0000 C CNN
F 2 "POW_RES:POW_RES" V 1630 5100 30  0000 C CNN
F 3 "~" H 1700 5100 30  0000 C CNN
	1    1700 5100
	1    0    0    -1  
$EndComp
$Comp
L Device:R R?
U 1 1 5CD96EDC
P 1700 3100
AR Path="/55E8A312/55EA30DE/5CD96EDC" Ref="R?"  Part="1" 
AR Path="/55E8A312/57134280/5CD96EDC" Ref="R?"  Part="1" 
AR Path="/5BFE4F92/5CD96EDC" Ref="R44"  Part="1" 
F 0 "R44" V 1780 3100 40  0000 C CNN
F 1 "5R" V 1707 3101 40  0000 C CNN
F 2 "POW_RES:POW_RES" V 1630 3100 30  0000 C CNN
F 3 "~" H 1700 3100 30  0000 C CNN
	1    1700 3100
	1    0    0    -1  
$EndComp
$Comp
L Device:R R?
U 1 1 5CD96F9C
P 1700 1200
AR Path="/55E8A312/55EA30DE/5CD96F9C" Ref="R?"  Part="1" 
AR Path="/55E8A312/57134280/5CD96F9C" Ref="R?"  Part="1" 
AR Path="/5BFE4F92/5CD96F9C" Ref="R38"  Part="1" 
F 0 "R38" V 1780 1200 40  0000 C CNN
F 1 "5R" V 1707 1201 40  0000 C CNN
F 2 "POW_RES:POW_RES" V 1630 1200 30  0000 C CNN
F 3 "~" H 1700 1200 30  0000 C CNN
	1    1700 1200
	1    0    0    -1  
$EndComp
Wire Wire Line
	1700 1400 1700 1350
Wire Wire Line
	1700 1050 1700 1000
Connection ~ 1700 1000
Wire Wire Line
	1700 1000 1900 1000
Wire Wire Line
	1700 2950 1700 2900
Wire Wire Line
	1700 3250 1700 3300
Wire Wire Line
	1700 4950 1700 4850
Wire Wire Line
	1700 5250 1700 5300
$Comp
L Device:R R?
U 1 1 5CE519D8
P 1700 6050
AR Path="/55E8A312/55EA30DE/5CE519D8" Ref="R?"  Part="1" 
AR Path="/55E8A312/57134280/5CE519D8" Ref="R?"  Part="1" 
AR Path="/5BFE4F92/5CE519D8" Ref="R47"  Part="1" 
F 0 "R47" V 1780 6050 40  0000 C CNN
F 1 "5R" V 1707 6051 40  0000 C CNN
F 2 "POW_RES:POW_RES" V 1630 6050 30  0000 C CNN
F 3 "~" H 1700 6050 30  0000 C CNN
	1    1700 6050
	1    0    0    -1  
$EndComp
Wire Wire Line
	1700 6250 1700 6200
Wire Wire Line
	1700 5900 1700 5850
Wire Wire Line
	1700 2800 1700 2900
Wire Wire Line
	1700 1850 1700 1950
Wire Wire Line
	1700 1800 1700 1850
Connection ~ 1700 1850
Wire Wire Line
	1700 1850 1750 1850
Wire Wire Line
	2100 1600 2150 1600
Wire Wire Line
	2000 1600 2100 1600
Connection ~ 2100 1600
Wire Wire Line
	2100 1750 2100 1600
Wire Wire Line
	2150 1750 2100 1750
Wire Wire Line
	2150 1850 2150 1750
Wire Wire Line
	2150 2700 2100 2700
Wire Wire Line
	2150 2800 2150 2700
Wire Wire Line
	2100 2550 2150 2550
Wire Wire Line
	2000 2550 2100 2550
Connection ~ 2100 2550
Wire Wire Line
	2100 2700 2100 2550
Wire Wire Line
	1700 2800 1750 2800
Connection ~ 1700 2800
Wire Wire Line
	1700 2750 1700 2800
Wire Wire Line
	1700 3750 1700 3850
Wire Wire Line
	1700 3700 1700 3750
Connection ~ 1700 3750
Wire Wire Line
	1700 3750 1750 3750
Wire Wire Line
	2100 3500 2150 3500
Wire Wire Line
	2000 3500 2100 3500
Connection ~ 2100 3500
Wire Wire Line
	2100 3650 2100 3500
Wire Wire Line
	2150 3650 2100 3650
Wire Wire Line
	2150 3750 2150 3650
Wire Wire Line
	2150 4650 2100 4650
Wire Wire Line
	2150 4750 2150 4650
Wire Wire Line
	2100 4450 2150 4450
Wire Wire Line
	2000 4450 2100 4450
Connection ~ 2100 4450
Wire Wire Line
	2100 4650 2100 4450
Wire Wire Line
	1700 4750 1700 4850
Wire Wire Line
	1700 4650 1700 4750
Connection ~ 1700 4750
Wire Wire Line
	1700 4750 1750 4750
Wire Wire Line
	1700 5700 1700 5750
Wire Wire Line
	1700 5750 1700 5850
Connection ~ 1700 5750
Wire Wire Line
	1700 5750 1750 5750
Wire Wire Line
	2150 5650 2100 5650
Wire Wire Line
	2150 5750 2150 5650
Wire Wire Line
	2000 5500 2100 5500
Wire Wire Line
	2100 5500 2150 5500
Connection ~ 2100 5500
Wire Wire Line
	2100 5650 2100 5500
Wire Wire Line
	2200 6700 2200 6550
Wire Wire Line
	2100 6450 2150 6450
Wire Wire Line
	2000 6450 2100 6450
Connection ~ 2100 6450
Wire Wire Line
	2100 6550 2100 6450
Wire Wire Line
	2200 6550 2100 6550
Wire Wire Line
	1700 6700 1800 6700
Wire Wire Line
	850  4850 1700 4850
Wire Wire Line
	850  5850 1700 5850
Wire Wire Line
	850  3850 1700 3850
Wire Wire Line
	8650 3950 10000 3950
$Comp
L Device:Q_NMOS_GDSD Q2
U 1 1 5CD13BC2
P 1800 1600
F 0 "Q2" H 2088 1646 50  0000 L CNN
F 1 "Q_NMOS_GDSD" H 2088 1555 50  0000 L CNN
F 2 "lib:DPAK" H 2000 1700 50  0001 C CNN
F 3 "~" H 1800 1600 50  0001 C CNN
	1    1800 1600
	-1   0    0    -1  
$EndComp
$Comp
L Device:Q_NMOS_GDSD Q3
U 1 1 5CD30FA2
P 1800 2550
F 0 "Q3" H 2088 2596 50  0000 L CNN
F 1 "Q_NMOS_GDSD" H 2088 2505 50  0000 L CNN
F 2 "lib:DPAK" H 2000 2650 50  0001 C CNN
F 3 "~" H 1800 2550 50  0001 C CNN
	1    1800 2550
	-1   0    0    -1  
$EndComp
$Comp
L Device:Q_NMOS_GDSD Q4
U 1 1 5CD31346
P 1800 3500
F 0 "Q4" H 2088 3546 50  0000 L CNN
F 1 "Q_NMOS_GDSD" H 2088 3455 50  0000 L CNN
F 2 "lib:DPAK" H 2000 3600 50  0001 C CNN
F 3 "~" H 1800 3500 50  0001 C CNN
	1    1800 3500
	-1   0    0    -1  
$EndComp
$Comp
L Device:Q_NMOS_GDSD Q5
U 1 1 5CD31473
P 1800 4450
F 0 "Q5" H 2088 4496 50  0000 L CNN
F 1 "Q_NMOS_GDSD" H 2088 4405 50  0000 L CNN
F 2 "lib:DPAK" H 2000 4550 50  0001 C CNN
F 3 "~" H 1800 4450 50  0001 C CNN
	1    1800 4450
	-1   0    0    -1  
$EndComp
$Comp
L Device:Q_NMOS_GDSD Q6
U 1 1 5CD31639
P 1800 5500
F 0 "Q6" H 2088 5546 50  0000 L CNN
F 1 "Q_NMOS_GDSD" H 2088 5455 50  0000 L CNN
F 2 "lib:DPAK" H 2000 5600 50  0001 C CNN
F 3 "~" H 1800 5500 50  0001 C CNN
	1    1800 5500
	-1   0    0    -1  
$EndComp
$Comp
L Device:Q_NMOS_GDSD Q8
U 1 1 5CD31715
P 1800 6450
F 0 "Q8" H 2088 6496 50  0000 L CNN
F 1 "Q_NMOS_GDSD" H 2088 6405 50  0000 L CNN
F 2 "lib:DPAK" H 2000 6550 50  0001 C CNN
F 3 "~" H 1800 6450 50  0001 C CNN
	1    1800 6450
	-1   0    0    -1  
$EndComp
Wire Wire Line
	1700 6250 1600 6250
Connection ~ 1700 6250
Wire Wire Line
	1700 5300 1600 5300
Connection ~ 1700 5300
Wire Wire Line
	1700 4250 1600 4250
Connection ~ 1700 4250
Wire Wire Line
	1700 3300 1600 3300
Connection ~ 1700 3300
Wire Wire Line
	1700 2350 1600 2350
Connection ~ 1700 2350
Wire Wire Line
	1700 1400 1600 1400
Connection ~ 1700 1400
Wire Wire Line
	2750 1950 2950 1950
Wire Wire Line
	2950 2900 2750 2900
Wire Wire Line
	850  1950 1700 1950
Wire Wire Line
	850  2900 1700 2900
Text Label 5800 7600 0    60   ~ 0
VSS
Wire Wire Line
	5700 7600 5800 7600
Connection ~ 5700 7600
$Comp
L DoubleBatteryCell:BatCellSameDir U9
U 1 1 5CD8A242
P 850 2500
F 0 "U9" H 968 3221 50  0000 L CNN
F 1 "BatCellSameDir" H 968 3130 50  0000 L CNN
F 2 "lib:Dual18650Holder" H 850 2500 50  0001 C CNN
F 3 "" H 850 2500 50  0001 C CNN
	1    850  2500
	1    0    0    -1  
$EndComp
$Comp
L DoubleBatteryCell:BatCellSameDir U10
U 1 1 5CD8A37C
P 850 4400
F 0 "U10" H 968 5121 50  0000 L CNN
F 1 "BatCellSameDir" H 968 5030 50  0000 L CNN
F 2 "lib:Dual18650Holder" H 850 4400 50  0001 C CNN
F 3 "" H 850 4400 50  0001 C CNN
	1    850  4400
	1    0    0    -1  
$EndComp
$Comp
L DoubleBatteryCell:BatCellSameDir U11
U 1 1 5CDC4C9D
P 850 6400
F 0 "U11" H 968 7121 50  0000 L CNN
F 1 "BatCellSameDir" H 968 7030 50  0000 L CNN
F 2 "lib:Dual18650Holder" H 850 6400 50  0001 C CNN
F 3 "" H 850 6400 50  0001 C CNN
	1    850  6400
	1    0    0    -1  
$EndComp
$EndSCHEMATC
