EESchema Schematic File Version 4
LIBS:CellTesterX6-cache
EELAYER 26 0
EELAYER END
$Descr A4 11693 8268
encoding utf-8
Sheet 1 7
Title ""
Date ""
Rev ""
Comp ""
Comment1 ""
Comment2 ""
Comment3 ""
Comment4 ""
$EndDescr
$Sheet
S 8000 2750 1750 1550
U 5BFE4F92
F0 "AD7280A_SUB" 50
F1 "AD7280A_SUB.sch" 50
F2 "SCLK" I L 8000 3050 50 
F3 "SDI" I L 8000 3150 50 
F4 "SDO" O L 8000 3250 50 
F5 "ALERT" O L 8000 3450 50 
F6 "CS/" I L 8000 2950 50 
F7 "PD/" I L 8000 3600 50 
F8 "CNVST/" I L 8000 3700 50 
F9 "HIBAT" O R 9750 3050 50 
F10 "VSSN" I R 9750 3150 50 
F11 "VDDNFILTERED" O R 9750 2950 50 
F12 "LOBAT" I R 9750 3250 50 
$EndSheet
Wire Wire Line
	9750 3250 9950 3250
Wire Wire Line
	9750 3050 10300 3050
$Comp
L Device:C C3
U 1 1 5C9A2928
P 3450 7150
F 0 "C3" H 3565 7196 50  0000 L CNN
F 1 "0,1µF10V" H 3565 7105 50  0000 L CNN
F 2 "Capacitor_SMD:C_0805_2012Metric_Pad1.15x1.40mm_HandSolder" H 3488 7000 50  0001 C CNN
F 3 "~" H 3450 7150 50  0001 C CNN
	1    3450 7150
	1    0    0    -1  
$EndComp
Wire Wire Line
	8000 3250 7600 3250
Wire Wire Line
	7600 3250 7600 3350
$Comp
L Device:C C2
U 1 1 5C9B6763
P 2950 7150
F 0 "C2" H 3065 7196 50  0000 L CNN
F 1 "0,1µF10V" H 3065 7105 50  0000 L CNN
F 2 "Capacitor_SMD:C_0805_2012Metric_Pad1.15x1.40mm_HandSolder" H 2988 7000 50  0001 C CNN
F 3 "~" H 2950 7150 50  0001 C CNN
	1    2950 7150
	1    0    0    -1  
$EndComp
Text Label 7700 3600 0    50   ~ 0
PDWN\
Wire Wire Line
	9750 3150 9950 3150
Wire Wire Line
	9750 2950 9950 2950
Text Label 9950 2950 0    50   ~ 0
VDDFILT
Wire Wire Line
	8000 3700 7550 3700
Wire Wire Line
	7550 3700 7550 3250
Wire Wire Line
	2950 7000 2950 6800
Wire Wire Line
	2950 7300 2950 7500
Wire Wire Line
	2950 7500 3450 7500
Wire Wire Line
	3450 7000 3450 6800
Wire Wire Line
	2950 6800 3450 6800
Connection ~ 3450 6800
Wire Wire Line
	3450 7300 3450 7500
Connection ~ 3450 7500
Text Label 4500 6800 0    50   ~ 0
VDD
Text Label 4500 7500 0    50   ~ 0
GND
$Comp
L Device:LED D2
U 1 1 5C2825CB
P 5650 7200
F 0 "D2" V 5688 7083 50  0000 R CNN
F 1 "LED" V 5597 7083 50  0000 R CNN
F 2 "LED_SMD:LED_0805_2012Metric_Castellated" H 5650 7200 50  0001 C CNN
F 3 "~" H 5650 7200 50  0001 C CNN
	1    5650 7200
	0    -1   -1   0   
$EndComp
$Comp
L Device:R R4
U 1 1 5C28271E
P 5650 6800
F 0 "R4" H 5720 6846 50  0000 L CNN
F 1 "4,7K" H 5720 6755 50  0000 L CNN
F 2 "Resistor_SMD:R_0805_2012Metric" V 5580 6800 50  0001 C CNN
F 3 "~" H 5650 6800 50  0001 C CNN
	1    5650 6800
	1    0    0    -1  
$EndComp
Wire Wire Line
	5650 6950 5650 7050
$Comp
L Device:LED D1
U 1 1 5C285BB3
P 5300 7200
F 0 "D1" V 5338 7083 50  0000 R CNN
F 1 "LED" V 5247 7083 50  0000 R CNN
F 2 "LED_SMD:LED_0805_2012Metric_Castellated" H 5300 7200 50  0001 C CNN
F 3 "~" H 5300 7200 50  0001 C CNN
	1    5300 7200
	0    -1   -1   0   
$EndComp
$Comp
L Device:R R3
U 1 1 5C285BB9
P 5300 6800
F 0 "R3" H 5370 6846 50  0000 L CNN
F 1 "4,7K" H 5370 6755 50  0000 L CNN
F 2 "Resistor_SMD:R_0805_2012Metric" V 5230 6800 50  0001 C CNN
F 3 "~" H 5300 6800 50  0001 C CNN
	1    5300 6800
	1    0    0    -1  
$EndComp
Wire Wire Line
	5300 6950 5300 7050
$Comp
L Device:LED D3
U 1 1 5C28902F
P 6000 7200
F 0 "D3" V 6038 7083 50  0000 R CNN
F 1 "LED" V 5947 7083 50  0000 R CNN
F 2 "LED_SMD:LED_0805_2012Metric_Castellated" H 6000 7200 50  0001 C CNN
F 3 "~" H 6000 7200 50  0001 C CNN
	1    6000 7200
	0    -1   -1   0   
$EndComp
$Comp
L Device:R R5
U 1 1 5C289035
P 6000 6800
F 0 "R5" H 6070 6846 50  0000 L CNN
F 1 "4,7K" H 6070 6755 50  0000 L CNN
F 2 "Resistor_SMD:R_0805_2012Metric" V 5930 6800 50  0001 C CNN
F 3 "~" H 6000 6800 50  0001 C CNN
	1    6000 6800
	1    0    0    -1  
$EndComp
Wire Wire Line
	6000 6950 6000 7050
Wire Wire Line
	5300 7350 5300 7500
Wire Wire Line
	5300 7500 5650 7500
Wire Wire Line
	5650 7350 5650 7500
Connection ~ 5650 7500
Wire Wire Line
	5650 7500 6000 7500
Wire Wire Line
	6000 7350 6000 7500
Connection ~ 6000 7500
Wire Wire Line
	6000 7500 6300 7500
Text Label 6300 7500 0    50   ~ 0
GND
Wire Wire Line
	6000 6650 6000 6550
Wire Wire Line
	6000 6550 6200 6550
Wire Wire Line
	5650 6450 5850 6450
Wire Wire Line
	5650 6450 5650 6650
Wire Wire Line
	5300 6350 5500 6350
Wire Wire Line
	5300 6350 5300 6650
Text Label 5500 6350 0    50   ~ 0
LED_RUN
Text Label 5850 6450 0    50   ~ 0
LED_ERR
Text Label 6200 6550 0    50   ~ 0
LED_BALANCE
Text Label 6000 4600 0    50   ~ 0
LED_BALANCE
Text Label 6000 4500 0    50   ~ 0
LED_ERR
Text Label 6000 4400 0    50   ~ 0
LED_RUN
Wire Wire Line
	4400 3600 4100 3600
Wire Wire Line
	4400 3750 4100 3750
Wire Wire Line
	5750 4600 6000 4600
Wire Wire Line
	5750 4500 6000 4500
Wire Wire Line
	5750 4400 6000 4400
Text Label 4100 3600 0    50   ~ 0
VDD
Text Label 4100 3750 0    50   ~ 0
GND
$Comp
L Mechanical:MountingHole_Pad H1
U 1 1 5C32D5CB
P 1500 1200
F 0 "H1" H 1600 1251 50  0000 L CNN
F 1 "MountingHole_Pad" H 1600 1160 50  0000 L CNN
F 2 "MountingHole:MountingHole_3.2mm_M3_ISO14580_Pad" H 1500 1200 50  0001 C CNN
F 3 "~" H 1500 1200 50  0001 C CNN
	1    1500 1200
	1    0    0    -1  
$EndComp
$Comp
L Mechanical:MountingHole_Pad H3
U 1 1 5C32D633
P 2400 1200
F 0 "H3" H 2500 1251 50  0000 L CNN
F 1 "MountingHole_Pad" H 2500 1160 50  0000 L CNN
F 2 "MountingHole:MountingHole_3.2mm_M3_ISO14580_Pad" H 2400 1200 50  0001 C CNN
F 3 "~" H 2400 1200 50  0001 C CNN
	1    2400 1200
	1    0    0    -1  
$EndComp
$Comp
L Mechanical:MountingHole_Pad H4
U 1 1 5C345DB0
P 2400 1650
F 0 "H4" H 2300 1608 50  0000 R CNN
F 1 "MountingHole_Pad" H 2300 1699 50  0000 R CNN
F 2 "MountingHole:MountingHole_3.2mm_M3_ISO14580_Pad" H 2400 1650 50  0001 C CNN
F 3 "~" H 2400 1650 50  0001 C CNN
	1    2400 1650
	-1   0    0    1   
$EndComp
$Comp
L Mechanical:MountingHole_Pad H2
U 1 1 5C345DB6
P 1500 1650
F 0 "H2" H 1400 1608 50  0000 R CNN
F 1 "MountingHole_Pad" H 1400 1699 50  0000 R CNN
F 2 "MountingHole:MountingHole_3.2mm_M3_ISO14580_Pad" H 1500 1650 50  0001 C CNN
F 3 "~" H 1500 1650 50  0001 C CNN
	1    1500 1650
	-1   0    0    1   
$EndComp
Wire Wire Line
	1500 1550 1500 1400
Wire Wire Line
	2400 1300 2400 1400
Wire Wire Line
	2400 1400 1500 1400
Connection ~ 2400 1400
Wire Wire Line
	2400 1400 2400 1550
Connection ~ 1500 1400
Wire Wire Line
	1500 1400 1500 1300
Wire Wire Line
	2400 1400 2650 1400
Text Label 2650 1400 0    50   ~ 0
GND
Wire Wire Line
	3450 7500 4000 7500
Wire Wire Line
	3450 6800 4000 6800
$Comp
L Device:C C4
U 1 1 5C3A271F
P 4000 7150
F 0 "C4" H 4115 7196 50  0000 L CNN
F 1 "10µF10V" H 4115 7105 50  0000 L CNN
F 2 "Capacitor_SMD:C_1206_3216Metric" H 4038 7000 50  0001 C CNN
F 3 "~" H 4000 7150 50  0001 C CNN
	1    4000 7150
	1    0    0    -1  
$EndComp
Wire Wire Line
	4000 7000 4000 6800
Connection ~ 4000 6800
Wire Wire Line
	4000 6800 4500 6800
Wire Wire Line
	4000 7300 4000 7500
Connection ~ 4000 7500
Wire Wire Line
	4000 7500 4500 7500
$Comp
L Device:LED D13
U 1 1 5CD031EC
P 4950 7200
F 0 "D13" V 4988 7083 50  0000 R CNN
F 1 "LED" V 4897 7083 50  0000 R CNN
F 2 "LED_SMD:LED_0805_2012Metric_Castellated" H 4950 7200 50  0001 C CNN
F 3 "~" H 4950 7200 50  0001 C CNN
	1    4950 7200
	0    -1   -1   0   
$EndComp
$Comp
L Device:R R1
U 1 1 5CD031F2
P 4950 6800
F 0 "R1" H 5020 6846 50  0000 L CNN
F 1 "4,7K" H 5020 6755 50  0000 L CNN
F 2 "Resistor_SMD:R_0805_2012Metric" V 4880 6800 50  0001 C CNN
F 3 "~" H 4950 6800 50  0001 C CNN
	1    4950 6800
	1    0    0    -1  
$EndComp
Wire Wire Line
	4950 6950 4950 7050
Wire Wire Line
	4950 7350 4950 7500
Wire Wire Line
	5300 7500 4950 7500
Connection ~ 5300 7500
Wire Wire Line
	4950 6650 4950 6250
Wire Wire Line
	4950 6250 5150 6250
Text Label 6000 4700 0    50   ~ 0
LED_DISCHARGE
Wire Wire Line
	5750 2950 8000 2950
Wire Wire Line
	5750 3050 8000 3050
Wire Wire Line
	5750 3150 8000 3150
Wire Wire Line
	5750 3250 7550 3250
Wire Wire Line
	5750 3350 7600 3350
Wire Wire Line
	5750 3450 8000 3450
Text Label 5150 6250 0    50   ~ 0
LED_DISCHARGE
Wire Wire Line
	5750 4700 6000 4700
$Comp
L Connector:Conn_01x02_Female J1
U 1 1 5CD4571A
P 1250 4600
F 0 "J1" H 1144 4275 50  0000 C CNN
F 1 "GND 24VPower" H 1144 4366 50  0000 C CNN
F 2 "Connector_Phoenix_MC:PhoenixContact_MCV_1,5_2-G-3.81_1x02_P3.81mm_Vertical" H 1250 4600 50  0001 C CNN
F 3 "~" H 1250 4600 50  0001 C CNN
	1    1250 4600
	-1   0    0    1   
$EndComp
Wire Wire Line
	1450 4600 1950 4600
Text Label 1950 4600 0    50   ~ 0
GND
Text Label 1950 4500 0    50   ~ 0
24VPower
Text Label 10300 3250 0    50   ~ 0
GND
Text Label 4600 5600 0    50   ~ 0
24VCHARGE
Text Label 1650 5700 0    50   ~ 0
5V
Text Label 1650 5450 0    50   ~ 0
CHARGE
Text Label 6000 4200 0    50   ~ 0
CHARGE
Wire Wire Line
	5750 4200 6000 4200
Text Label 1650 5800 0    50   ~ 0
GND
Wire Wire Line
	5750 3600 8000 3600
$Comp
L Regulator_Linear:L7805 U1
U 1 1 5CDDD312
P 2150 2700
F 0 "U1" H 2150 2942 50  0000 C CNN
F 1 "L7805" H 2150 2851 50  0000 C CNN
F 2 "Converter_DCDC:Converter_DCDC_RECOM_R-78E-0.5_THT" H 2175 2550 50  0001 L CIN
F 3 "http://www.st.com/content/ccc/resource/technical/document/datasheet/41/4f/b3/b0/12/d4/47/88/CD00000444.pdf/files/CD00000444.pdf/jcr:content/translations/en.CD00000444.pdf" H 2150 2650 50  0001 C CNN
	1    2150 2700
	1    0    0    -1  
$EndComp
$Comp
L Regulator_Linear:LM1117-3.3 U2
U 1 1 5CDDD734
P 2150 3500
F 0 "U2" H 2150 3742 50  0000 C CNN
F 1 "LM1117-3.3" H 2150 3651 50  0000 C CNN
F 2 "Package_TO_SOT_SMD:TO-252-3_TabPin2" H 2150 3500 50  0001 C CNN
F 3 "http://www.ti.com/lit/ds/symlink/lm1117.pdf" H 2150 3500 50  0001 C CNN
	1    2150 3500
	1    0    0    -1  
$EndComp
Wire Wire Line
	1600 3500 1850 3500
Wire Wire Line
	2450 2700 2550 2700
Wire Wire Line
	2150 3000 2150 3100
Wire Wire Line
	2550 3100 2700 3100
Wire Wire Line
	2150 3800 2150 3900
Wire Wire Line
	1050 2700 1250 2700
Text Label 1050 2700 0    50   ~ 0
24VPower
Text Label 2700 3100 0    50   ~ 0
GND
Text Label 2700 3100 0    50   ~ 0
GND
Text Label 2700 3900 0    50   ~ 0
GND
Wire Wire Line
	2450 3500 2550 3500
$Comp
L Device:CP1 C1
U 1 1 5CE09648
P 1250 3200
F 0 "C1" H 1365 3246 50  0000 L CNN
F 1 "10uF" H 1365 3155 50  0000 L CNN
F 2 "Capacitor_SMD:CP_Elec_6.3x5.3" H 1250 3200 50  0001 C CNN
F 3 "~" H 1250 3200 50  0001 C CNN
	1    1250 3200
	1    0    0    -1  
$EndComp
$Comp
L Device:CP1 C28
U 1 1 5CE0C26B
P 2550 3700
F 0 "C28" H 2665 3746 50  0000 L CNN
F 1 "10uF" H 2665 3655 50  0000 L CNN
F 2 "Capacitor_SMD:CP_Elec_6.3x5.3" H 2550 3700 50  0001 C CNN
F 3 "~" H 2550 3700 50  0001 C CNN
	1    2550 3700
	1    0    0    -1  
$EndComp
$Comp
L Device:CP1 C26
U 1 1 5CE119BF
P 2550 2900
F 0 "C26" H 2665 2946 50  0000 L CNN
F 1 "10uF" H 2665 2855 50  0000 L CNN
F 2 "Capacitor_SMD:CP_Elec_6.3x5.3" H 2550 2900 50  0001 C CNN
F 3 "~" H 2550 2900 50  0001 C CNN
	1    2550 2900
	1    0    0    -1  
$EndComp
Wire Wire Line
	2150 3900 2550 3900
Wire Wire Line
	2550 3900 2550 3850
Connection ~ 2550 3900
Wire Wire Line
	2550 3900 2700 3900
Wire Wire Line
	2550 3550 2550 3500
Connection ~ 2550 3500
Wire Wire Line
	2550 3500 2700 3500
Wire Wire Line
	1250 2700 1250 3050
Connection ~ 1250 2700
Wire Wire Line
	1250 3350 1250 3900
Wire Wire Line
	1250 3900 2150 3900
Connection ~ 2150 3900
Wire Wire Line
	2550 3100 2550 3050
Wire Wire Line
	2550 3100 2150 3100
Connection ~ 2550 3100
Wire Wire Line
	2550 2750 2550 2700
Connection ~ 2550 2700
Wire Wire Line
	2550 2700 2700 2700
Text Label 2700 2700 0    50   ~ 0
5V
Text Label 2700 3500 0    50   ~ 0
VDD
$Sheet
S 4400 2750 1350 2100
U 5C2EA202
F0 "MCU" 50
F1 "MCU.sch" 50
F2 "LED_RUN" O R 5750 4400 50 
F3 "LED_ERR" O R 5750 4500 50 
F4 "LED_BALANCE" O R 5750 4600 50 
F5 "CS\\" O R 5750 2950 50 
F6 "SCLK" O R 5750 3050 50 
F7 "SDI" O R 5750 3150 50 
F8 "SDO" I R 5750 3350 50 
F9 "ALERT" I R 5750 3450 50 
F10 "CNVST" O R 5750 3250 50 
F11 "VDD" O L 4400 3600 50 
F12 "GND" O L 4400 3750 50 
F13 "LED_DISCHARGE" O R 5750 4700 50 
F14 "CHARGE" O R 5750 4200 50 
F15 "PD\\" O R 5750 3600 50 
F16 "FANENABLE" O R 5750 4000 50 
F17 "DISCHARGE" O R 5750 4300 50 
$EndSheet
$Comp
L power:PWR_FLAG #FLG0101
U 1 1 5CECF0C4
P 1600 2600
F 0 "#FLG0101" H 1600 2675 50  0001 C CNN
F 1 "PWR_FLAG" H 1600 2774 50  0000 C CNN
F 2 "" H 1600 2600 50  0001 C CNN
F 3 "~" H 1600 2600 50  0001 C CNN
	1    1600 2600
	1    0    0    -1  
$EndComp
$Comp
L Connector:Conn_01x02_Female J3
U 1 1 5CED380F
P 6050 800
F 0 "J3" H 5944 475 50  0000 C CNN
F 1 "24V FANIN" H 5944 566 50  0000 C CNN
F 2 "Connector_Phoenix_MC:PhoenixContact_MCV_1,5_2-G-3.81_1x02_P3.81mm_Vertical" H 6050 800 50  0001 C CNN
F 3 "~" H 6050 800 50  0001 C CNN
	1    6050 800 
	1    0    0    -1  
$EndComp
Wire Wire Line
	5750 4000 6000 4000
Text Label 6000 4000 0    50   ~ 0
FANENABLE\
Text Label 5900 1850 0    50   ~ 0
GND
Text Label 3700 1500 0    50   ~ 0
FANENABLE\
$Sheet
S 3700 5500 700  750 
U 5CD0BA99
F0 "CurSense" 50
F1 "CurSense.sch" 50
F2 "SDA" I L 3700 5750 50 
F3 "SCL" I L 3700 5850 50 
F4 "VBAT" I R 4400 5600 50 
F5 "3.3V" I L 3700 6050 50 
F6 "GND" I L 3700 6150 50 
F7 "VBATIO" I L 3700 5600 50 
$EndSheet
Wire Wire Line
	4400 5600 4600 5600
Wire Wire Line
	3700 6150 3350 6150
Wire Wire Line
	3350 6050 3700 6050
Wire Wire Line
	3700 5750 3350 5750
Wire Wire Line
	3700 5850 3350 5850
Text Label 3350 6150 0    50   ~ 0
GND
Text Label 3350 6050 0    50   ~ 0
VDD
Text Label 3350 5750 0    50   ~ 0
SDA
Text Label 3350 5850 0    50   ~ 0
SCL
$Comp
L Device:R R14
U 1 1 5CDA2AA4
P 4400 1500
F 0 "R14" V 4193 1500 50  0000 C CNN
F 1 "4,7K" V 4284 1500 50  0000 C CNN
F 2 "Resistor_SMD:R_0805_2012Metric" V 4330 1500 50  0001 C CNN
F 3 "~" H 4400 1500 50  0001 C CNN
	1    4400 1500
	0    1    1    0   
$EndComp
$Comp
L tinkerforge:Optocoupler U8
U 1 1 5CDA2B52
P 4950 1600
F 0 "U8" H 4950 2015 50  0000 C CNN
F 1 "Optocoupler" H 4950 1924 50  0000 C CNN
F 2 "Package_SO:SO-4_4.4x2.3mm_P1.27mm" H 4950 1833 50  0000 C CIN
F 3 "" H 4950 1600 50  0000 L CNN
	1    4950 1600
	1    0    0    -1  
$EndComp
Wire Wire Line
	4550 1500 4650 1500
Wire Wire Line
	5750 900  5850 900 
Wire Wire Line
	4650 1700 4500 1700
Wire Wire Line
	4500 1700 4500 1850
Wire Wire Line
	5350 1850 5350 1700
Text Label 4850 800  0    50   ~ 0
24VPower
$Comp
L Device:Q_NPN_BCE Q1
U 1 1 5CDE8977
P 5650 1500
F 0 "Q1" H 5841 1546 50  0000 L CNN
F 1 "Q_NPN_BCE" H 5841 1455 50  0000 L CNN
F 2 "Package_TO_SOT_SMD:SOT-23" H 5850 1600 50  0001 C CNN
F 3 "~" H 5650 1500 50  0001 C CNN
	1    5650 1500
	1    0    0    -1  
$EndComp
$Comp
L Device:R R48
U 1 1 5CDF1E18
P 5350 1250
F 0 "R48" H 5280 1204 50  0000 R CNN
F 1 "4,7k" H 5280 1295 50  0000 R CNN
F 2 "Resistor_SMD:R_0805_2012Metric" V 5280 1250 50  0001 C CNN
F 3 "~" H 5350 1250 50  0001 C CNN
	1    5350 1250
	-1   0    0    1   
$EndComp
Wire Wire Line
	5350 1400 5350 1500
Wire Wire Line
	5350 1500 5450 1500
Wire Wire Line
	5350 1500 5250 1500
Connection ~ 5350 1500
Wire Wire Line
	5750 900  5750 1300
Wire Wire Line
	5350 800  5350 1100
Connection ~ 5350 800 
Wire Wire Line
	5350 800  5850 800 
Wire Wire Line
	4850 800  5350 800 
Wire Wire Line
	5250 1700 5350 1700
Wire Wire Line
	4500 1850 5350 1850
Wire Wire Line
	5900 1850 5750 1850
Connection ~ 5350 1850
Wire Wire Line
	5750 1850 5750 1700
Connection ~ 5750 1850
Wire Wire Line
	5750 1850 5350 1850
Wire Wire Line
	3700 1500 4250 1500
Wire Wire Line
	9950 3150 9950 3250
Connection ~ 9950 3250
Wire Wire Line
	9950 3250 10300 3250
$Sheet
S 2050 5350 900  650 
U 5CF31B1F
F0 "relIn" 50
F1 "rel.sch" 50
F2 "VCC" I L 2050 5700 50 
F3 "GND" I L 2050 5800 50 
F4 "COMMAND" I L 2050 5450 50 
F5 "OUT" I R 2950 5600 50 
F6 "IN" I R 2950 5450 50 
$EndSheet
Wire Wire Line
	1650 5450 2050 5450
Wire Wire Line
	2050 5700 1650 5700
Wire Wire Line
	1650 5800 2050 5800
Wire Wire Line
	3100 4500 3100 5450
Wire Wire Line
	3100 5450 2950 5450
Wire Wire Line
	1450 4500 3100 4500
Wire Wire Line
	2950 5600 3700 5600
$Sheet
S 8000 5300 900  650 
U 5CF5F211
F0 "sheet5CF5F20A" 50
F1 "rel.sch" 50
F2 "VCC" I L 8000 5650 50 
F3 "GND" I L 8000 5750 50 
F4 "COMMAND" I L 8000 5400 50 
F5 "OUT" I R 8900 5550 50 
F6 "IN" I R 8900 5400 50 
$EndSheet
Wire Wire Line
	8900 5550 9500 5550
Wire Wire Line
	8900 5400 9200 5400
$Comp
L Connector:Conn_01x01_Female J4
U 1 1 5CF7DC67
P 9700 5550
F 0 "J4" H 9727 5576 50  0000 L CNN
F 1 "VBAT+" H 9727 5485 50  0000 L CNN
F 2 "lib:M5Bushing" H 9700 5550 50  0001 C CNN
F 3 "~" H 9700 5550 50  0001 C CNN
	1    9700 5550
	1    0    0    -1  
$EndComp
Text Label 7600 5650 0    50   ~ 0
5V
Text Label 7600 5750 0    50   ~ 0
GND
Wire Wire Line
	8000 5650 7600 5650
Wire Wire Line
	7600 5750 7800 5750
$Comp
L Connector:Conn_01x01_Female J6
U 1 1 5CF99C5E
P 9700 6250
F 0 "J6" H 9727 6276 50  0000 L CNN
F 1 "VBAT-" H 9727 6185 50  0000 L CNN
F 2 "lib:M5Bushing" H 9700 6250 50  0001 C CNN
F 3 "~" H 9700 6250 50  0001 C CNN
	1    9700 6250
	1    0    0    -1  
$EndComp
Wire Wire Line
	7800 5750 7800 6250
Wire Wire Line
	7800 6250 9500 6250
Connection ~ 7800 5750
Wire Wire Line
	7800 5750 8000 5750
Wire Wire Line
	5750 4300 6000 4300
Text Label 6000 4300 0    50   ~ 0
DISCHARGE
Text Label 7300 5400 0    50   ~ 0
DISCHARGE
Wire Wire Line
	7300 5400 8000 5400
Text Label 10300 3050 0    50   ~ 0
24VCHARGE
Text Label 3200 5600 0    50   ~ 0
24VIN
Text Label 9200 5400 0    50   ~ 0
24VIN
Text Label 1600 3500 0    50   ~ 0
5V
Wire Wire Line
	1250 2700 1600 2700
Wire Wire Line
	1600 2600 1600 2700
Connection ~ 1600 2700
Wire Wire Line
	1600 2700 1850 2700
$Comp
L Device:Q_NPN_BEC Q?
U 1 1 5D55DB6C
P 6450 1450
F 0 "Q?" H 6641 1496 50  0000 L CNN
F 1 "Q_NPN_BEC" H 6641 1405 50  0000 L CNN
F 2 "" H 6650 1550 50  0001 C CNN
F 3 "~" H 6450 1450 50  0001 C CNN
	1    6450 1450
	1    0    0    -1  
$EndComp
$EndSCHEMATC
