EESchema Schematic File Version 4
LIBS:CellTesterX6-cache
EELAYER 26 0
EELAYER END
$Descr A4 11693 8268
encoding utf-8
Sheet 5 7
Title ""
Date ""
Rev ""
Comp ""
Comment1 ""
Comment2 ""
Comment3 ""
Comment4 ""
$EndDescr
Text HLabel 2700 3500 0    50   Input ~ 0
SDA
Text HLabel 2700 3600 0    50   Input ~ 0
SCL
$Comp
L Device:R R7
U 1 1 5C2258D1
P 2800 3200
F 0 "R7" H 2870 3246 50  0000 L CNN
F 1 "4.7K" H 2870 3155 50  0000 L CNN
F 2 "Resistor_SMD:R_0805_2012Metric" V 2730 3200 50  0001 C CNN
F 3 "~" H 2800 3200 50  0001 C CNN
	1    2800 3200
	1    0    0    -1  
$EndComp
$Comp
L Device:R R9
U 1 1 5C225909
P 3100 3200
F 0 "R9" H 3170 3246 50  0000 L CNN
F 1 "4.7K" H 3170 3155 50  0000 L CNN
F 2 "Resistor_SMD:R_0805_2012Metric" V 3030 3200 50  0001 C CNN
F 3 "~" H 3100 3200 50  0001 C CNN
	1    3100 3200
	1    0    0    -1  
$EndComp
$Comp
L Device:R R12
U 1 1 5C225950
P 6950 1750
F 0 "R12" V 6743 1750 50  0000 C CNN
F 1 "1R" V 6834 1750 50  0000 C CNN
F 2 "lib:ohmiteFSCL5W" V 6880 1750 50  0001 C CNN
F 3 "~" H 6950 1750 50  0001 C CNN
	1    6950 1750
	0    1    1    0   
$EndComp
$Comp
L Device:C C34
U 1 1 5C225A3F
P 6300 3900
F 0 "C34" H 6415 3946 50  0000 L CNN
F 1 "0.1µF100V" H 6415 3855 50  0000 L CNN
F 2 "Capacitor_SMD:C_0805_2012Metric" H 6338 3750 50  0001 C CNN
F 3 "~" H 6300 3900 50  0001 C CNN
	1    6300 3900
	1    0    0    -1  
$EndComp
$Comp
L Device:C C35
U 1 1 5C225AA9
P 6750 3900
F 0 "C35" H 6865 3946 50  0000 L CNN
F 1 "0.1µF100V" H 6865 3855 50  0000 L CNN
F 2 "Capacitor_SMD:C_0805_2012Metric" H 6788 3750 50  0001 C CNN
F 3 "~" H 6750 3900 50  0001 C CNN
	1    6750 3900
	1    0    0    -1  
$EndComp
$Comp
L Device:C C36
U 1 1 5C225AE9
P 7150 3900
F 0 "C36" H 7265 3946 50  0000 L CNN
F 1 "0.1µF100V" H 7265 3855 50  0000 L CNN
F 2 "Capacitor_SMD:C_0805_2012Metric" H 7188 3750 50  0001 C CNN
F 3 "~" H 7150 3900 50  0001 C CNN
	1    7150 3900
	1    0    0    -1  
$EndComp
$Comp
L Device:R R10
U 1 1 5C225BD6
P 6300 2700
F 0 "R10" H 6370 2746 50  0000 L CNN
F 1 "10R" H 6370 2655 50  0000 L CNN
F 2 "Resistor_SMD:R_0805_2012Metric" V 6230 2700 50  0001 C CNN
F 3 "~" H 6300 2700 50  0001 C CNN
	1    6300 2700
	1    0    0    -1  
$EndComp
$Comp
L Device:R R11
U 1 1 5C225C2C
P 6750 2700
F 0 "R11" H 6820 2746 50  0000 L CNN
F 1 "10R" H 6820 2655 50  0000 L CNN
F 2 "Resistor_SMD:R_0805_2012Metric" V 6680 2700 50  0001 C CNN
F 3 "~" H 6750 2700 50  0001 C CNN
	1    6750 2700
	1    0    0    -1  
$EndComp
$Comp
L Device:R R13
U 1 1 5C225C56
P 7150 2700
F 0 "R13" H 7220 2746 50  0000 L CNN
F 1 "10R" H 7220 2655 50  0000 L CNN
F 2 "Resistor_SMD:R_0805_2012Metric" V 7080 2700 50  0001 C CNN
F 3 "~" H 7150 2700 50  0001 C CNN
	1    7150 2700
	1    0    0    -1  
$EndComp
$Comp
L Device:C C33
U 1 1 5C225F7B
P 4650 4350
F 0 "C33" H 4765 4396 50  0000 L CNN
F 1 "0.1µF100V" H 4765 4305 50  0000 L CNN
F 2 "Capacitor_SMD:C_0805_2012Metric" H 4688 4200 50  0001 C CNN
F 3 "~" H 4650 4350 50  0001 C CNN
	1    4650 4350
	1    0    0    -1  
$EndComp
Text HLabel 3450 1750 0    50   Input ~ 0
VBAT
Text HLabel 2650 2950 0    50   Input ~ 0
3.3V
Text HLabel 2700 3850 0    50   Input ~ 0
GND
$Comp
L curSense:ISL28022 U7
U 1 1 5C22624A
P 4650 3700
F 0 "U7" H 5000 4465 50  0000 C CNN
F 1 "ISL28022" H 5000 4374 50  0000 C CNN
F 2 "Package_SO:MSOP-10_3x3mm_P0.5mm" H 4650 3700 50  0001 C CNN
F 3 "" H 4650 3700 50  0001 C CNN
	1    4650 3700
	1    0    0    -1  
$EndComp
Wire Wire Line
	2800 3350 2800 3500
Connection ~ 2800 3500
Wire Wire Line
	2800 3500 2700 3500
Wire Wire Line
	3100 3350 3100 3600
Connection ~ 3100 3600
Wire Wire Line
	3100 3600 2700 3600
Wire Wire Line
	3100 3050 3100 2950
Wire Wire Line
	3100 2950 2800 2950
Wire Wire Line
	2800 3050 2800 2950
Connection ~ 2800 2950
Wire Wire Line
	2800 2950 2650 2950
NoConn ~ 4550 3400
Wire Wire Line
	4550 3300 4450 3300
Wire Wire Line
	4550 3200 4450 3200
Wire Wire Line
	4450 3200 4450 3300
Connection ~ 4450 3300
Wire Wire Line
	4450 3300 4150 3300
Wire Wire Line
	2700 3850 3050 3850
Text Label 3050 3850 0    50   ~ 0
GND
Text Label 4150 3300 0    50   ~ 0
GND
Wire Wire Line
	4650 4200 4650 4100
Wire Wire Line
	4650 4100 4350 4100
Wire Wire Line
	4650 4500 4650 4650
Wire Wire Line
	4650 4650 4350 4650
Wire Wire Line
	7150 2850 7150 3300
Wire Wire Line
	6750 2850 6750 3200
Wire Wire Line
	6300 3750 6300 3400
Wire Wire Line
	6300 2550 6300 1750
Wire Wire Line
	6300 1750 6750 1750
Connection ~ 6750 1750
Wire Wire Line
	6750 1750 6800 1750
Wire Wire Line
	7150 1750 7100 1750
Wire Wire Line
	7150 1750 7550 1750
Connection ~ 7150 1750
Wire Wire Line
	7150 4050 7150 4250
Wire Wire Line
	7150 4250 6750 4250
Wire Wire Line
	6300 4050 6300 4250
Connection ~ 6300 4250
Wire Wire Line
	6300 4250 6050 4250
Wire Wire Line
	6750 4050 6750 4250
Connection ~ 6750 4250
Wire Wire Line
	6750 4250 6300 4250
Wire Wire Line
	5450 3200 6750 3200
Connection ~ 6750 3200
Wire Wire Line
	6750 3200 6750 3750
Wire Wire Line
	5450 3300 7150 3300
Connection ~ 7150 3300
Wire Wire Line
	7150 3300 7150 3750
Wire Wire Line
	5450 3400 6300 3400
Connection ~ 6300 3400
Wire Wire Line
	6300 3400 6300 2850
Wire Wire Line
	5450 3500 5750 3500
Wire Wire Line
	5450 3600 5750 3600
Text Label 5750 3500 0    50   ~ 0
GND
Text Label 6050 4250 0    50   ~ 0
GND
Text Label 2950 2950 0    50   ~ 0
VCC
Text Label 5750 3600 0    50   ~ 0
VCC
Text Label 4350 4100 0    50   ~ 0
VCC
Text Label 4350 4650 0    50   ~ 0
GND
Text HLabel 7550 1750 2    50   Input ~ 0
VBATIO
Connection ~ 6300 1750
Wire Wire Line
	3450 1750 6300 1750
Wire Wire Line
	2800 3500 3500 3500
Wire Wire Line
	3100 3600 3950 3600
$Comp
L Connector:TestPoint TP7
U 1 1 5C730470
P 3500 3100
F 0 "TP7" H 3558 3220 50  0000 L CNN
F 1 "TestPoint" H 3558 3129 50  0000 L CNN
F 2 "TestPoint:TestPoint_Pad_D1.0mm" H 3700 3100 50  0001 C CNN
F 3 "~" H 3700 3100 50  0001 C CNN
	1    3500 3100
	1    0    0    -1  
$EndComp
$Comp
L Connector:TestPoint TP8
U 1 1 5C7304D4
P 3950 3100
F 0 "TP8" H 4008 3220 50  0000 L CNN
F 1 "TestPoint" H 4008 3129 50  0000 L CNN
F 2 "TestPoint:TestPoint_Pad_D1.0mm" H 4150 3100 50  0001 C CNN
F 3 "~" H 4150 3100 50  0001 C CNN
	1    3950 3100
	1    0    0    -1  
$EndComp
Wire Wire Line
	3500 3100 3500 3500
Connection ~ 3500 3500
Wire Wire Line
	3500 3500 4550 3500
Wire Wire Line
	3950 3100 3950 3600
Connection ~ 3950 3600
Wire Wire Line
	3950 3600 4550 3600
Wire Wire Line
	6750 1750 6750 2550
Wire Wire Line
	7150 1750 7150 2550
$EndSCHEMATC
