EESchema Schematic File Version 4
LIBS:BatPack-cache
EELAYER 26 0
EELAYER END
$Descr A4 11693 8268
encoding utf-8
Sheet 1 3
Title ""
Date ""
Rev ""
Comp ""
Comment1 ""
Comment2 ""
Comment3 ""
Comment4 ""
$EndDescr
$Sheet
S 7850 1800 1750 1550
U 5BFE4F92
F0 "AD7280A_SUB" 50
F1 "AD7280A_SUB.sch" 50
F2 "SCLK" I L 7850 2100 50 
F3 "SDI" I L 7850 2200 50 
F4 "SDO" O L 7850 2300 50 
F5 "ALERT" O L 7850 2500 50 
F6 "CS/" I L 7850 2000 50 
F7 "PD/" I L 7850 2650 50 
F8 "CNVST/" I L 7850 2750 50 
F9 "HIBAT" O R 9600 2100 50 
F10 "VSSN" I R 9600 2200 50 
F11 "VDDNFILTERED" O R 9600 2000 50 
F12 "LOBAT" I R 9600 2300 50 
F13 "VREG" O R 9600 2400 50 
$EndSheet
Wire Wire Line
	9600 2300 10150 2300
Wire Wire Line
	9600 2100 10150 2100
$Comp
L Connector:Conn_01x01_Female J3
U 1 1 5C9A1B90
P 10350 2100
F 0 "J3" H 10377 2126 50  0000 L CNN
F 1 "Conn_01x01_Female" H 10377 2035 50  0000 L CNN
F 2 "lib:M5Bushing" H 10350 2100 50  0001 C CNN
F 3 "~" H 10350 2100 50  0001 C CNN
	1    10350 2100
	1    0    0    -1  
$EndComp
$Comp
L Connector:Conn_01x01_Female J4
U 1 1 5C9A1BC0
P 10350 2300
F 0 "J4" H 10377 2326 50  0000 L CNN
F 1 "Conn_01x01_Female" H 10377 2235 50  0000 L CNN
F 2 "lib:M5Bushing" H 10350 2300 50  0001 C CNN
F 3 "~" H 10350 2300 50  0001 C CNN
	1    10350 2300
	1    0    0    -1  
$EndComp
$Comp
L Connector:Conn_01x06_Female J1
U 1 1 5C9A1FAD
P 850 4050
F 0 "J1" H 744 3525 50  0000 C CNN
F 1 "Conn_01x06_Female" H 744 3616 50  0000 C CNN
F 2 "lib:CONN-TE-MICROMATCH-3X2-SMD" H 850 4050 50  0001 C CNN
F 3 "~" H 850 4050 50  0001 C CNN
	1    850  4050
	-1   0    0    1   
$EndComp
Wire Wire Line
	1050 3750 1450 3750
Text Label 1550 3750 0    50   ~ 0
VDD
Wire Wire Line
	1050 3850 1550 3850
Text Label 1550 3850 0    50   ~ 0
GND
$Comp
L Device:C C3
U 1 1 5C9A2928
P 4650 5600
F 0 "C3" H 4765 5646 50  0000 L CNN
F 1 "0,1µF10V" H 4765 5555 50  0000 L CNN
F 2 "Capacitor_SMD:C_0805_2012Metric_Pad1.15x1.40mm_HandSolder" H 4688 5450 50  0001 C CNN
F 3 "~" H 4650 5600 50  0001 C CNN
	1    4650 5600
	1    0    0    -1  
$EndComp
Wire Wire Line
	7850 2300 7450 2300
Wire Wire Line
	7450 2300 7450 2400
$Comp
L Device:C C2
U 1 1 5C9B6763
P 4150 5600
F 0 "C2" H 4265 5646 50  0000 L CNN
F 1 "0,1µF10V" H 4265 5555 50  0000 L CNN
F 2 "Capacitor_SMD:C_0805_2012Metric_Pad1.15x1.40mm_HandSolder" H 4188 5450 50  0001 C CNN
F 3 "~" H 4150 5600 50  0001 C CNN
	1    4150 5600
	1    0    0    -1  
$EndComp
$Comp
L Isolator:SFH617A-1 U4
U 1 1 5C9B6C68
P 9050 5000
F 0 "U4" H 9050 5325 50  0000 C CNN
F 1 "SFH617A-1" H 9050 5234 50  0000 C CNN
F 2 "OptoDevice:Panasonic_APV-AQY_SSOP-4_4.45x2.65mm_P1.27mm" H 8850 4800 50  0001 L CIN
F 3 "http://www.vishay.com/docs/83740/sfh617a.pdf" H 9050 5000 50  0001 L CNN
	1    9050 5000
	1    0    0    -1  
$EndComp
$Comp
L Device:R R7
U 1 1 5C9B7C4C
P 9450 5400
F 0 "R7" H 9520 5446 50  0000 L CNN
F 1 "10K" H 9520 5355 50  0000 L CNN
F 2 "Resistor_SMD:R_0805_2012Metric" V 9380 5400 50  0001 C CNN
F 3 "~" H 9450 5400 50  0001 C CNN
	1    9450 5400
	1    0    0    -1  
$EndComp
Wire Wire Line
	9350 5100 9450 5100
Wire Wire Line
	9450 5100 9450 5250
Wire Wire Line
	9450 5550 9450 5700
Wire Wire Line
	9450 5700 9650 5700
Wire Wire Line
	9350 4900 9450 4900
Text Label 7550 2650 0    50   ~ 0
PDWN\
Wire Wire Line
	7550 2650 7850 2650
Text Label 9600 5100 0    50   ~ 0
PDWN\
Wire Wire Line
	9450 5100 9600 5100
Connection ~ 9450 5100
Wire Wire Line
	9600 2400 9800 2400
Text Label 9800 2400 0    50   ~ 0
VREG
Text Label 7150 1900 0    50   ~ 0
VREG
Wire Wire Line
	7150 1900 6950 1900
Wire Wire Line
	9600 2200 9800 2200
Text Label 9800 2200 0    50   ~ 0
VSSN
Text Label 9100 4550 0    50   ~ 0
VSSN
Text Label 7150 2600 0    50   ~ 0
VSSN
Wire Wire Line
	6950 2600 7150 2600
Wire Wire Line
	9600 2000 9800 2000
Text Label 9800 2000 0    50   ~ 0
VDDFILT
Text Label 8050 4150 0    50   ~ 0
VDDFILT
$Comp
L Regulator_Linear:LF120_TO252 U3
U 1 1 5C9C4969
P 9000 4150
F 0 "U3" H 9000 4392 50  0000 C CNN
F 1 "LF120_TO252" H 9000 4301 50  0000 C CNN
F 2 "Package_TO_SOT_SMD:SOT-223" H 9000 4375 50  0001 C CIN
F 3 "http://www.st.com/content/ccc/resource/technical/document/datasheet/c4/0e/7e/2a/be/bc/4c/bd/CD00000546.pdf/files/CD00000546.pdf/jcr:content/translations/en.CD00000546.pdf" H 9000 4100 50  0001 C CNN
	1    9000 4150
	1    0    0    -1  
$EndComp
Wire Wire Line
	9300 4150 9450 4150
Wire Wire Line
	9000 4450 9000 4550
Wire Wire Line
	9000 4550 9100 4550
Text Label 9650 5700 0    50   ~ 0
VSSN
Text Notes 8050 3800 0    50   ~ 0
Regulator only for going out of power down mode
Text Label 9450 4150 0    50   ~ 0
BAT3V3
$Comp
L Device:R R6
U 1 1 5C9D190C
P 8350 4900
F 0 "R6" V 8143 4900 50  0000 C CNN
F 1 "4,7K" V 8234 4900 50  0000 C CNN
F 2 "Resistor_SMD:R_0805_2012Metric" V 8280 4900 50  0001 C CNN
F 3 "~" H 8350 4900 50  0001 C CNN
	1    8350 4900
	0    1    1    0   
$EndComp
Wire Wire Line
	8500 4900 8750 4900
Wire Wire Line
	8750 5100 8450 5100
Wire Wire Line
	8450 5100 8450 5350
Wire Wire Line
	8450 5350 8200 5350
Text Label 8200 5350 0    50   ~ 0
GND
Text Label 7700 4900 0    50   ~ 0
POWERDOWN
$Comp
L iso7762W:ISO7762W U2
U 1 1 5BFA04A6
P 6550 2700
F 0 "U2" H 6550 3767 50  0000 C CNN
F 1 "ISO7762W" H 6550 3676 50  0000 C CNN
F 2 "Package_SO:SSOP-16_5.3x6.2mm_P0.65mm" H 6550 2700 50  0001 C CNN
F 3 "" H 6550 2700 50  0001 C CNN
	1    6550 2700
	1    0    0    -1  
$EndComp
Wire Wire Line
	6950 2500 7850 2500
Wire Wire Line
	6950 2400 7450 2400
Wire Wire Line
	7850 2750 7400 2750
Wire Wire Line
	7400 2750 7400 2300
Wire Wire Line
	7400 2300 6950 2300
Wire Wire Line
	6950 2200 7850 2200
Wire Wire Line
	6950 2100 7850 2100
Wire Wire Line
	6950 2000 7850 2000
Wire Wire Line
	9450 4150 9450 4900
$Comp
L Interface_CAN_LIN:TCAN332 U1
U 1 1 5C1EEF67
P 2500 4050
F 0 "U1" H 2500 4628 50  0000 C CNN
F 1 "TCAN332" H 2500 4537 50  0000 C CNN
F 2 "Package_SO:SOIC-8_3.9x4.9mm_P1.27mm" H 2500 3550 50  0001 C CIN
F 3 "http://www.ti.com/lit/ds/symlink/tcan337.pdf" H 2500 4050 50  0001 C CNN
	1    2500 4050
	-1   0    0    -1  
$EndComp
$Comp
L Connector:Conn_01x06_Female J2
U 1 1 5C1F0CC5
P 850 5100
F 0 "J2" H 744 4575 50  0000 C CNN
F 1 "Conn_01x06_Female" H 744 4666 50  0000 C CNN
F 2 "lib:CONN-TE-MICROMATCH-3X2-SMD" H 850 5100 50  0001 C CNN
F 3 "~" H 850 5100 50  0001 C CNN
	1    850  5100
	-1   0    0    1   
$EndComp
Wire Wire Line
	1050 3950 2000 3950
Wire Wire Line
	1050 4050 1850 4050
Wire Wire Line
	1850 4050 1850 4150
Wire Wire Line
	1850 4150 2000 4150
Text Label 1550 3950 0    50   ~ 0
CANH
Text Label 1550 4050 0    50   ~ 0
CANL
Wire Wire Line
	2500 4450 2500 4550
Wire Wire Line
	2500 4550 2600 4550
Wire Wire Line
	2500 3650 2500 3350
Text Label 2600 3350 0    50   ~ 0
VDD
Text Label 2600 4550 0    50   ~ 0
GND
Wire Wire Line
	2500 3350 2600 3350
Wire Wire Line
	4150 5450 4150 5250
Wire Wire Line
	4150 5750 4150 5950
Wire Wire Line
	4150 5950 4650 5950
Wire Wire Line
	4650 5450 4650 5250
Wire Wire Line
	4150 5250 4650 5250
Connection ~ 4650 5250
Wire Wire Line
	4650 5750 4650 5950
Connection ~ 4650 5950
Text Label 5700 5250 0    50   ~ 0
VDD
Text Label 5700 5950 0    50   ~ 0
GND
Wire Wire Line
	1050 4800 1550 4800
Text Label 1550 4800 0    50   ~ 0
VDD
Wire Wire Line
	1050 4900 1550 4900
Text Label 1550 4900 0    50   ~ 0
GND
Text Label 1550 5000 0    50   ~ 0
CANH
Text Label 1550 5100 0    50   ~ 0
CANL
Wire Wire Line
	1050 5000 1550 5000
Wire Wire Line
	1550 5100 1050 5100
$Comp
L Device:R R1
U 1 1 5C20EC03
P 2250 6900
F 0 "R1" H 2320 6946 50  0000 L CNN
F 1 "60R" H 2320 6855 50  0000 L CNN
F 2 "Resistor_SMD:R_0805_2012Metric" V 2180 6900 50  0001 C CNN
F 3 "~" H 2250 6900 50  0001 C CNN
	1    2250 6900
	1    0    0    -1  
$EndComp
$Comp
L Device:R R2
U 1 1 5C20EC51
P 2250 7300
F 0 "R2" H 2320 7346 50  0000 L CNN
F 1 "60R" H 2320 7255 50  0000 L CNN
F 2 "Resistor_SMD:R_0805_2012Metric" V 2180 7300 50  0001 C CNN
F 3 "~" H 2250 7300 50  0001 C CNN
	1    2250 7300
	1    0    0    -1  
$EndComp
$Comp
L Device:C C1
U 1 1 5C210D81
P 2700 7100
F 0 "C1" V 2448 7100 50  0000 C CNN
F 1 "10nF" V 2539 7100 50  0000 C CNN
F 2 "Capacitor_SMD:C_0805_2012Metric_Pad1.15x1.40mm_HandSolder" H 2738 6950 50  0001 C CNN
F 3 "~" H 2700 7100 50  0001 C CNN
	1    2700 7100
	0    1    1    0   
$EndComp
Wire Wire Line
	2250 7100 2250 7150
Wire Wire Line
	2250 7100 2250 7050
Connection ~ 2250 7100
Wire Wire Line
	2850 7100 2950 7100
Text Label 2950 7100 0    50   ~ 0
GND
$Comp
L Switch:SW_Coded_SH-7050 SW2
U 1 1 5C221230
P 3950 7350
F 0 "SW2" H 4005 7817 50  0000 C CNN
F 1 "SW_Coded_SH-7050" H 4005 7726 50  0000 C CNN
F 2 "Button_Switch_SMD:Nidec_Copal_SH-7010A" H 3650 6900 50  0001 L CNN
F 3 "https://www.nidec-copal-electronics.com/e/catalog/switch/sh-7000.pdf" H 3950 7350 50  0001 C CNN
	1    3950 7350
	1    0    0    -1  
$EndComp
$Comp
L Switch:SW_DIP_x02 SW1
U 1 1 5C2214B4
P 1750 7150
F 0 "SW1" H 1750 7517 50  0000 C CNN
F 1 "SW_DIP_x02" H 1750 7426 50  0000 C CNN
F 2 "Button_Switch_SMD:SW_DIP_SPSTx02_Slide_6.7x6.64mm_W6.73mm_P2.54mm_LowProfile_JPin" H 1750 7150 50  0001 C CNN
F 3 "" H 1750 7150 50  0001 C CNN
	1    1750 7150
	1    0    0    -1  
$EndComp
Wire Wire Line
	2050 7050 2150 7050
Wire Wire Line
	2150 7050 2150 6700
Wire Wire Line
	2150 6700 2250 6700
Wire Wire Line
	2250 6700 2250 6750
Wire Wire Line
	2050 7150 2150 7150
Wire Wire Line
	2150 7150 2150 7500
Wire Wire Line
	2150 7500 2250 7500
Wire Wire Line
	2250 7500 2250 7450
Text Label 1200 7050 0    50   ~ 0
CANH
Text Label 1200 7150 0    50   ~ 0
CANL
Wire Wire Line
	1200 7050 1450 7050
Wire Wire Line
	1200 7150 1450 7150
Text Notes 1500 7650 0    50   ~ 0
Selectable can bus end node
Wire Wire Line
	2250 7100 2550 7100
Wire Wire Line
	4350 7150 4750 7150
Wire Wire Line
	4350 7250 4750 7250
Wire Wire Line
	4350 7350 4750 7350
Wire Wire Line
	4350 7450 4750 7450
Wire Wire Line
	4350 7550 4750 7550
Text Label 4750 7150 0    50   ~ 0
GND
Text Label 4750 7250 0    50   ~ 0
ADR0
Text Label 4750 7350 0    50   ~ 0
ADR1
Text Label 4750 7450 0    50   ~ 0
ADR2
Text Label 4750 7550 0    50   ~ 0
ADR3
$Comp
L Device:LED D2
U 1 1 5C2825CB
P 5650 7350
F 0 "D2" V 5688 7233 50  0000 R CNN
F 1 "LED" V 5597 7233 50  0000 R CNN
F 2 "LED_SMD:LED_0805_2012Metric_Castellated" H 5650 7350 50  0001 C CNN
F 3 "~" H 5650 7350 50  0001 C CNN
	1    5650 7350
	0    -1   -1   0   
$EndComp
$Comp
L Device:R R4
U 1 1 5C28271E
P 5650 6950
F 0 "R4" H 5720 6996 50  0000 L CNN
F 1 "4,7K" H 5720 6905 50  0000 L CNN
F 2 "Resistor_SMD:R_0805_2012Metric" V 5580 6950 50  0001 C CNN
F 3 "~" H 5650 6950 50  0001 C CNN
	1    5650 6950
	1    0    0    -1  
$EndComp
Wire Wire Line
	5650 7100 5650 7200
$Comp
L Device:LED D1
U 1 1 5C285BB3
P 5300 7350
F 0 "D1" V 5338 7233 50  0000 R CNN
F 1 "LED" V 5247 7233 50  0000 R CNN
F 2 "LED_SMD:LED_0805_2012Metric_Castellated" H 5300 7350 50  0001 C CNN
F 3 "~" H 5300 7350 50  0001 C CNN
	1    5300 7350
	0    -1   -1   0   
$EndComp
$Comp
L Device:R R3
U 1 1 5C285BB9
P 5300 6950
F 0 "R3" H 5370 6996 50  0000 L CNN
F 1 "4,7K" H 5370 6905 50  0000 L CNN
F 2 "Resistor_SMD:R_0805_2012Metric" V 5230 6950 50  0001 C CNN
F 3 "~" H 5300 6950 50  0001 C CNN
	1    5300 6950
	1    0    0    -1  
$EndComp
Wire Wire Line
	5300 7100 5300 7200
$Comp
L Device:LED D3
U 1 1 5C28902F
P 6000 7350
F 0 "D3" V 6038 7233 50  0000 R CNN
F 1 "LED" V 5947 7233 50  0000 R CNN
F 2 "LED_SMD:LED_0805_2012Metric_Castellated" H 6000 7350 50  0001 C CNN
F 3 "~" H 6000 7350 50  0001 C CNN
	1    6000 7350
	0    -1   -1   0   
$EndComp
$Comp
L Device:R R5
U 1 1 5C289035
P 6000 6950
F 0 "R5" H 6070 6996 50  0000 L CNN
F 1 "4,7K" H 6070 6905 50  0000 L CNN
F 2 "Resistor_SMD:R_0805_2012Metric" V 5930 6950 50  0001 C CNN
F 3 "~" H 6000 6950 50  0001 C CNN
	1    6000 6950
	1    0    0    -1  
$EndComp
Wire Wire Line
	6000 7100 6000 7200
Wire Wire Line
	5300 7500 5300 7650
Wire Wire Line
	5300 7650 5650 7650
Wire Wire Line
	5650 7500 5650 7650
Connection ~ 5650 7650
Wire Wire Line
	5650 7650 6000 7650
Wire Wire Line
	6000 7500 6000 7650
Connection ~ 6000 7650
Wire Wire Line
	6000 7650 6300 7650
Text Label 6300 7650 0    50   ~ 0
GND
Wire Wire Line
	6000 6800 6000 6700
Wire Wire Line
	6000 6700 6200 6700
Wire Wire Line
	5650 6600 5850 6600
Wire Wire Line
	5650 6600 5650 6800
Wire Wire Line
	5300 6500 5500 6500
Wire Wire Line
	5300 6500 5300 6800
Text Label 5500 6500 0    50   ~ 0
LED_RUN
Text Label 5850 6600 0    50   ~ 0
LED_ERR
Text Label 6200 6700 0    50   ~ 0
LED_BALANCE
Text Label 3950 2000 0    50   ~ 0
ADR0
Text Label 3950 2100 0    50   ~ 0
ADR1
Text Label 3950 2200 0    50   ~ 0
ADR2
Text Label 3950 2300 0    50   ~ 0
ADR3
Text Label 5850 3650 0    50   ~ 0
LED_BALANCE
Text Label 5850 3550 0    50   ~ 0
LED_ERR
Text Label 5850 3450 0    50   ~ 0
LED_RUN
Wire Wire Line
	3000 3850 3300 3850
Wire Wire Line
	3000 3950 3300 3950
Text Label 3300 3850 0    50   ~ 0
CANTX
Text Label 3300 3950 0    50   ~ 0
CANRX
$Sheet
S 4250 1800 1350 2100
U 5C2EA202
F0 "MCU" 50
F1 "MCU.sch" 50
F2 "ADR0" I L 4250 2000 50 
F3 "ADR1" I L 4250 2100 50 
F4 "ADR2" I L 4250 2200 50 
F5 "ADR3" I L 4250 2300 50 
F6 "CANRX" I L 4250 3450 50 
F7 "CANTX" O L 4250 3600 50 
F8 "LED_RUN" O R 5600 3450 50 
F9 "LED_ERR" O R 5600 3550 50 
F10 "LED_BALANCE" O R 5600 3650 50 
F11 "CS\\" O R 5600 2000 50 
F12 "SCLK" O R 5600 2100 50 
F13 "SDI" O R 5600 2200 50 
F14 "SDO" I R 5600 2400 50 
F15 "ALERT" I R 5600 2500 50 
F16 "PD\\" O R 5600 3050 50 
F17 "CNVST" O R 5600 2300 50 
F18 "VDD" O L 4250 2650 50 
F19 "GND" O L 4250 2800 50 
F20 "BOOT" I L 4250 3050 50 
F21 "RESET\\" I L 4250 3150 50 
$EndSheet
Wire Wire Line
	5600 2000 6150 2000
Wire Wire Line
	6150 2100 5600 2100
Wire Wire Line
	5600 2200 6150 2200
Wire Wire Line
	5600 2300 6150 2300
Wire Wire Line
	6150 2400 5600 2400
Wire Wire Line
	5600 2500 6150 2500
Wire Wire Line
	6150 2600 5850 2600
Wire Wire Line
	6150 1900 5850 1900
Text Label 5850 2600 0    50   ~ 0
GND
Text Label 5850 1900 0    50   ~ 0
VDD
Wire Wire Line
	3950 2000 4250 2000
Wire Wire Line
	4250 2100 3950 2100
Wire Wire Line
	3950 2200 4250 2200
Wire Wire Line
	4250 2300 3950 2300
Wire Wire Line
	4250 2650 3950 2650
Wire Wire Line
	4250 2800 3950 2800
Wire Wire Line
	5600 3650 5850 3650
Wire Wire Line
	5600 3550 5850 3550
Wire Wire Line
	5600 3450 5850 3450
Text Label 3950 3600 0    50   ~ 0
CANTX
Text Label 3950 3450 0    50   ~ 0
CANRX
Wire Wire Line
	4250 3450 3950 3450
Wire Wire Line
	3950 3600 4250 3600
Text Label 3950 2650 0    50   ~ 0
VDD
Text Label 3950 2800 0    50   ~ 0
GND
Wire Wire Line
	7450 3050 7450 4900
Wire Wire Line
	7450 4900 8200 4900
Wire Wire Line
	5600 3050 7450 3050
Wire Wire Line
	1050 4150 1550 4150
Wire Wire Line
	1050 4250 1550 4250
Wire Wire Line
	1050 5200 1550 5200
Wire Wire Line
	1050 5300 1550 5300
Text Label 1550 5200 0    50   ~ 0
BOOT
Text Label 1550 4150 0    50   ~ 0
BOOT
Text Label 3900 3150 0    50   ~ 0
RESET\
Text Label 3900 3050 0    50   ~ 0
BOOT
Wire Wire Line
	3900 3050 4250 3050
Wire Wire Line
	4250 3150 3900 3150
Text Label 1550 4250 0    50   ~ 0
RESET\
Text Label 1550 5300 0    50   ~ 0
RESET\
$Comp
L power:PWR_FLAG #FLG0101
U 1 1 5C112A6D
P 1450 3450
F 0 "#FLG0101" H 1450 3525 50  0001 C CNN
F 1 "PWR_FLAG" H 1450 3624 50  0000 C CNN
F 2 "" H 1450 3450 50  0001 C CNN
F 3 "~" H 1450 3450 50  0001 C CNN
	1    1450 3450
	1    0    0    -1  
$EndComp
Wire Wire Line
	1450 3450 1450 3750
Connection ~ 1450 3750
Wire Wire Line
	1450 3750 1550 3750
$Comp
L power:PWR_FLAG #FLG0103
U 1 1 5C12CE28
P 2500 4700
F 0 "#FLG0103" H 2500 4775 50  0001 C CNN
F 1 "PWR_FLAG" H 2500 4873 50  0000 C CNN
F 2 "" H 2500 4700 50  0001 C CNN
F 3 "~" H 2500 4700 50  0001 C CNN
	1    2500 4700
	-1   0    0    1   
$EndComp
Wire Wire Line
	2500 4700 2500 4550
Connection ~ 2500 4550
$Comp
L Mechanical:MountingHole_Pad H1
U 1 1 5C32D5CB
P 1500 1200
F 0 "H1" H 1600 1251 50  0000 L CNN
F 1 "MountingHole_Pad" H 1600 1160 50  0000 L CNN
F 2 "MountingHole:MountingHole_3.2mm_M3_ISO14580_Pad" H 1500 1200 50  0001 C CNN
F 3 "~" H 1500 1200 50  0001 C CNN
	1    1500 1200
	1    0    0    -1  
$EndComp
$Comp
L Mechanical:MountingHole_Pad H3
U 1 1 5C32D633
P 2400 1200
F 0 "H3" H 2500 1251 50  0000 L CNN
F 1 "MountingHole_Pad" H 2500 1160 50  0000 L CNN
F 2 "MountingHole:MountingHole_3.2mm_M3_ISO14580_Pad" H 2400 1200 50  0001 C CNN
F 3 "~" H 2400 1200 50  0001 C CNN
	1    2400 1200
	1    0    0    -1  
$EndComp
$Comp
L Mechanical:MountingHole_Pad H4
U 1 1 5C345DB0
P 2400 1650
F 0 "H4" H 2300 1608 50  0000 R CNN
F 1 "MountingHole_Pad" H 2300 1699 50  0000 R CNN
F 2 "MountingHole:MountingHole_3.2mm_M3_ISO14580_Pad" H 2400 1650 50  0001 C CNN
F 3 "~" H 2400 1650 50  0001 C CNN
	1    2400 1650
	-1   0    0    1   
$EndComp
$Comp
L Mechanical:MountingHole_Pad H2
U 1 1 5C345DB6
P 1500 1650
F 0 "H2" H 1400 1608 50  0000 R CNN
F 1 "MountingHole_Pad" H 1400 1699 50  0000 R CNN
F 2 "MountingHole:MountingHole_3.2mm_M3_ISO14580_Pad" H 1500 1650 50  0001 C CNN
F 3 "~" H 1500 1650 50  0001 C CNN
	1    1500 1650
	-1   0    0    1   
$EndComp
Wire Wire Line
	1500 1550 1500 1400
Wire Wire Line
	2400 1300 2400 1400
Wire Wire Line
	2400 1400 1500 1400
Connection ~ 2400 1400
Wire Wire Line
	2400 1400 2400 1550
Connection ~ 1500 1400
Wire Wire Line
	1500 1400 1500 1300
Wire Wire Line
	2400 1400 2650 1400
Text Label 2650 1400 0    50   ~ 0
GND
$Comp
L Mechanical:MountingHole H5
U 1 1 5C38426C
P 1500 2150
F 0 "H5" H 1600 2196 50  0000 L CNN
F 1 "MountingHole" H 1600 2105 50  0000 L CNN
F 2 "MountingHole:MountingHole_5.3mm_M5_DIN965_Pad" H 1500 2150 50  0001 C CNN
F 3 "~" H 1500 2150 50  0001 C CNN
	1    1500 2150
	1    0    0    -1  
$EndComp
$Comp
L Mechanical:MountingHole H6
U 1 1 5C3842D0
P 1500 2400
F 0 "H6" H 1600 2446 50  0000 L CNN
F 1 "MountingHole" H 1600 2355 50  0000 L CNN
F 2 "MountingHole:MountingHole_5.3mm_M5_DIN965_Pad" H 1500 2400 50  0001 C CNN
F 3 "~" H 1500 2400 50  0001 C CNN
	1    1500 2400
	1    0    0    -1  
$EndComp
Text Notes 1500 2650 0    50   ~ 0
Holes to attach the cells
Wire Wire Line
	4650 5950 5200 5950
Wire Wire Line
	4650 5250 5200 5250
$Comp
L Device:C C4
U 1 1 5C3A271F
P 5200 5600
F 0 "C4" H 5315 5646 50  0000 L CNN
F 1 "10µF10V" H 5315 5555 50  0000 L CNN
F 2 "Capacitor_SMD:C_1206_3216Metric" H 5238 5450 50  0001 C CNN
F 3 "~" H 5200 5600 50  0001 C CNN
	1    5200 5600
	1    0    0    -1  
$EndComp
Wire Wire Line
	5200 5450 5200 5250
Connection ~ 5200 5250
Wire Wire Line
	5200 5250 5700 5250
Wire Wire Line
	5200 5750 5200 5950
Connection ~ 5200 5950
Wire Wire Line
	5200 5950 5700 5950
Wire Wire Line
	8050 4150 8700 4150
$EndSCHEMATC
