EESchema Schematic File Version 4
LIBS:BatPack48-cache
EELAYER 26 0
EELAYER END
$Descr A4 11693 8268
encoding utf-8
Sheet 1 4
Title ""
Date ""
Rev ""
Comp ""
Comment1 ""
Comment2 ""
Comment3 ""
Comment4 ""
$EndDescr
$Sheet
S 7650 2550 1750 1550
U 5BFE4F92
F0 "AD7280A_SUB" 50
F1 "AD7280A_SUB.sch" 50
F2 "SCLK" I L 7650 2850 50 
F3 "SDI" I L 7650 2950 50 
F4 "SDO" O L 7650 3050 50 
F5 "ALERT" O L 7650 3250 50 
F6 "CS/" I L 7650 2750 50 
F7 "PD/" I L 7650 3400 50 
F8 "CNVST/" I L 7650 3500 50 
F9 "HIBAT" O R 9400 2850 50 
F10 "VSSN" I R 9400 2950 50 
F11 "VDDNFILTERED" O R 9400 2750 50 
F12 "LOBAT" I R 9400 3050 50 
F13 "VREG" O R 9400 3150 50 
$EndSheet
Wire Wire Line
	9400 3050 9950 3050
Wire Wire Line
	9400 1000 9950 1000
$Comp
L Connector:Conn_01x01_Female J3
U 1 1 5C9A1B90
P 10150 1000
F 0 "J3" H 10177 1026 50  0000 L CNN
F 1 "Conn_01x01_Female" H 10177 935 50  0000 L CNN
F 2 "lib:M5Bushing" H 10150 1000 50  0001 C CNN
F 3 "~" H 10150 1000 50  0001 C CNN
	1    10150 1000
	1    0    0    -1  
$EndComp
$Comp
L Connector:Conn_01x01_Female J4
U 1 1 5C9A1BC0
P 10150 3050
F 0 "J4" H 10177 3076 50  0000 L CNN
F 1 "Conn_01x01_Female" H 10177 2985 50  0000 L CNN
F 2 "lib:M5Bushing" H 10150 3050 50  0001 C CNN
F 3 "~" H 10150 3050 50  0001 C CNN
	1    10150 3050
	1    0    0    -1  
$EndComp
$Comp
L Connector:Conn_01x06_Female J1
U 1 1 5C9A1FAD
P 850 4050
F 0 "J1" H 744 3525 50  0000 C CNN
F 1 "Conn_01x06_Female" H 744 3616 50  0000 C CNN
F 2 "lib:CONN-TE-MICROMATCH-3X2-SMD" H 850 4050 50  0001 C CNN
F 3 "~" H 850 4050 50  0001 C CNN
	1    850  4050
	-1   0    0    1   
$EndComp
Wire Wire Line
	1050 3750 1450 3750
Text Label 1550 3750 0    50   ~ 0
VDD
Wire Wire Line
	1050 3850 1550 3850
Text Label 1550 3850 0    50   ~ 0
GND
$Comp
L Device:C C3
U 1 1 5C9A2928
P 5750 7100
F 0 "C3" H 5865 7146 50  0000 L CNN
F 1 "0,1µF10V" H 5865 7055 50  0000 L CNN
F 2 "Capacitor_SMD:C_0805_2012Metric_Pad1.15x1.40mm_HandSolder" H 5788 6950 50  0001 C CNN
F 3 "~" H 5750 7100 50  0001 C CNN
	1    5750 7100
	1    0    0    -1  
$EndComp
Wire Wire Line
	7650 3050 7250 3050
Wire Wire Line
	7250 3050 7250 3150
$Comp
L Device:C C2
U 1 1 5C9B6763
P 5250 7100
F 0 "C2" H 5365 7146 50  0000 L CNN
F 1 "0,1µF10V" H 5365 7055 50  0000 L CNN
F 2 "Capacitor_SMD:C_0805_2012Metric_Pad1.15x1.40mm_HandSolder" H 5288 6950 50  0001 C CNN
F 3 "~" H 5250 7100 50  0001 C CNN
	1    5250 7100
	1    0    0    -1  
$EndComp
$Comp
L Isolator:SFH617A-1 U4
U 1 1 5C9B6C68
P 2850 6950
F 0 "U4" H 2850 7275 50  0000 C CNN
F 1 "SFH617A-1" H 2850 7184 50  0000 C CNN
F 2 "OptoDevice:Panasonic_APV-AQY_SSOP-4_4.45x2.65mm_P1.27mm" H 2650 6750 50  0001 L CIN
F 3 "http://www.vishay.com/docs/83740/sfh617a.pdf" H 2850 6950 50  0001 L CNN
	1    2850 6950
	1    0    0    -1  
$EndComp
Text Label 7350 3400 0    50   ~ 0
PDWN\
Text Label 9600 2950 0    50   ~ 0
VSSN
Wire Wire Line
	9400 2750 9600 2750
Text Label 9600 2750 0    50   ~ 0
VDDFILT
Text Label 2500 6350 0    50   ~ 0
VDDFILT
Text Label 6150 7450 0    50   ~ 0
VSSN
$Comp
L Device:R R6
U 1 1 5C9D190C
P 2150 6850
F 0 "R6" V 1943 6850 50  0000 C CNN
F 1 "4,7K" V 2034 6850 50  0000 C CNN
F 2 "Resistor_SMD:R_0805_2012Metric" V 2080 6850 50  0001 C CNN
F 3 "~" H 2150 6850 50  0001 C CNN
	1    2150 6850
	0    1    1    0   
$EndComp
Wire Wire Line
	2300 6850 2550 6850
Wire Wire Line
	2550 7050 2250 7050
Text Label 2250 7050 0    50   ~ 0
GND
Text Label 900  6850 0    50   ~ 0
POWER
Wire Wire Line
	7650 3500 7200 3500
Wire Wire Line
	7200 3500 7200 3050
Wire Wire Line
	950  4550 1050 4550
Text Label 1050 4550 0    50   ~ 0
GND
Wire Wire Line
	5250 7250 5250 7450
Wire Wire Line
	5750 7250 5750 7450
$Comp
L Device:LED D2
U 1 1 5C2825CB
P 9500 5950
F 0 "D2" V 9538 5833 50  0000 R CNN
F 1 "LED" V 9447 5833 50  0000 R CNN
F 2 "LED_SMD:LED_0805_2012Metric_Castellated" H 9500 5950 50  0001 C CNN
F 3 "~" H 9500 5950 50  0001 C CNN
	1    9500 5950
	0    -1   -1   0   
$EndComp
Wire Wire Line
	9500 5700 9500 5800
$Comp
L Device:LED D1
U 1 1 5C285BB3
P 9150 5950
F 0 "D1" V 9188 5833 50  0000 R CNN
F 1 "LED" V 9097 5833 50  0000 R CNN
F 2 "LED_SMD:LED_0805_2012Metric_Castellated" H 9150 5950 50  0001 C CNN
F 3 "~" H 9150 5950 50  0001 C CNN
	1    9150 5950
	0    -1   -1   0   
$EndComp
$Comp
L Device:R R3
U 1 1 5C285BB9
P 9150 5550
F 0 "R3" H 9220 5596 50  0000 L CNN
F 1 "10K" H 9220 5505 50  0000 L CNN
F 2 "Resistor_SMD:R_0805_2012Metric" V 9080 5550 50  0001 C CNN
F 3 "~" H 9150 5550 50  0001 C CNN
	1    9150 5550
	1    0    0    -1  
$EndComp
Wire Wire Line
	9150 5700 9150 5800
$Comp
L Device:LED D3
U 1 1 5C28902F
P 9850 5950
F 0 "D3" V 9888 5833 50  0000 R CNN
F 1 "LED" V 9797 5833 50  0000 R CNN
F 2 "LED_SMD:LED_0805_2012Metric_Castellated" H 9850 5950 50  0001 C CNN
F 3 "~" H 9850 5950 50  0001 C CNN
	1    9850 5950
	0    -1   -1   0   
$EndComp
Wire Wire Line
	9850 5700 9850 5800
Wire Wire Line
	9150 6100 9150 6250
Wire Wire Line
	9150 6250 9500 6250
Wire Wire Line
	9500 6100 9500 6250
Connection ~ 9500 6250
Wire Wire Line
	9500 6250 9850 6250
Wire Wire Line
	9850 6100 9850 6250
Connection ~ 9850 6250
Wire Wire Line
	9850 6250 10150 6250
Wire Wire Line
	9850 5400 9850 5300
Wire Wire Line
	9850 5300 10050 5300
Wire Wire Line
	9500 5200 9700 5200
Wire Wire Line
	9500 5200 9500 5400
Wire Wire Line
	9150 5100 9350 5100
Wire Wire Line
	9150 5100 9150 5400
Text Label 9350 5100 0    50   ~ 0
LED_RUN
Text Label 9700 5200 0    50   ~ 0
LED_ERR
Text Label 10050 5300 0    50   ~ 0
LED_BALANCE
Text Label 4550 2750 0    50   ~ 0
ADR0
Text Label 4550 2850 0    50   ~ 0
ADR1
Text Label 4550 2950 0    50   ~ 0
ADR2
Text Label 4550 3050 0    50   ~ 0
ADR3
Text Label 6450 4400 0    50   ~ 0
LED_BALANCE
Text Label 6450 4300 0    50   ~ 0
LED_ERR
Text Label 6450 4200 0    50   ~ 0
LED_RUN
$Sheet
S 4850 2550 1350 2100
U 5C2EA202
F0 "MCU" 50
F1 "MCU.sch" 50
F2 "ADR0" I L 4850 2750 50 
F3 "ADR1" I L 4850 2850 50 
F4 "ADR2" I L 4850 2950 50 
F5 "ADR3" I L 4850 3050 50 
F6 "RX" I L 4850 4200 50 
F7 "TX" O L 4850 4350 50 
F8 "LED_RUN" O R 6200 4200 50 
F9 "LED_ERR" O R 6200 4300 50 
F10 "LED_BALANCE" O R 6200 4400 50 
F11 "CS\\" O R 6200 2750 50 
F12 "SCLK" O R 6200 2850 50 
F13 "SDI" O R 6200 2950 50 
F14 "SDO" I R 6200 3150 50 
F15 "ALERT" I R 6200 3250 50 
F16 "PD\\" O R 6200 3800 50 
F17 "CNVST" O R 6200 3050 50 
F18 "VDD" O L 4850 3400 50 
F19 "GND" O L 4850 3550 50 
F20 "BOOT" I L 4850 3800 50 
F21 "RESET\\" I L 4850 3900 50 
$EndSheet
Wire Wire Line
	4550 2750 4850 2750
Wire Wire Line
	4850 2850 4550 2850
Wire Wire Line
	4550 2950 4850 2950
Wire Wire Line
	4850 3050 4550 3050
Wire Wire Line
	6200 4400 6450 4400
Wire Wire Line
	6200 4300 6450 4300
Wire Wire Line
	6200 4200 6450 4200
Text Label 4350 4350 0    50   ~ 0
TXMCU
Text Label 4350 4200 0    50   ~ 0
RXMCU
Text Label 4500 3400 0    50   ~ 0
VDDMCU
Wire Wire Line
	1050 4150 1550 4150
Wire Wire Line
	1050 4250 1550 4250
Text Label 1550 4150 0    50   ~ 0
BOOT
Text Label 4350 3900 0    50   ~ 0
RESETMCU\
Text Label 3700 5400 0    50   ~ 0
BOOTMCU
Text Label 1550 4250 0    50   ~ 0
RESET\
$Comp
L power:PWR_FLAG #FLG0101
U 1 1 5C112A6D
P 1450 3450
F 0 "#FLG0101" H 1450 3525 50  0001 C CNN
F 1 "PWR_FLAG" H 1450 3624 50  0000 C CNN
F 2 "" H 1450 3450 50  0001 C CNN
F 3 "~" H 1450 3450 50  0001 C CNN
	1    1450 3450
	1    0    0    -1  
$EndComp
Wire Wire Line
	1450 3450 1450 3750
Connection ~ 1450 3750
Wire Wire Line
	1450 3750 1550 3750
$Comp
L power:PWR_FLAG #FLG0103
U 1 1 5C12CE28
P 950 4700
F 0 "#FLG0103" H 950 4775 50  0001 C CNN
F 1 "PWR_FLAG" H 950 4873 50  0000 C CNN
F 2 "" H 950 4700 50  0001 C CNN
F 3 "~" H 950 4700 50  0001 C CNN
	1    950  4700
	-1   0    0    1   
$EndComp
Wire Wire Line
	950  4700 950  4550
$Comp
L Mechanical:MountingHole_Pad H1
U 1 1 5C32D5CB
P 4950 950
F 0 "H1" H 5050 1001 50  0000 L CNN
F 1 "MountingHole_Pad" H 5050 910 50  0000 L CNN
F 2 "MountingHole:MountingHole_3.2mm_M3_ISO14580_Pad" H 4950 950 50  0001 C CNN
F 3 "~" H 4950 950 50  0001 C CNN
	1    4950 950 
	1    0    0    -1  
$EndComp
$Comp
L Mechanical:MountingHole_Pad H3
U 1 1 5C32D633
P 5850 950
F 0 "H3" H 5950 1001 50  0000 L CNN
F 1 "MountingHole_Pad" H 5950 910 50  0000 L CNN
F 2 "MountingHole:MountingHole_3.2mm_M3_ISO14580_Pad" H 5850 950 50  0001 C CNN
F 3 "~" H 5850 950 50  0001 C CNN
	1    5850 950 
	1    0    0    -1  
$EndComp
$Comp
L Mechanical:MountingHole_Pad H4
U 1 1 5C345DB0
P 5850 1400
F 0 "H4" H 5750 1358 50  0000 R CNN
F 1 "MountingHole_Pad" H 5750 1449 50  0000 R CNN
F 2 "MountingHole:MountingHole_3.2mm_M3_ISO14580_Pad" H 5850 1400 50  0001 C CNN
F 3 "~" H 5850 1400 50  0001 C CNN
	1    5850 1400
	-1   0    0    1   
$EndComp
$Comp
L Mechanical:MountingHole_Pad H2
U 1 1 5C345DB6
P 4950 1400
F 0 "H2" H 4850 1358 50  0000 R CNN
F 1 "MountingHole_Pad" H 4850 1449 50  0000 R CNN
F 2 "MountingHole:MountingHole_3.2mm_M3_ISO14580_Pad" H 4950 1400 50  0001 C CNN
F 3 "~" H 4950 1400 50  0001 C CNN
	1    4950 1400
	-1   0    0    1   
$EndComp
$Comp
L Connector:TestPoint TP?
U 1 1 5CDC20A3
P 2150 3650
F 0 "TP?" H 2208 3770 50  0000 L CNN
F 1 "TestPoint" H 2208 3679 50  0000 L CNN
F 2 "" H 2350 3650 50  0001 C CNN
F 3 "~" H 2350 3650 50  0001 C CNN
	1    2150 3650
	1    0    0    -1  
$EndComp
$Comp
L Connector:TestPoint TP?
U 1 1 5CDC2198
P 2150 4250
F 0 "TP?" H 2092 4277 50  0000 R CNN
F 1 "TestPoint" H 2092 4368 50  0000 R CNN
F 2 "" H 2350 4250 50  0001 C CNN
F 3 "~" H 2350 4250 50  0001 C CNN
	1    2150 4250
	-1   0    0    1   
$EndComp
$Comp
L MAX5085:MAX5084 U?
U 1 1 5CDEAF55
P 3700 7350
F 0 "U?" H 4075 8115 50  0000 C CNN
F 1 "MAX5084" H 4075 8024 50  0000 C CNN
F 2 "" H 3550 7350 50  0001 C CNN
F 3 "" H 3550 7350 50  0001 C CNN
	1    3700 7350
	1    0    0    -1  
$EndComp
Wire Wire Line
	3600 7000 3500 7000
Wire Wire Line
	3500 7000 3500 7050
Connection ~ 3500 6850
Wire Wire Line
	3500 6850 3600 6850
Wire Wire Line
	4550 6850 4700 6850
Wire Wire Line
	4550 7000 4700 7000
Wire Wire Line
	4700 7000 4700 6850
Connection ~ 4700 6850
Wire Wire Line
	4750 7150 4750 7300
Wire Wire Line
	4750 7450 3500 7450
Wire Wire Line
	3500 7450 3500 7150
Wire Wire Line
	3500 7150 3600 7150
Wire Wire Line
	4550 7150 4750 7150
Connection ~ 4750 7450
Wire Wire Line
	4550 7300 4750 7300
Connection ~ 4750 7300
Wire Wire Line
	4750 7300 4750 7450
Wire Wire Line
	2000 6850 900  6850
$Sheet
S 7650 700  1750 1550
U 5CE89959
F0 "sheet5CE89959" 50
F1 "AD7280A_SUB.sch" 50
F2 "SCLK" I L 7650 1000 50 
F3 "SDI" I L 7650 1100 50 
F4 "SDO" O L 7650 1200 50 
F5 "ALERT" O L 7650 1400 50 
F6 "CS/" I L 7650 900 50 
F7 "PD/" I L 7650 1550 50 
F8 "CNVST/" I L 7650 1650 50 
F9 "HIBAT" O R 9400 1000 50 
F10 "VSSN" I R 9400 1100 50 
F11 "VDDNFILTERED" O R 9400 900 50 
F12 "LOBAT" I R 9400 1200 50 
F13 "VREG" O R 9400 1300 50 
$EndSheet
Wire Wire Line
	9400 1200 9950 1200
Wire Wire Line
	9950 1200 9950 2850
Wire Wire Line
	9950 2850 9400 2850
NoConn ~ 9400 3150
NoConn ~ 9400 1300
$Comp
L Device:R R?
U 1 1 5D516D55
P 3250 7250
F 0 "R?" H 3320 7296 50  0000 L CNN
F 1 "50k" H 3320 7205 50  0000 L CNN
F 2 "" V 3180 7250 50  0001 C CNN
F 3 "~" H 3250 7250 50  0001 C CNN
	1    3250 7250
	1    0    0    -1  
$EndComp
Wire Wire Line
	3150 6850 3500 6850
Wire Wire Line
	3150 7050 3250 7050
Wire Wire Line
	3250 7050 3250 7100
Connection ~ 3250 7050
Wire Wire Line
	3250 7050 3500 7050
Wire Wire Line
	3250 7400 3250 7450
Wire Wire Line
	3250 7450 3500 7450
Connection ~ 3500 7450
Text Label 1550 3950 0    50   ~ 0
RX
Text Label 1550 4050 0    50   ~ 0
TX
Wire Wire Line
	2150 3650 2150 3950
Wire Wire Line
	1050 3950 2150 3950
Wire Wire Line
	2150 4050 2150 4250
Wire Wire Line
	1050 4050 2150 4050
Wire Wire Line
	6200 3250 7650 3250
Wire Wire Line
	6200 3150 7250 3150
Wire Wire Line
	6200 3050 7200 3050
Wire Wire Line
	6200 2950 7650 2950
Wire Wire Line
	6200 2850 7650 2850
Wire Wire Line
	6200 2750 7650 2750
Wire Wire Line
	9400 2950 10150 2950
Wire Wire Line
	6800 3400 6800 3800
Wire Wire Line
	6800 3800 6200 3800
Wire Wire Line
	6800 3400 7650 3400
Text Label 4500 3550 0    50   ~ 0
VSSN
Wire Wire Line
	4500 3400 4850 3400
Wire Wire Line
	4500 3550 4850 3550
Text Label 6150 6850 0    50   ~ 0
VDDMCU
$Comp
L Isolator:Si8641BB-B-IS U?
U 1 1 5D57EC6F
P 2950 5400
F 0 "U?" H 2950 6067 50  0000 C CNN
F 1 "Si8641BB-B-IS" H 2950 5976 50  0000 C CNN
F 2 "Package_SO:SOIC-16W_7.5x10.3mm_P1.27mm" H 2950 4850 50  0001 C CIN
F 3 "https://www.silabs.com/documents/public/data-sheets/si864x-datasheet.pdf" H 2950 5800 50  0001 C CNN
	1    2950 5400
	1    0    0    -1  
$EndComp
Wire Wire Line
	2550 5000 2400 5000
Wire Wire Line
	2400 5000 2400 5100
Wire Wire Line
	2400 5100 2550 5100
Wire Wire Line
	2400 5000 2150 5000
Connection ~ 2400 5000
Wire Wire Line
	3350 5000 3500 5000
Wire Wire Line
	3500 5000 3500 5100
Wire Wire Line
	3500 5100 3350 5100
Connection ~ 3500 5000
Wire Wire Line
	3500 5000 3650 5000
Wire Wire Line
	2150 5400 2550 5400
Wire Wire Line
	2550 5500 2150 5500
Wire Wire Line
	2550 5600 2150 5600
Wire Wire Line
	2550 5800 2150 5800
Wire Wire Line
	3350 5800 3700 5800
Wire Wire Line
	3350 5600 3700 5600
Wire Wire Line
	3350 5500 3700 5500
Wire Wire Line
	3350 5400 3700 5400
Wire Wire Line
	3350 5300 3700 5300
Text Label 2150 5600 0    50   ~ 0
RX
Text Label 2150 5500 0    50   ~ 0
TX
Text Label 2150 5400 0    50   ~ 0
BOOT
Text Label 2150 5300 0    50   ~ 0
RESET\
Wire Wire Line
	4350 3800 4850 3800
Wire Wire Line
	4350 3900 4850 3900
Wire Wire Line
	4350 4200 4850 4200
Wire Wire Line
	4350 4350 4850 4350
Text Label 3700 5600 0    50   ~ 0
TXMCU
Text Label 3700 5500 0    50   ~ 0
RXMCU
Text Label 3700 5300 0    50   ~ 0
RESETMCU\
Text Label 4350 3800 0    50   ~ 0
BOOTMCU
Text Label 3650 5000 0    50   ~ 0
VDDMCU
Text Label 3700 5800 0    50   ~ 0
VSSN
Text Label 2150 5800 0    50   ~ 0
GND
Text Label 2150 5000 0    50   ~ 0
VDD
Wire Wire Line
	4700 6850 5250 6850
Wire Wire Line
	4750 7450 5250 7450
Connection ~ 5250 7450
Wire Wire Line
	5250 7450 5750 7450
Connection ~ 5750 7450
Wire Wire Line
	5750 7450 6150 7450
Wire Wire Line
	5750 6950 5750 6850
Connection ~ 5750 6850
Wire Wire Line
	5750 6850 6150 6850
Wire Wire Line
	5250 6950 5250 6850
Connection ~ 5250 6850
Wire Wire Line
	5250 6850 5750 6850
Text Label 650  1250 0    50   ~ 0
ADR0
Text Label 1350 1250 0    50   ~ 0
ADR1
Text Label 2000 1250 0    50   ~ 0
ADR2
Text Label 2700 1250 0    50   ~ 0
ADR3
Wire Wire Line
	650  1250 950  1250
Wire Wire Line
	1650 1250 1350 1250
Wire Wire Line
	2000 1250 2300 1250
Wire Wire Line
	3000 1250 2700 1250
$Comp
L Device:R R?
U 1 1 5D65CD1E
P 2300 1050
F 0 "R?" H 2370 1096 50  0000 L CNN
F 1 "100K" H 2370 1005 50  0000 L CNN
F 2 "" V 2230 1050 50  0001 C CNN
F 3 "~" H 2300 1050 50  0001 C CNN
	1    2300 1050
	1    0    0    -1  
$EndComp
$Comp
L Device:R R?
U 1 1 5D65CE55
P 2300 1450
F 0 "R?" H 2370 1496 50  0000 L CNN
F 1 "100K" H 2370 1405 50  0000 L CNN
F 2 "" V 2230 1450 50  0001 C CNN
F 3 "~" H 2300 1450 50  0001 C CNN
	1    2300 1450
	1    0    0    -1  
$EndComp
Wire Wire Line
	2300 900  2300 800 
Wire Wire Line
	2300 1600 2300 1700
Wire Wire Line
	2300 1200 2300 1250
Text Label 2300 1700 0    50   ~ 0
VSSN
Text Label 2300 800  0    50   ~ 0
VDDMCU
$Comp
L Device:R R?
U 1 1 5D67B6A6
P 3000 1050
F 0 "R?" H 3070 1096 50  0000 L CNN
F 1 "100K" H 3070 1005 50  0000 L CNN
F 2 "" V 2930 1050 50  0001 C CNN
F 3 "~" H 3000 1050 50  0001 C CNN
	1    3000 1050
	1    0    0    -1  
$EndComp
$Comp
L Device:R R?
U 1 1 5D67B6AC
P 3000 1450
F 0 "R?" H 3070 1496 50  0000 L CNN
F 1 "100K" H 3070 1405 50  0000 L CNN
F 2 "" V 2930 1450 50  0001 C CNN
F 3 "~" H 3000 1450 50  0001 C CNN
	1    3000 1450
	1    0    0    -1  
$EndComp
Wire Wire Line
	3000 900  3000 800 
Wire Wire Line
	3000 1600 3000 1700
Wire Wire Line
	3000 1200 3000 1250
Text Label 3000 1700 0    50   ~ 0
VSSN
Text Label 3000 800  0    50   ~ 0
VDDMCU
$Comp
L Device:R R?
U 1 1 5D680CB3
P 950 1050
F 0 "R?" H 1020 1096 50  0000 L CNN
F 1 "100K" H 1020 1005 50  0000 L CNN
F 2 "" V 880 1050 50  0001 C CNN
F 3 "~" H 950 1050 50  0001 C CNN
	1    950  1050
	1    0    0    -1  
$EndComp
$Comp
L Device:R R?
U 1 1 5D680CB9
P 950 1450
F 0 "R?" H 1020 1496 50  0000 L CNN
F 1 "100K" H 1020 1405 50  0000 L CNN
F 2 "" V 880 1450 50  0001 C CNN
F 3 "~" H 950 1450 50  0001 C CNN
	1    950  1450
	1    0    0    -1  
$EndComp
Wire Wire Line
	950  900  950  800 
Wire Wire Line
	950  1600 950  1700
Wire Wire Line
	950  1200 950  1250
Text Label 950  1700 0    50   ~ 0
VSSN
Text Label 950  800  0    50   ~ 0
VDDMCU
$Comp
L Device:R R?
U 1 1 5D680CC4
P 1650 1050
F 0 "R?" H 1720 1096 50  0000 L CNN
F 1 "100K" H 1720 1005 50  0000 L CNN
F 2 "" V 1580 1050 50  0001 C CNN
F 3 "~" H 1650 1050 50  0001 C CNN
	1    1650 1050
	1    0    0    -1  
$EndComp
$Comp
L Device:R R?
U 1 1 5D680CCA
P 1650 1450
F 0 "R?" H 1720 1496 50  0000 L CNN
F 1 "100K" H 1720 1405 50  0000 L CNN
F 2 "" V 1580 1450 50  0001 C CNN
F 3 "~" H 1650 1450 50  0001 C CNN
	1    1650 1450
	1    0    0    -1  
$EndComp
Wire Wire Line
	1650 900  1650 800 
Wire Wire Line
	1650 1600 1650 1700
Wire Wire Line
	1650 1200 1650 1250
Text Label 1650 1700 0    50   ~ 0
VSSN
Text Label 1650 800  0    50   ~ 0
VDDMCU
Connection ~ 950  1250
Wire Wire Line
	950  1250 950  1300
Connection ~ 1650 1250
Wire Wire Line
	1650 1250 1650 1300
Connection ~ 2300 1250
Wire Wire Line
	2300 1250 2300 1300
Connection ~ 3000 1250
Wire Wire Line
	3000 1250 3000 1300
NoConn ~ 4950 1050
NoConn ~ 5850 1050
NoConn ~ 5850 1300
NoConn ~ 4950 1300
$Comp
L Device:R R?
U 1 1 5D6D32DD
P 9500 5550
F 0 "R?" H 9570 5596 50  0000 L CNN
F 1 "10K" H 9570 5505 50  0000 L CNN
F 2 "Resistor_SMD:R_0805_2012Metric" V 9430 5550 50  0001 C CNN
F 3 "~" H 9500 5550 50  0001 C CNN
	1    9500 5550
	1    0    0    -1  
$EndComp
$Comp
L Device:R R?
U 1 1 5D6D3335
P 9850 5550
F 0 "R?" H 9920 5596 50  0000 L CNN
F 1 "10K" H 9920 5505 50  0000 L CNN
F 2 "Resistor_SMD:R_0805_2012Metric" V 9780 5550 50  0001 C CNN
F 3 "~" H 9850 5550 50  0001 C CNN
	1    9850 5550
	1    0    0    -1  
$EndComp
$Comp
L Connector:TestPoint TP?
U 1 1 5D6DFADF
P 2850 7350
F 0 "TP?" V 3045 7424 50  0000 C CNN
F 1 "TestPoint" V 2954 7424 50  0000 C CNN
F 2 "" H 3050 7350 50  0001 C CNN
F 3 "~" H 3050 7350 50  0001 C CNN
	1    2850 7350
	0    -1   -1   0   
$EndComp
Wire Wire Line
	3150 7050 3150 7350
Wire Wire Line
	3150 7350 2850 7350
Connection ~ 3150 7050
$Comp
L Device:R R?
U 1 1 5D6E5F6F
P 7150 4000
F 0 "R?" H 7220 4046 50  0000 L CNN
F 1 "100k" H 7220 3955 50  0000 L CNN
F 2 "" V 7080 4000 50  0001 C CNN
F 3 "~" H 7150 4000 50  0001 C CNN
	1    7150 4000
	1    0    0    -1  
$EndComp
Wire Wire Line
	7150 3850 7150 3800
Wire Wire Line
	7150 3800 6800 3800
Connection ~ 6800 3800
Wire Wire Line
	7150 4150 7150 4300
Wire Wire Line
	7150 4300 7250 4300
Text Label 7250 4300 0    50   ~ 0
VSSN
Text Label 10150 6250 0    50   ~ 0
VSSN
$Comp
L Connector:TestPoint TP?
U 1 1 5D6F8B4B
P 1750 5150
F 0 "TP?" H 1808 5270 50  0000 L CNN
F 1 "TestPoint" H 1808 5179 50  0000 L CNN
F 2 "" H 1950 5150 50  0001 C CNN
F 3 "~" H 1950 5150 50  0001 C CNN
	1    1750 5150
	1    0    0    -1  
$EndComp
$Comp
L Connector:TestPoint TP?
U 1 1 5D6F8BE5
P 5750 6700
F 0 "TP?" H 5808 6820 50  0000 L CNN
F 1 "TestPoint" H 5808 6729 50  0000 L CNN
F 2 "" H 5950 6700 50  0001 C CNN
F 3 "~" H 5950 6700 50  0001 C CNN
	1    5750 6700
	1    0    0    -1  
$EndComp
Wire Wire Line
	1750 5300 1750 5150
Wire Wire Line
	1750 5300 2550 5300
Wire Wire Line
	5750 6850 5750 6700
$Comp
L Connector:Conn_01x06_Female J?
U 1 1 5D56D374
P 850 2650
F 0 "J?" H 744 2125 50  0000 C CNN
F 1 "Conn_01x06_Female" H 744 2216 50  0000 C CNN
F 2 "lib:CONN-TE-MICROMATCH-3X2-SMD" H 850 2650 50  0001 C CNN
F 3 "~" H 850 2650 50  0001 C CNN
	1    850  2650
	-1   0    0    1   
$EndComp
Text Label 1200 2350 0    50   ~ 0
VDD
Text Label 1200 2450 0    50   ~ 0
GND
Text Label 1200 2750 0    50   ~ 0
BOOT
Text Label 1200 2850 0    50   ~ 0
RESET\
Text Label 1200 2550 0    50   ~ 0
RX
Text Label 1200 2650 0    50   ~ 0
TX
Wire Wire Line
	1050 2350 1200 2350
Wire Wire Line
	1200 2450 1050 2450
Wire Wire Line
	1050 2550 1200 2550
Wire Wire Line
	1200 2650 1050 2650
Wire Wire Line
	1200 2750 1050 2750
Wire Wire Line
	1050 2850 1200 2850
Text Notes 850  3000 0    50   ~ 0
Ser Out
Text Notes 850  4350 0    50   ~ 0
SerIn\n
$Comp
L Device:Fuse F?
U 1 1 5D5C019B
P 3200 6350
F 0 "F?" V 3003 6350 50  0000 C CNN
F 1 "Fuse" V 3094 6350 50  0000 C CNN
F 2 "" V 3130 6350 50  0001 C CNN
F 3 "~" H 3200 6350 50  0001 C CNN
	1    3200 6350
	0    1    1    0   
$EndComp
Wire Wire Line
	2500 6350 3050 6350
Wire Wire Line
	3350 6350 3500 6350
Wire Wire Line
	3500 6350 3500 6850
$EndSCHEMATC
