(module M5Bushing (layer F.Cu) (tedit 5C228043)
  (fp_text reference REF** (at 2.1 10.3) (layer F.SilkS)
    (effects (font (size 1 1) (thickness 0.15)))
  )
  (fp_text value M5Bushing (at 3.7 -1.3) (layer F.Fab)
    (effects (font (size 1 1) (thickness 0.15)))
  )
  (fp_line (start 0 0) (end 9 0) (layer F.SilkS) (width 0.15))
  (fp_line (start 9 0) (end 9 9) (layer F.SilkS) (width 0.15))
  (fp_line (start 9 9) (end 0 9) (layer F.SilkS) (width 0.15))
  (fp_line (start 0 9) (end 0 0) (layer F.SilkS) (width 0.15))
  (pad 1 thru_hole circle (at 0.7 0.7) (size 2.45 2.45) (drill 1.45) (layers *.Cu *.Mask))
  (pad 1 thru_hole circle (at 3.2 0.7) (size 2.45 2.45) (drill 1.45) (layers *.Cu *.Mask))
  (pad 1 thru_hole circle (at 5.8 0.7) (size 2.45 2.45) (drill 1.45) (layers *.Cu *.Mask))
  (pad 1 thru_hole circle (at 8.3 0.7) (size 2.45 2.45) (drill 1.45) (layers *.Cu *.Mask))
  (pad 1 thru_hole circle (at 8.2 8.2) (size 2.45 2.45) (drill 1.45) (layers *.Cu *.Mask))
  (pad 1 thru_hole circle (at 3.2 8.2) (size 2.45 2.45) (drill 1.45) (layers *.Cu *.Mask))
  (pad 1 thru_hole circle (at 0.7 8.3) (size 2.45 2.45) (drill 1.45) (layers *.Cu *.Mask))
  (pad 1 thru_hole circle (at 5.7 8.2) (size 2.45 2.45) (drill 1.45) (layers *.Cu *.Mask))
  (pad 1 thru_hole circle (at 0.7 3.2 90) (size 2.45 2.45) (drill 1.45) (layers *.Cu *.Mask))
  (pad 1 thru_hole circle (at 8.3 3.2 90) (size 2.45 2.45) (drill 1.45) (layers *.Cu *.Mask))
  (pad 1 thru_hole circle (at 8.3 5.7 90) (size 2.45 2.45) (drill 1.45) (layers *.Cu *.Mask))
  (pad 1 thru_hole circle (at 0.7 5.8 90) (size 2.45 2.45) (drill 1.45) (layers *.Cu *.Mask))
  (pad 1 thru_hole circle (at 4.5 4.5) (size 6 6) (drill 5.2) (layers *.Cu *.Mask))
)
