M48
;DRILL file {KiCad 5.0.2-bee76a0~70~ubuntu18.04.1} date dim. 09 juin 2019 18:58:28 CEST
;FORMAT={-:-/ absolute / inch / decimal}
FMAT,2
INCH,TZ
T1C0.0157
T2C0.0236
T3C0.0256
T4C0.0299
T5C0.0394
T6C0.0433
T7C0.0472
T8C0.0630
T9C0.1260
T10C0.1378
T11C0.2047
%
G90
G05
T1
X2.7067Y-6.1614
X2.9232Y-6.1811
X3.0807Y-6.4272
X3.2087Y-5.9843
X3.2677Y-6.6535
X3.3563Y-5.8563
X3.3937Y-3.
X3.3937Y-4.6929
X3.4094Y-3.315
X3.4646Y-5.9449
X3.4724Y-4.4173
X3.4803Y-5.1417
X3.5748Y-1.5827
X3.5827Y-6.5354
X3.5827Y-6.6142
X3.5984Y-4.5669
X3.6772Y-3.9272
X3.6929Y-2.8819
X3.7244Y-1.6772
X3.7795Y-2.2835
X3.7795Y-6.5748
X3.7953Y-4.6299
X3.8976Y-1.7402
X3.9213Y-5.0472
X4.0079Y-5.3386
X4.0945Y-6.063
X4.126Y-4.9921
X4.1339Y-6.4961
X4.1654Y-4.1417
X4.189Y-3.5039
X4.1929Y-5.7087
X4.1969Y-5.4882
X4.2126Y-3.378
X4.252Y-6.5748
X4.2598Y-3.7008
X4.2899Y-3.219
X4.2992Y-3.6614
X4.3386Y-3.4173
X4.3591Y-3.4951
X4.3593Y-4.189
X4.3612Y-4.4882
X4.3898Y-3.5728
X4.3937Y-3.0315
X4.4173Y-4.8583
X4.4193Y-3.6024
X4.4291Y-4.1437
X4.5039Y-4.5039
X4.5143Y-2.9946
X4.5276Y-2.3228
X4.5276Y-5.7677
X4.5354Y-3.1417
X4.5512Y-1.7165
X4.5669Y-6.0433
X4.5955Y-6.1024
X4.6063Y-7.1516
X4.6358Y-5.7677
X4.6358Y-6.2402
X4.6457Y-2.7165
X4.6457Y-6.1417
X4.6496Y-6.8484
X4.6555Y-4.3996
X4.7047Y-5.9744
X4.7047Y-7.1122
X4.7244Y-6.5354
X4.7244Y-7.2835
X4.7362Y-7.0256
X4.7441Y-6.122
X4.7441Y-6.6339
X4.7736Y-6.4665
X4.7756Y-3.6339
X4.7835Y-6.0433
X4.7938Y-3.8096
X4.7948Y-3.5738
X4.813Y-6.1811
X4.8189Y-7.3715
X4.8228Y-6.0236
X4.8346Y-3.1024
X4.8425Y-6.3091
X4.843Y-3.6068
X4.8508Y-6.6453
X4.8524Y-6.2008
X4.8583Y-4.1024
X4.8622Y-7.0217
X4.8661Y-3.315
X4.8802Y-3.5939
X4.8819Y-6.0335
X4.8819Y-6.3091
X4.8831Y-6.1693
X4.8917Y-7.2736
X4.8976Y-6.9862
X4.9016Y-6.3484
X4.9016Y-7.3327
X4.9055Y-1.9921
X4.9359Y-3.3139
X4.9528Y-7.1004
X4.9528Y-7.1594
X4.955Y-3.6041
X4.9646Y-7.0374
X4.9764Y-2.5669
X4.9803Y-6.6437
X4.9803Y-6.9823
X4.9831Y-3.4476
X4.9921Y-3.6538
X4.9921Y-2.6457
X4.993Y-3.6144
X5.Y-2.9528
X5.Y-3.1181
X5.0039Y-7.2185
X5.0295Y-6.1909
X5.0337Y-3.7745
X5.0612Y-3.8396
X5.0787Y-2.0472
X5.0886Y-6.0728
X5.1181Y-1.7717
X5.1181Y-3.937
X5.1181Y-5.4331
X5.1198Y-3.6387
X5.1545Y-3.5469
X5.1575Y-6.6732
X5.1673Y-3.4744
X5.2283Y-3.4094
X5.2756Y-6.8799
X5.2992Y-3.4173
X5.3051Y-6.6929
X5.315Y-6.1811
X5.3465Y-3.2756
X5.3839Y-2.9035
X5.385Y-6.4075
X5.4035Y-6.1713
X5.4528Y-6.3386
X5.4626Y-3.0315
X5.4724Y-3.5827
X5.4961Y-6.4016
X5.5197Y-2.189
X5.5413Y-6.939
X5.5433Y-6.4094
X5.5512Y-3.6614
X5.5591Y-6.3307
X5.5669Y-1.9055
X5.5807Y-6.6929
X5.5984Y-5.5039
X5.6299Y-4.2913
X5.6535Y-5.0315
X5.6693Y-4.5354
X5.7087Y-6.7717
X5.8366Y-3.563
X5.8366Y-3.6122
T2
X2.5197Y-3.1594
X2.5197Y-3.3169
X2.5197Y-3.9075
X2.5197Y-4.065
X2.5787Y-3.1594
X2.5787Y-3.3169
X2.5787Y-3.9075
X2.5787Y-4.065
X2.6378Y-3.1594
X2.6378Y-3.3169
X2.6378Y-3.9075
X2.6378Y-4.065
X2.6969Y-3.1594
X2.6969Y-3.3169
X2.6969Y-3.9075
X2.6969Y-4.065
X5.7677Y-3.1594
X5.7677Y-3.3169
X5.7677Y-3.9075
X5.7677Y-4.065
X5.8268Y-3.1594
X5.8268Y-3.3169
X5.8268Y-3.9075
X5.8268Y-4.065
X5.9055Y-3.1594
X5.9055Y-3.3169
X5.9055Y-3.9075
X5.9055Y-4.065
X5.9646Y-3.1594
X5.9646Y-3.3169
X5.9646Y-3.9075
X5.9646Y-4.065
X2.5197Y-4.7638
X2.5197Y-4.9213
X2.5197Y-5.5118
X2.5197Y-5.6693
X2.5787Y-4.7638
X2.5787Y-4.9213
X2.5787Y-5.5118
X2.5787Y-5.6693
X2.6378Y-4.7638
X2.6378Y-4.9213
X2.6378Y-5.5118
X2.6378Y-5.6693
X2.6969Y-4.7638
X2.6969Y-4.9213
X2.6969Y-5.5118
X2.6969Y-5.6693
X5.7677Y-4.7638
X5.7677Y-4.9213
X5.7677Y-5.5118
X5.7677Y-5.6693
X5.8268Y-4.7638
X5.8268Y-4.9213
X5.8268Y-5.5118
X5.8268Y-5.6693
X5.9055Y-4.7638
X5.9055Y-4.9213
X5.9055Y-5.5118
X5.9055Y-5.6693
X5.9646Y-4.7638
X5.9646Y-4.9213
X5.9646Y-5.5118
X5.9646Y-5.6693
X2.5197Y-1.5315
X2.5197Y-1.689
X2.5197Y-2.2795
X2.5197Y-2.437
X2.5787Y-1.5315
X2.5787Y-1.689
X2.5787Y-2.2795
X2.5787Y-2.437
X2.6378Y-1.5315
X2.6378Y-1.689
X2.6378Y-2.2795
X2.6378Y-2.437
X2.6969Y-1.5315
X2.6969Y-1.689
X2.6969Y-2.2795
X2.6969Y-2.437
X5.7677Y-1.5315
X5.7677Y-1.689
X5.7677Y-2.2795
X5.7677Y-2.437
X5.8268Y-1.5315
X5.8268Y-1.689
X5.8268Y-2.2795
X5.8268Y-2.437
X5.9055Y-1.5315
X5.9055Y-1.689
X5.9055Y-2.2795
X5.9055Y-2.437
X5.9646Y-1.5315
X5.9646Y-1.689
X5.9646Y-2.2795
X5.9646Y-2.437
T3
X4.8213Y-6.565
X4.8713Y-6.565
X4.9213Y-6.565
X4.9713Y-6.565
X5.0213Y-6.565
T4
X4.1299Y-6.8165
X4.4299Y-6.8165
X3.6427Y-6.8179
X3.9427Y-6.8179
T5
X2.6772Y-3.7402
X3.8976Y-3.7402
X3.6427Y-7.2179
X3.6427Y-7.5179
X3.9427Y-7.4179
X2.6772Y-2.9528
X3.8976Y-2.9528
X2.6772Y-1.378
X3.8976Y-1.378
X2.6772Y-5.2362
X3.8976Y-5.2362
X2.6772Y-2.0472
X3.8976Y-2.0472
X2.6772Y-4.3701
X3.8976Y-4.3701
X4.1299Y-7.2165
X4.1299Y-7.5165
X4.4299Y-7.4165
T6
X3.5827Y-6.4173
X3.6827Y-6.4173
X3.7827Y-6.4173
T7
X2.6772Y-6.811
X2.6772Y-6.961
X5.8563Y-7.0965
X5.8563Y-7.2465
T8
X5.2906Y-0.7953
X5.2906Y-0.8953
X5.2906Y-0.9953
X5.2906Y-1.0953
X5.3906Y-0.7953
X5.3906Y-1.0953
X5.4906Y-0.7953
X5.4906Y-1.0953
X5.5906Y-0.7953
X5.5906Y-0.8953
X5.5906Y-0.9953
X5.5906Y-1.0953
X3.0315Y-7.2441
X3.0315Y-7.3441
X3.0315Y-7.4441
X3.0315Y-7.5441
X3.1315Y-7.2441
X3.1315Y-7.5441
X3.2315Y-7.2441
X3.2315Y-7.5441
X3.3315Y-7.2441
X3.3315Y-7.3441
X3.3315Y-7.4441
X3.3315Y-7.5441
T9
X2.5591Y-1.0236
X2.5591Y-7.4803
X5.9055Y-7.4803
X5.9055Y-1.0236
T10
X3.1693Y-2.9311
X5.3346Y-4.3091
X3.1693Y-4.5354
X5.3346Y-5.9134
X3.1693Y-1.3031
X5.3346Y-2.6811
T11
X5.4402Y-0.9449
X3.1811Y-7.3937
T0
M30
