(module NFE61H (layer F.Cu) (tedit 5C22551C)
  (fp_text reference REF** (at 2 -3) (layer F.SilkS)
    (effects (font (size 1 1) (thickness 0.15)))
  )
  (fp_text value NFE61H (at 2.75 1.5) (layer F.Fab)
    (effects (font (size 1 1) (thickness 0.15)))
  )
  (pad 1 smd rect (at 1 -1) (size 1.524 1.524) (layers F.Cu F.Paste F.Mask))
  (pad 3 smd rect (at 7 -1) (size 1.524 1.524) (layers F.Cu F.Paste F.Mask))
  (pad 2 smd rect (at 4 -1) (size 2.4 3.2) (layers F.Cu F.Paste F.Mask))
)
