EESchema Schematic File Version 4
LIBS:Controller-cache
EELAYER 26 0
EELAYER END
$Descr A4 11693 8268
encoding utf-8
Sheet 2 8
Title ""
Date ""
Rev ""
Comp ""
Comment1 ""
Comment2 ""
Comment3 ""
Comment4 ""
$EndDescr
Text HLabel 1400 2950 0    50   Input ~ 0
VBAT
Text HLabel 1400 4000 0    50   Input ~ 0
GND
Text HLabel 9450 2950 2    50   Input ~ 0
3.3V
Text HLabel 5700 4750 2    50   Input ~ 0
MODULE3V3
Text HLabel 3700 5150 0    50   Input ~ 0
MODULEPOWEN
$Comp
L Regulator_Switching:LM5165Y U2
U 1 1 5C669F02
P 4000 3250
F 0 "U2" H 4000 3817 50  0000 C CNN
F 1 "LM5165Y" H 4000 3726 50  0000 C CNN
F 2 "Package_SON:Texas_S-PVSON-N10_ThermalVias" H 4050 2800 50  0001 L CNN
F 3 "http://www.ti.com/lit/ds/symlink/lm5165.pdf" H 4000 3800 50  0001 C CNN
	1    4000 3250
	1    0    0    -1  
$EndComp
$Comp
L Device:L L1
U 1 1 5C66A1DB
P 4800 2950
F 0 "L1" V 4990 2950 50  0000 C CNN
F 1 "150µH0.42A" V 4899 2950 50  0000 C CNN
F 2 "Inductor_SMD:L_Wuerth_WE-TPC-3816" H 4800 2950 50  0001 C CNN
F 3 "~" H 4800 2950 50  0001 C CNN
	1    4800 2950
	0    -1   -1   0   
$EndComp
$Comp
L Device:R R15
U 1 1 5C66A2B6
P 6750 3200
F 0 "R15" H 6680 3154 50  0000 R CNN
F 1 "1R" H 6680 3245 50  0000 R CNN
F 2 "Resistor_SMD:R_0805_2012Metric" V 6680 3200 50  0001 C CNN
F 3 "~" H 6750 3200 50  0001 C CNN
	1    6750 3200
	-1   0    0    1   
$EndComp
$Comp
L Device:R R16
U 1 1 5C66A2F8
P 7350 3200
F 0 "R16" H 7280 3154 50  0000 R CNN
F 1 "1R" H 7280 3245 50  0000 R CNN
F 2 "Resistor_SMD:R_0805_2012Metric" V 7280 3200 50  0001 C CNN
F 3 "~" H 7350 3200 50  0001 C CNN
	1    7350 3200
	-1   0    0    1   
$EndComp
$Comp
L Device:C C11
U 1 1 5C66A3F3
P 6750 3650
F 0 "C11" H 6865 3696 50  0000 L CNN
F 1 "10uF20V" H 6865 3605 50  0000 L CNN
F 2 "Capacitor_SMD:C_1210_3225Metric" H 6788 3500 50  0001 C CNN
F 3 "~" H 6750 3650 50  0001 C CNN
	1    6750 3650
	1    0    0    -1  
$EndComp
$Comp
L Device:C C12
U 1 1 5C66A42F
P 7350 3650
F 0 "C12" H 7465 3696 50  0000 L CNN
F 1 "10uF20V" H 7465 3605 50  0000 L CNN
F 2 "Capacitor_SMD:C_1210_3225Metric" H 7388 3500 50  0001 C CNN
F 3 "~" H 7350 3650 50  0001 C CNN
	1    7350 3650
	1    0    0    -1  
$EndComp
Wire Wire Line
	4400 2950 4650 2950
Wire Wire Line
	6750 3050 6750 2950
Connection ~ 6750 2950
Wire Wire Line
	6750 2950 5100 2950
Wire Wire Line
	7350 3050 7350 2950
Connection ~ 7350 2950
Wire Wire Line
	7350 2950 6750 2950
Wire Wire Line
	7350 3350 7350 3500
Wire Wire Line
	6750 3500 6750 3350
Wire Wire Line
	6750 3800 6750 4000
Wire Wire Line
	6750 4000 7350 4000
Wire Wire Line
	7350 4000 7350 3800
Connection ~ 7350 4000
Text Label 8850 4000 0    50   ~ 0
GND
Wire Wire Line
	4400 3150 5100 3150
Wire Wire Line
	5100 3150 5100 2950
Connection ~ 5100 2950
Wire Wire Line
	5100 2950 4950 2950
Wire Wire Line
	4400 3350 5700 3350
$Comp
L Device:C C10
U 1 1 5C66AA61
P 5700 3650
F 0 "C10" H 5815 3696 50  0000 L CNN
F 1 "47nF50V" H 5815 3605 50  0000 L CNN
F 2 "Capacitor_SMD:C_0805_2012Metric" H 5738 3500 50  0001 C CNN
F 3 "~" H 5700 3650 50  0001 C CNN
	1    5700 3650
	1    0    0    -1  
$EndComp
Wire Wire Line
	5700 3350 5700 3500
Wire Wire Line
	5700 3800 5700 4000
Wire Wire Line
	5700 4000 6750 4000
Connection ~ 6750 4000
Wire Wire Line
	3900 3750 3900 4000
Wire Wire Line
	3900 4000 4000 4000
Connection ~ 5700 4000
Wire Wire Line
	4000 3750 4000 4000
Connection ~ 4000 4000
Wire Wire Line
	4000 4000 4600 4000
Wire Wire Line
	4400 3450 4600 3450
Wire Wire Line
	4600 3450 4600 4000
Connection ~ 4600 4000
Wire Wire Line
	4600 4000 5700 4000
$Comp
L Device:R R11
U 1 1 5C66B5B2
P 3300 3750
F 0 "R11" H 3230 3704 50  0000 R CNN
F 1 "130K" H 3230 3795 50  0000 R CNN
F 2 "Resistor_SMD:R_0805_2012Metric" V 3230 3750 50  0001 C CNN
F 3 "~" H 3300 3750 50  0001 C CNN
	1    3300 3750
	-1   0    0    1   
$EndComp
Wire Wire Line
	3600 3550 3300 3550
Wire Wire Line
	3300 4000 3900 4000
Connection ~ 3900 4000
Wire Wire Line
	3300 3550 3300 3600
Wire Wire Line
	3300 3900 3300 4000
NoConn ~ 3600 3250
NoConn ~ 3600 3350
Wire Wire Line
	3300 4000 2100 4000
Connection ~ 3300 4000
$Comp
L Device:C C9
U 1 1 5C66E9F6
P 2100 3250
F 0 "C9" H 2215 3296 50  0000 L CNN
F 1 "2uF100V" H 2215 3205 50  0000 L CNN
F 2 "Capacitor_SMD:C_1210_3225Metric" H 2138 3100 50  0001 C CNN
F 3 "~" H 2100 3250 50  0001 C CNN
	1    2100 3250
	1    0    0    -1  
$EndComp
Wire Wire Line
	3350 3050 3600 3050
Wire Wire Line
	2100 3100 2100 2950
Wire Wire Line
	1650 2950 1400 2950
Wire Wire Line
	2100 3400 2100 4000
Text Label 8300 2950 0    50   ~ 0
3V3
Wire Wire Line
	7350 4000 8850 4000
Text Label 3750 4750 0    50   ~ 0
3V3
Wire Wire Line
	2100 2950 3050 2950
Wire Wire Line
	3350 3050 3350 2950
Connection ~ 3350 2950
Wire Wire Line
	3350 2950 3600 2950
$Comp
L Device:R R12
U 1 1 5C67AAA7
P 4150 4950
F 0 "R12" H 4220 4996 50  0000 L CNN
F 1 "1M" H 4220 4905 50  0000 L CNN
F 2 "Resistor_SMD:R_0805_2012Metric" V 4080 4950 50  0001 C CNN
F 3 "~" H 4150 4950 50  0001 C CNN
	1    4150 4950
	1    0    0    -1  
$EndComp
$Comp
L Device:R R13
U 1 1 5C67AAF9
P 5250 5100
F 0 "R13" H 5320 5146 50  0000 L CNN
F 1 "1M" H 5320 5055 50  0000 L CNN
F 2 "Resistor_SMD:R_0805_2012Metric" V 5180 5100 50  0001 C CNN
F 3 "~" H 5250 5100 50  0001 C CNN
	1    5250 5100
	1    0    0    -1  
$EndComp
Text Label 5650 5700 0    50   ~ 0
GND
Wire Wire Line
	4750 4750 5250 4750
Wire Wire Line
	5250 4750 5250 4950
Connection ~ 5250 4750
Wire Wire Line
	5250 4750 5700 4750
Wire Wire Line
	5250 5700 5650 5700
$Comp
L Connector:TestPoint TP1
U 1 1 5C709BD1
P 8250 2750
F 0 "TP1" H 8308 2870 50  0000 L CNN
F 1 "TestPoint" H 8308 2779 50  0000 L CNN
F 2 "TestPoint:TestPoint_Pad_D1.0mm" H 8450 2750 50  0001 C CNN
F 3 "~" H 8450 2750 50  0001 C CNN
	1    8250 2750
	1    0    0    -1  
$EndComp
Wire Wire Line
	8250 2950 8250 2750
$Comp
L power:PWR_FLAG #FLG0101
U 1 1 5CA2D69E
P 3050 2900
F 0 "#FLG0101" H 3050 2975 50  0001 C CNN
F 1 "PWR_FLAG" H 3050 3074 50  0000 C CNN
F 2 "" H 3050 2900 50  0001 C CNN
F 3 "~" H 3050 2900 50  0001 C CNN
	1    3050 2900
	1    0    0    -1  
$EndComp
Wire Wire Line
	3050 2900 3050 2950
Connection ~ 3050 2950
Wire Wire Line
	3050 2950 3350 2950
$Comp
L power:PWR_FLAG #FLG0102
U 1 1 5CA2E9B1
P 8700 2700
F 0 "#FLG0102" H 8700 2775 50  0001 C CNN
F 1 "PWR_FLAG" H 8700 2874 50  0000 C CNN
F 2 "" H 8700 2700 50  0001 C CNN
F 3 "~" H 8700 2700 50  0001 C CNN
	1    8700 2700
	1    0    0    -1  
$EndComp
Wire Wire Line
	8700 2700 8700 2950
Connection ~ 8700 2950
Wire Wire Line
	8700 2950 8950 2950
Wire Wire Line
	8250 2950 8700 2950
Wire Wire Line
	7350 2950 8250 2950
Connection ~ 8250 2950
$Comp
L Device:Fuse F2
U 1 1 5CC2EF0B
P 1800 2950
F 0 "F2" H 1860 2996 50  0000 L CNN
F 1 "Fuse" H 1860 2905 50  0000 L CNN
F 2 "Fuse:Fuse_1206_3216Metric_Pad1.42x1.75mm_HandSolder" V 1730 2950 50  0001 C CNN
F 3 "~" H 1800 2950 50  0001 C CNN
	1    1800 2950
	0    -1   -1   0   
$EndComp
Wire Wire Line
	1400 4000 2100 4000
Connection ~ 2100 4000
Wire Wire Line
	1950 2950 2100 2950
Connection ~ 2100 2950
Wire Wire Line
	5250 5250 5250 5700
Wire Wire Line
	3750 4750 4150 4750
Wire Wire Line
	3700 5150 4150 5150
Wire Wire Line
	5250 5700 4550 5700
Connection ~ 5250 5700
Connection ~ 4550 5150
Wire Wire Line
	4550 5150 4550 5050
$Comp
L Device:Fuse F?
U 1 1 5D58C3B8
P 9100 2950
F 0 "F?" V 8903 2950 50  0000 C CNN
F 1 "Fuse" V 8994 2950 50  0000 C CNN
F 2 "" V 9030 2950 50  0001 C CNN
F 3 "~" H 9100 2950 50  0001 C CNN
	1    9100 2950
	0    1    1    0   
$EndComp
Wire Wire Line
	9250 2950 9450 2950
$Comp
L Transistor_FET:BSS83P Q?
U 1 1 5D574710
P 4550 4850
F 0 "Q?" V 4893 4850 50  0000 C CNN
F 1 "BSS83P" V 4802 4850 50  0000 C CNN
F 2 "Package_TO_SOT_SMD:SOT-23" H 4750 4775 50  0001 L CIN
F 3 "http://www.farnell.com/datasheets/1835997.pdf" H 4550 4850 50  0001 L CNN
	1    4550 4850
	0    1    -1   0   
$EndComp
Wire Wire Line
	4150 5150 4150 5100
Connection ~ 4150 5150
Wire Wire Line
	4150 5150 4550 5150
Wire Wire Line
	4150 4800 4150 4750
Connection ~ 4150 4750
Wire Wire Line
	4150 4750 4350 4750
Wire Wire Line
	4550 5150 4550 5700
$EndSCHEMATC
