EESchema Schematic File Version 4
LIBS:Controller-cache
EELAYER 26 0
EELAYER END
$Descr A4 11693 8268
encoding utf-8
Sheet 3 8
Title ""
Date ""
Rev ""
Comp ""
Comment1 ""
Comment2 ""
Comment3 ""
Comment4 ""
$EndDescr
Text HLabel 6450 2300 0    50   Input ~ 0
3.3V
Text HLabel 6450 2600 0    50   Input ~ 0
TX
Text HLabel 6450 2500 0    50   Input ~ 0
RX
Text HLabel 6450 2400 0    50   Input ~ 0
GND
Text HLabel 5300 4200 0    50   Input ~ 0
RESET\
Text HLabel 5300 4500 0    50   Input ~ 0
BOOT
$Comp
L Connector:Conn_01x06_Female J13
U 1 1 5C6A2F2E
P 9200 2600
F 0 "J13" H 9093 2075 50  0000 C CNN
F 1 "Conn_01x06_Female" H 9093 2166 50  0000 C CNN
F 2 "lib:CONN-TE-MICROMATCH-3X2-SMD" H 9200 2600 50  0001 C CNN
F 3 "~" H 9200 2600 50  0001 C CNN
	1    9200 2600
	1    0    0    1   
$EndComp
$Comp
L Device:R R17
U 1 1 5C6A3825
P 5750 4200
F 0 "R17" V 5543 4200 50  0000 C CNN
F 1 "1K" V 5634 4200 50  0000 C CNN
F 2 "Resistor_SMD:R_0805_2012Metric" V 5680 4200 50  0001 C CNN
F 3 "~" H 5750 4200 50  0001 C CNN
	1    5750 4200
	0    1    1    0   
$EndComp
$Comp
L Device:R R18
U 1 1 5C6A38B2
P 5750 4500
F 0 "R18" V 5543 4500 50  0000 C CNN
F 1 "1K" V 5634 4500 50  0000 C CNN
F 2 "Resistor_SMD:R_0805_2012Metric" V 5680 4500 50  0001 C CNN
F 3 "~" H 5750 4500 50  0001 C CNN
	1    5750 4500
	0    1    1    0   
$EndComp
Wire Wire Line
	5300 4500 5600 4500
Wire Wire Line
	5300 4200 5600 4200
Wire Wire Line
	5900 4200 6150 4200
Text Label 6600 5350 0    50   ~ 0
GND
Text Label 8500 2400 0    50   ~ 0
GND
Text Label 6750 4200 0    50   ~ 0
RESETOUT\
Text Label 6750 4500 0    50   ~ 0
BOOTOUT
Text Label 8500 2800 0    50   ~ 0
RESETOUT\
Text Label 8500 2700 0    50   ~ 0
BOOTOUT
$Comp
L Connector:TestPoint TP6
U 1 1 5C70884F
P 5950 4600
F 0 "TP6" H 5892 4627 50  0000 R CNN
F 1 "TestPoint" H 5892 4718 50  0000 R CNN
F 2 "TestPoint:TestPoint_Pad_D1.0mm" H 6150 4600 50  0001 C CNN
F 3 "~" H 6150 4600 50  0001 C CNN
	1    5950 4600
	-1   0    0    1   
$EndComp
$Comp
L Connector:TestPoint TP4
U 1 1 5C7088C9
P 6150 4300
F 0 "TP4" H 6092 4327 50  0000 R CNN
F 1 "TestPoint" H 6092 4418 50  0000 R CNN
F 2 "TestPoint:TestPoint_Pad_D1.0mm" H 6350 4300 50  0001 C CNN
F 3 "~" H 6350 4300 50  0001 C CNN
	1    6150 4300
	-1   0    0    1   
$EndComp
$Comp
L Connector:TestPoint TP2
U 1 1 5C709543
P 6700 2100
F 0 "TP2" H 6758 2220 50  0000 L CNN
F 1 "TestPoint" H 6758 2129 50  0000 L CNN
F 2 "TestPoint:TestPoint_Pad_D1.0mm" H 6900 2100 50  0001 C CNN
F 3 "~" H 6900 2100 50  0001 C CNN
	1    6700 2100
	1    0    0    -1  
$EndComp
Wire Wire Line
	6700 2100 6700 2300
Wire Wire Line
	6700 2300 6450 2300
$Comp
L PESDL2BT:PESD3V3L2BT U15
U 1 1 5CC46724
P 6350 5100
F 0 "U15" H 6705 5246 50  0000 L CNN
F 1 "PESD3V3L2BT" H 6705 5155 50  0000 L CNN
F 2 "Package_TO_SOT_SMD:SOT-23" H 6250 4950 50  0001 C CNN
F 3 "" H 6250 4950 50  0001 C CNN
	1    6350 5100
	1    0    0    -1  
$EndComp
Wire Wire Line
	5900 4500 5950 4500
Wire Wire Line
	6600 5350 6500 5350
Wire Wire Line
	6500 5350 6500 5200
Wire Wire Line
	6150 4300 6150 4200
Connection ~ 6150 4200
Wire Wire Line
	5950 4600 5950 4500
Connection ~ 5950 4500
Wire Wire Line
	9000 2700 8500 2700
Wire Wire Line
	8500 2800 9000 2800
Wire Wire Line
	6150 4200 6400 4200
Wire Wire Line
	5950 4500 6600 4500
Wire Wire Line
	6400 4800 6400 4200
Connection ~ 6400 4200
Wire Wire Line
	6400 4200 6750 4200
Wire Wire Line
	6600 4800 6600 4500
Connection ~ 6600 4500
Wire Wire Line
	6600 4500 6750 4500
Wire Wire Line
	6450 2500 7100 2500
Wire Wire Line
	6450 2600 7300 2600
Text Label 7300 3300 0    50   ~ 0
GND
$Comp
L PESDL2BT:PESD3V3L2BT U?
U 1 1 5D740327
P 7050 3050
F 0 "U?" H 7405 3196 50  0000 L CNN
F 1 "PESD3V3L2BT" H 7405 3105 50  0000 L CNN
F 2 "Package_TO_SOT_SMD:SOT-23" H 6950 2900 50  0001 C CNN
F 3 "" H 6950 2900 50  0001 C CNN
	1    7050 3050
	1    0    0    -1  
$EndComp
Wire Wire Line
	7300 3300 7200 3300
Wire Wire Line
	7200 3300 7200 3150
Wire Wire Line
	7100 2750 7100 2500
Connection ~ 7100 2500
Wire Wire Line
	7100 2500 9000 2500
Wire Wire Line
	7300 2600 7300 2750
Connection ~ 7300 2600
Wire Wire Line
	7300 2600 9000 2600
Wire Wire Line
	6450 2400 9000 2400
Wire Wire Line
	6700 2300 9000 2300
Connection ~ 6700 2300
$EndSCHEMATC
