EESchema Schematic File Version 4
LIBS:Controller-cache
EELAYER 26 0
EELAYER END
$Descr A4 11693 8268
encoding utf-8
Sheet 5 8
Title ""
Date ""
Rev ""
Comp ""
Comment1 ""
Comment2 ""
Comment3 ""
Comment4 ""
$EndDescr
Text HLabel 10350 1500 2    50   Input ~ 0
CHARGE+
Text HLabel 10350 2900 2    50   Input ~ 0
DISCHARGE+
$Comp
L BQ76200:BQ76200 U5
U 1 1 5C2D51DE
P 4850 5500
F 0 "U5" H 5250 6475 50  0000 C CNN
F 1 "BQ76200" H 5250 6384 50  0000 C CNN
F 2 "Package_SO:TSSOP-16_4.4x5mm_P0.65mm" H 4850 5500 50  0001 C CNN
F 3 "" H 4850 5500 50  0001 C CNN
	1    4850 5500
	1    0    0    -1  
$EndComp
$Comp
L Device:R R29
U 1 1 5C2D5281
P 4000 5350
F 0 "R29" H 4070 5396 50  0000 L CNN
F 1 "10K" H 4070 5305 50  0000 L CNN
F 2 "Resistor_SMD:R_0805_2012Metric" V 3930 5350 50  0001 C CNN
F 3 "~" H 4000 5350 50  0001 C CNN
	1    4000 5350
	0    -1   -1   0   
$EndComp
$Comp
L Device:R R30
U 1 1 5C2D52AB
P 4000 5650
F 0 "R30" H 4070 5696 50  0000 L CNN
F 1 "10K" H 4070 5605 50  0000 L CNN
F 2 "Resistor_SMD:R_0805_2012Metric" V 3930 5650 50  0001 C CNN
F 3 "~" H 4000 5650 50  0001 C CNN
	1    4000 5650
	0    -1   -1   0   
$EndComp
$Comp
L Device:R R27
U 1 1 5C2D52CB
P 3700 5250
F 0 "R27" H 3770 5296 50  0000 L CNN
F 1 "10K" H 3770 5205 50  0000 L CNN
F 2 "Resistor_SMD:R_0805_2012Metric" V 3630 5250 50  0001 C CNN
F 3 "~" H 3700 5250 50  0001 C CNN
	1    3700 5250
	0    -1   -1   0   
$EndComp
$Comp
L Device:R R28
U 1 1 5C2D52E9
P 4000 5050
F 0 "R28" H 4070 5096 50  0000 L CNN
F 1 "10K" H 4070 5005 50  0000 L CNN
F 2 "Resistor_SMD:R_0805_2012Metric" V 3930 5050 50  0001 C CNN
F 3 "~" H 4000 5050 50  0001 C CNN
	1    4000 5050
	0    -1   -1   0   
$EndComp
$Comp
L Device:C C20
U 1 1 5C2D5427
P 4150 4500
F 0 "C20" H 4265 4546 50  0000 L CNN
F 1 "2.2µF100V" H 4265 4455 50  0000 L CNN
F 2 "Capacitor_SMD:C_1210_3225Metric" H 4188 4350 50  0001 C CNN
F 3 "~" H 4150 4500 50  0001 C CNN
	1    4150 4500
	1    0    0    -1  
$EndComp
$Comp
L Device:R R33
U 1 1 5C2D56B1
P 6450 2150
F 0 "R33" H 6520 2196 50  0000 L CNN
F 1 "4.7M" H 6520 2105 50  0000 L CNN
F 2 "Resistor_SMD:R_0805_2012Metric" V 6380 2150 50  0001 C CNN
F 3 "~" H 6450 2150 50  0001 C CNN
	1    6450 2150
	0    1    1    0   
$EndComp
$Comp
L Device:R R40
U 1 1 5C2D5725
P 8300 3550
F 0 "R40" H 8370 3596 50  0000 L CNN
F 1 "4.7M" H 8370 3505 50  0000 L CNN
F 2 "Resistor_SMD:R_0805_2012Metric" V 8230 3550 50  0001 C CNN
F 3 "~" H 8300 3550 50  0001 C CNN
	1    8300 3550
	0    -1   -1   0   
$EndComp
$Comp
L Diode:BZT52Bxx D13
U 1 1 5C2D57B5
P 8300 3250
F 0 "D13" H 8300 3466 50  0000 C CNN
F 1 "BZT52Bxx" H 8300 3375 50  0000 C CNN
F 2 "Diode_SMD:D_SOD-123" H 8300 3075 50  0001 C CNN
F 3 "https://diotec.com/tl_files/diotec/files/pdf/datasheets/bzt52b2v4.pdf" H 8300 3250 50  0001 C CNN
	1    8300 3250
	1    0    0    -1  
$EndComp
$Comp
L Diode:BZT52Bxx D9
U 1 1 5C2D582D
P 6450 1850
F 0 "D9" H 6450 2066 50  0000 C CNN
F 1 "BZT52Bxx" H 6450 1975 50  0000 C CNN
F 2 "Diode_SMD:D_SOD-123" H 6450 1675 50  0001 C CNN
F 3 "https://diotec.com/tl_files/diotec/files/pdf/datasheets/bzt52b2v4.pdf" H 6450 1850 50  0001 C CNN
	1    6450 1850
	-1   0    0    1   
$EndComp
$Comp
L Device:R R26
U 1 1 5C2D5894
P 3150 3850
F 0 "R26" H 3220 3896 50  0000 L CNN
F 1 "100R" H 3220 3805 50  0000 L CNN
F 2 "Resistor_SMD:R_0805_2012Metric" V 3080 3850 50  0001 C CNN
F 3 "~" H 3150 3850 50  0001 C CNN
	1    3150 3850
	1    0    0    -1  
$EndComp
$Comp
L Device:C C19
U 1 1 5C2D59FE
P 3150 4350
F 0 "C19" H 3265 4396 50  0000 L CNN
F 1 "10nF1000V" H 3265 4305 50  0000 L CNN
F 2 "Capacitor_SMD:C_0805_2012Metric" H 3188 4200 50  0001 C CNN
F 3 "~" H 3150 4350 50  0001 C CNN
	1    3150 4350
	1    0    0    -1  
$EndComp
$Comp
L Device:R R32
U 1 1 5C2D5A84
P 6350 5350
F 0 "R32" H 6420 5396 50  0000 L CNN
F 1 "33K" H 6420 5305 50  0000 L CNN
F 2 "Resistor_SMD:R_0805_2012Metric" V 6280 5350 50  0001 C CNN
F 3 "~" H 6350 5350 50  0001 C CNN
	1    6350 5350
	0    1    1    0   
$EndComp
$Comp
L Device:R R35
U 1 1 5C2D5B25
P 6650 5650
F 0 "R35" H 6720 5696 50  0000 L CNN
F 1 "2.2K" H 6720 5605 50  0000 L CNN
F 2 "Resistor_SMD:R_0805_2012Metric" V 6580 5650 50  0001 C CNN
F 3 "~" H 6650 5650 50  0001 C CNN
	1    6650 5650
	1    0    0    -1  
$EndComp
$Comp
L Device:C C21
U 1 1 5C2D5C1F
P 7050 5650
F 0 "C21" H 7165 5696 50  0000 L CNN
F 1 "0.1µF25V" H 7165 5605 50  0000 L CNN
F 2 "Capacitor_SMD:C_0805_2012Metric" H 7088 5500 50  0001 C CNN
F 3 "~" H 7050 5650 50  0001 C CNN
	1    7050 5650
	1    0    0    -1  
$EndComp
$Comp
L Device:R R41
U 1 1 5C2D5D00
P 9400 4600
F 0 "R41" H 9470 4646 50  0000 L CNN
F 1 "100R" H 9470 4555 50  0000 L CNN
F 2 "Resistor_SMD:R_0805_2012Metric" V 9330 4600 50  0001 C CNN
F 3 "~" H 9400 4600 50  0001 C CNN
	1    9400 4600
	1    0    0    -1  
$EndComp
$Comp
L Device:R R38
U 1 1 5C2D5DCC
P 7950 4450
F 0 "R38" H 8020 4496 50  0000 L CNN
F 1 "100R" H 8020 4405 50  0000 L CNN
F 2 "Resistor_SMD:R_0805_2012Metric" V 7880 4450 50  0001 C CNN
F 3 "~" H 7950 4450 50  0001 C CNN
	1    7950 4450
	1    0    0    -1  
$EndComp
Wire Wire Line
	4750 5050 4150 5050
Wire Wire Line
	4750 5150 4600 5150
Wire Wire Line
	4600 5150 4600 5350
Wire Wire Line
	4600 5350 4750 5350
Wire Wire Line
	4600 5350 4150 5350
Connection ~ 4600 5350
Wire Wire Line
	4750 5250 3850 5250
Wire Wire Line
	4750 5450 4600 5450
Wire Wire Line
	4600 5450 4600 5650
Wire Wire Line
	4600 5650 4150 5650
Wire Wire Line
	3850 5650 2050 5650
Wire Wire Line
	3850 5350 2050 5350
Wire Wire Line
	4700 4750 4700 4200
Wire Wire Line
	4700 4200 4150 4200
Wire Wire Line
	4150 4350 4150 4200
Wire Wire Line
	4750 4750 4700 4750
Wire Wire Line
	4750 4850 4150 4850
Wire Wire Line
	4150 4850 4150 4700
Text HLabel 1850 2900 0    50   Input ~ 0
VBAT
Connection ~ 4150 4700
Wire Wire Line
	4150 4700 4150 4650
Wire Wire Line
	3750 4700 3750 4100
Wire Wire Line
	3750 4100 3150 4100
Wire Wire Line
	3750 4700 4150 4700
Wire Wire Line
	3150 4000 3150 4100
Wire Wire Line
	3150 4200 3150 4100
Connection ~ 3150 4100
Wire Wire Line
	3150 4500 3150 4700
Text HLabel 2050 4700 0    50   Input ~ 0
GND
Text Label 2050 4700 0    50   ~ 0
GND
Wire Wire Line
	3150 2900 3150 3700
Connection ~ 5950 1500
$Comp
L Device:C C22
U 1 1 5C36A63E
P 9400 5550
F 0 "C22" H 9515 5596 50  0000 L CNN
F 1 "10nF100V" H 9515 5505 50  0000 L CNN
F 2 "Capacitor_SMD:C_0805_2012Metric" H 9438 5400 50  0001 C CNN
F 3 "~" H 9400 5550 50  0001 C CNN
	1    9400 5550
	1    0    0    -1  
$EndComp
$Comp
L Device:R R31
U 1 1 5C36A732
P 6800 4450
F 0 "R31" H 6870 4496 50  0000 L CNN
F 1 "100R" H 6870 4405 50  0000 L CNN
F 2 "Resistor_SMD:R_0805_2012Metric" V 6730 4450 50  0001 C CNN
F 3 "~" H 6800 4450 50  0001 C CNN
	1    6800 4450
	-1   0    0    1   
$EndComp
$Comp
L Device:D_TVS D15
U 1 1 5C2100DF
P 10250 3250
F 0 "D15" V 10204 3329 50  0000 L CNN
F 1 "D_TVS" V 10295 3329 50  0000 L CNN
F 2 "Diode_SMD:D_2512_6332Metric" H 10250 3250 50  0001 C CNN
F 3 "~" H 10250 3250 50  0001 C CNN
	1    10250 3250
	0    1    1    0   
$EndComp
Wire Wire Line
	10250 3400 10250 3500
Wire Wire Line
	10250 3500 10600 3500
Text Label 10600 3500 0    50   ~ 0
GND
$Comp
L Transistor_FET:IRF3205 Q6
U 1 1 5C21ADAC
P 6800 1600
F 0 "Q6" V 7143 1600 50  0000 C CNN
F 1 "IRF3205" V 7052 1600 50  0000 C CNN
F 2 "lib:D2PACK_7Pin" H 7050 1525 50  0001 L CIN
F 3 "http://www.irf.com/product-info/datasheets/data/irf3205.pdf" H 6800 1600 50  0001 L CNN
	1    6800 1600
	0    1    -1   0   
$EndComp
$Comp
L Transistor_FET:IRF3205 Q8
U 1 1 5C21AE26
P 7950 3000
F 0 "Q8" V 8293 3000 50  0000 C CNN
F 1 "IRF3205" V 8202 3000 50  0000 C CNN
F 2 "lib:D2PACK_7Pin" H 8200 2925 50  0001 L CIN
F 3 "http://www.irf.com/product-info/datasheets/data/irf3205.pdf" H 7950 3000 50  0001 L CNN
	1    7950 3000
	0    -1   -1   0   
$EndComp
Wire Wire Line
	6800 1850 6800 1800
Wire Wire Line
	10250 3100 10250 2900
Connection ~ 10250 2900
Wire Wire Line
	10250 2900 10350 2900
Wire Wire Line
	5750 5350 6200 5350
Wire Wire Line
	6500 5350 6650 5350
Wire Wire Line
	7050 5350 7050 5500
Wire Wire Line
	6650 5500 6650 5350
Connection ~ 6650 5350
Wire Wire Line
	6650 5350 7050 5350
Wire Wire Line
	6650 5800 6650 5950
Wire Wire Line
	6650 5950 7050 5950
Wire Wire Line
	7050 5800 7050 5950
Connection ~ 7050 5950
Wire Wire Line
	7050 5950 7300 5950
Text Label 7300 5950 0    50   ~ 0
GND
Wire Wire Line
	7050 5350 7350 5350
Connection ~ 7050 5350
Wire Wire Line
	9400 4450 9400 2900
Connection ~ 9400 2900
Wire Wire Line
	9400 2900 10250 2900
Wire Wire Line
	9400 5700 9400 5900
Wire Wire Line
	9400 5900 9500 5900
Text Label 9500 5900 0    50   ~ 0
GND
Wire Wire Line
	5950 1500 5950 1850
Wire Wire Line
	5950 1850 6300 1850
Wire Wire Line
	6300 2150 5950 2150
Wire Wire Line
	5950 2150 5950 1850
Connection ~ 5950 1850
Wire Wire Line
	6600 2150 6800 2150
Wire Wire Line
	6800 2150 6800 1850
Connection ~ 6800 1850
Wire Wire Line
	6600 1850 6800 1850
Wire Wire Line
	8600 3550 8450 3550
Wire Wire Line
	8150 3250 7950 3250
Wire Wire Line
	7950 3550 8150 3550
Wire Wire Line
	8450 3250 8600 3250
Text Label 6800 4200 0    50   ~ 0
CHARGE
Wire Wire Line
	1850 2900 3150 2900
Wire Wire Line
	5950 1500 3150 1500
Connection ~ 3150 2900
Text Label 9100 2900 0    50   ~ 0
LOADOUT
Text Label 2300 2900 0    50   ~ 0
VBAT
Text Label 6150 4950 0    50   ~ 0
PRECHARGE
Wire Wire Line
	5750 4950 6150 4950
Text Label 6900 5150 0    50   ~ 0
DISCHARGE
Text HLabel 7350 5350 2    50   Input ~ 0
VOUTSENSE
Text HLabel 2050 5050 0    50   Input ~ 0
ChargeEnable
Text HLabel 2050 5350 0    50   Input ~ 0
Enable
Text HLabel 2050 5250 0    50   Input ~ 0
DischargeEnable
Text HLabel 2050 5650 0    50   Input ~ 0
PrechargeEnable
Wire Wire Line
	5750 5450 6000 5450
Wire Wire Line
	6000 5450 6000 5950
Wire Wire Line
	6000 5950 6650 5950
Connection ~ 6650 5950
Wire Wire Line
	2050 5250 3550 5250
Wire Wire Line
	2050 5050 3850 5050
Wire Wire Line
	8600 2900 8600 3250
Wire Wire Line
	5950 1500 6600 1500
Wire Wire Line
	9400 4750 9400 5250
Wire Wire Line
	5750 5250 9400 5250
Connection ~ 9400 5250
Wire Wire Line
	9400 5250 9400 5400
Wire Wire Line
	5750 5150 7950 5150
Connection ~ 6800 2150
Wire Wire Line
	5750 4750 6800 4750
Wire Wire Line
	6800 4600 6800 4750
Wire Wire Line
	2050 4700 3150 4700
Connection ~ 8600 3250
Wire Wire Line
	8600 3250 8600 3550
Wire Wire Line
	7950 3250 7950 3550
Wire Wire Line
	7950 4600 7950 5150
Wire Wire Line
	7950 4300 7950 3550
Connection ~ 7950 3550
Wire Wire Line
	8150 2900 8600 2900
Connection ~ 8600 2900
Wire Wire Line
	7950 3250 7950 3200
Connection ~ 7950 3250
Wire Wire Line
	8600 2900 9400 2900
Wire Wire Line
	3150 1500 3150 2900
$Comp
L Device:C C?
U 1 1 5D78A073
P 7500 1950
F 0 "C?" H 7615 1996 50  0000 L CNN
F 1 "C" H 7615 1905 50  0000 L CNN
F 2 "" H 7538 1800 50  0001 C CNN
F 3 "~" H 7500 1950 50  0001 C CNN
	1    7500 1950
	1    0    0    -1  
$EndComp
Wire Wire Line
	6800 2150 6800 4300
Wire Wire Line
	3150 2900 7750 2900
Wire Wire Line
	7000 1500 10350 1500
$EndSCHEMATC
