EESchema Schematic File Version 4
LIBS:Controller-cache
EELAYER 26 0
EELAYER END
$Descr A4 11693 8268
encoding utf-8
Sheet 1 8
Title ""
Date ""
Rev ""
Comp ""
Comment1 ""
Comment2 ""
Comment3 ""
Comment4 ""
$EndDescr
$Sheet
S 1300 650  850  600 
U 5C1FA924
F0 "Sheet5C1FA923" 50
F1 "AlimentationD.sch" 50
F2 "VBAT" I L 1300 800 50 
F3 "GND" I L 1300 950 50 
F4 "3.3V" I R 2150 950 50 
F5 "MODULE3V3" I R 2150 800 50 
F6 "MODULEPOWEN" I L 1300 1100 50 
$EndSheet
$Sheet
S 2900 650  850  650 
U 5C1FA940
F0 "Sheet5C1FA93F" 50
F1 "isoSerPack.sch" 50
F2 "3.3V" I L 2900 800 50 
F3 "GND" I L 2900 900 50 
F4 "RESET\\" I R 3750 850 50 
F5 "BOOT" I R 3750 750 50 
F6 "TX" I L 2900 1050 50 
F7 "RX" I L 2900 1150 50 
$EndSheet
$Sheet
S 9200 2000 900  950 
U 5C1FA962
F0 "Sheet5C1FA961" 50
F1 "CurSense.sch" 50
F2 "SDA" I L 9200 2650 50 
F3 "SCL" I L 9200 2750 50 
F4 "VBAT" I L 9200 2150 50 
F5 "3.3V" I L 9200 2350 50 
F6 "GND" I L 9200 2450 50 
F7 "VBATIO" I R 10100 2150 50 
$EndSheet
$Sheet
S 8500 3200 1600 1700
U 5C1FA970
F0 "Sheet5C1FA96F" 50
F1 "ChargeMon.sch" 50
F2 "CHARGE+" I R 10100 3500 50 
F3 "DISCHARGE+" I R 10100 3650 50 
F4 "VBAT" I R 10100 3350 50 
F5 "GND" I R 10100 3900 50 
F6 "ChargeDetect" I L 8500 3450 50 
F7 "SAFETY" I L 8500 3650 50 
F8 "VOUTSENSE" I L 8500 3800 50 
F9 "ChargeEnable" I L 8500 3950 50 
F10 "Enable" I L 8500 4100 50 
F11 "DischargeEnable" I L 8500 4250 50 
F12 "PrechargeEnable" I L 8500 4400 50 
$EndSheet
$Sheet
S 1200 6900 1000 600 
U 5C1FA97D
F0 "Sheet5C1FA97C" 50
F1 "BlueToothSer.sch" 50
F2 "GND" I R 2200 7100 50 
F3 "VDD" I R 2200 7000 50 
F4 "RX" I L 1200 7000 50 
F5 "TX" I L 1200 7100 50 
F6 "RTS" I L 1200 7300 50 
F7 "CTS" I L 1200 7400 50 
$EndSheet
Wire Wire Line
	2150 800  2900 800 
Wire Wire Line
	900  950  1300 950 
Wire Wire Line
	2900 900  2650 900 
Wire Wire Line
	3750 750  4000 750 
Wire Wire Line
	3750 850  4000 850 
Text Label 4000 850  0    50   ~ 0
MODULESRESET\
Text Label 4000 750  0    50   ~ 0
MODULESBOOT
Text Label 2650 900  0    50   ~ 0
GND
Text Label 2300 950  0    50   ~ 0
VDD
Wire Wire Line
	2150 950  2300 950 
Text Label 900  950  0    50   ~ 0
GND
Text Label 700  1100 0    50   ~ 0
MODULEPOWER
Wire Wire Line
	700  1100 1300 1100
$Comp
L Device:R R2
U 1 1 5C1FB3D6
P 2950 1950
F 0 "R2" H 3020 1996 50  0000 L CNN
F 1 "10K" H 3020 1905 50  0000 L CNN
F 2 "Resistor_SMD:R_0805_2012Metric" V 2880 1950 50  0001 C CNN
F 3 "~" H 2950 1950 50  0001 C CNN
	1    2950 1950
	1    0    0    -1  
$EndComp
$Comp
L Device:C C3
U 1 1 5C1FB457
P 2950 2350
F 0 "C3" H 3065 2396 50  0000 L CNN
F 1 "0.1µF" H 3065 2305 50  0000 L CNN
F 2 "Capacitor_SMD:C_0805_2012Metric" H 2988 2200 50  0001 C CNN
F 3 "~" H 2950 2350 50  0001 C CNN
	1    2950 2350
	1    0    0    -1  
$EndComp
Wire Wire Line
	2950 2500 2950 2550
Wire Wire Line
	2950 2550 2750 2550
Wire Wire Line
	3350 2900 3450 2900
Wire Wire Line
	2950 2150 2950 2100
Wire Wire Line
	2950 2200 2950 2150
Connection ~ 2950 2150
Wire Wire Line
	2950 1700 2750 1700
Wire Wire Line
	2950 1700 2950 1800
Text Label 3050 2150 0    50   ~ 0
RESET\
Text Label 2750 1700 0    50   ~ 0
VDD
Text Label 2750 2550 0    50   ~ 0
GND
Text Label 2400 800  0    50   ~ 0
ModuleVDD
$Comp
L Device:C C2
U 1 1 5C1FBD9D
P 2200 3400
F 0 "C2" H 2315 3446 50  0000 L CNN
F 1 "20pF" H 2315 3355 50  0000 L CNN
F 2 "Capacitor_SMD:C_0805_2012Metric" H 2238 3250 50  0001 C CNN
F 3 "~" H 2200 3400 50  0001 C CNN
	1    2200 3400
	0    1    1    0   
$EndComp
Wire Wire Line
	2950 2150 3350 2150
$Comp
L Device:C C1
U 1 1 5C1FC265
P 2200 2850
F 0 "C1" H 2315 2896 50  0000 L CNN
F 1 "20pF" H 2315 2805 50  0000 L CNN
F 2 "Capacitor_SMD:C_0805_2012Metric" H 2238 2700 50  0001 C CNN
F 3 "~" H 2200 2850 50  0001 C CNN
	1    2200 2850
	0    1    1    0   
$EndComp
$Comp
L Device:Crystal Y1
U 1 1 5C1FC460
P 2450 3150
F 0 "Y1" H 2450 3418 50  0000 C CNN
F 1 "Crystal" H 2450 3327 50  0000 C CNN
F 2 "Crystal:Crystal_SMD_5032-2Pin_5.0x3.2mm" H 2450 3150 50  0001 C CNN
F 3 "~" H 2450 3150 50  0001 C CNN
	1    2450 3150
	0    1    1    0   
$EndComp
Wire Wire Line
	2350 3400 2450 3400
Wire Wire Line
	2450 3400 2450 3300
Wire Wire Line
	2450 2850 2350 2850
Wire Wire Line
	2450 2850 2450 3000
Wire Wire Line
	2050 2850 1950 2850
Wire Wire Line
	1950 2850 1950 3400
Wire Wire Line
	1950 3400 2050 3400
Text Label 1950 3050 3    50   ~ 0
GND
Wire Wire Line
	3450 3400 2450 3400
Connection ~ 2450 3400
Wire Wire Line
	3450 3300 2800 3300
Wire Wire Line
	2800 3300 2800 2850
Wire Wire Line
	2800 2850 2450 2850
Connection ~ 2450 2850
Wire Wire Line
	4150 5700 4150 5900
Wire Wire Line
	4150 5900 4050 5900
Wire Wire Line
	3950 5700 3950 5900
Connection ~ 3950 5900
Wire Wire Line
	3950 5900 3500 5900
Wire Wire Line
	4050 5700 4050 5900
Connection ~ 4050 5900
Wire Wire Line
	4050 5900 3950 5900
Text Label 3500 5900 0    50   ~ 0
GND
$Comp
L Device:R R3
U 1 1 5C1FFE00
P 2950 2750
F 0 "R3" V 2743 2750 50  0000 C CNN
F 1 "100K" V 2834 2750 50  0000 C CNN
F 2 "Resistor_SMD:R_0805_2012Metric" V 2880 2750 50  0001 C CNN
F 3 "~" H 2950 2750 50  0001 C CNN
	1    2950 2750
	-1   0    0    1   
$EndComp
Wire Wire Line
	3350 2900 3350 2150
Wire Wire Line
	2800 4000 3450 4000
Wire Wire Line
	3450 4400 2800 4400
Wire Wire Line
	3450 4300 2800 4300
Wire Wire Line
	3450 5000 2800 5000
Wire Wire Line
	3450 5100 2800 5100
Wire Wire Line
	4050 2700 4050 2350
Wire Wire Line
	4050 2350 4150 2350
Wire Wire Line
	4250 2350 4250 2700
Wire Wire Line
	4350 2700 4350 2350
Wire Wire Line
	4350 2350 4250 2350
Connection ~ 4250 2350
Wire Wire Line
	4150 2700 4150 2350
Connection ~ 4150 2350
Wire Wire Line
	4150 2350 4250 2350
Wire Wire Line
	4350 2350 4500 2350
Connection ~ 4350 2350
Text Label 4500 2350 0    50   ~ 0
VDD
$Comp
L Device:C C5
U 1 1 5C20FE95
P 4150 1800
F 0 "C5" H 4265 1846 50  0000 L CNN
F 1 "0.1µF" H 4265 1755 50  0000 L CNN
F 2 "Capacitor_SMD:C_0805_2012Metric" H 4188 1650 50  0001 C CNN
F 3 "~" H 4150 1800 50  0001 C CNN
	1    4150 1800
	1    0    0    -1  
$EndComp
$Comp
L Device:C C6
U 1 1 5C211076
P 4650 1800
F 0 "C6" H 4765 1846 50  0000 L CNN
F 1 "0.1µF" H 4765 1755 50  0000 L CNN
F 2 "Capacitor_SMD:C_0805_2012Metric" H 4688 1650 50  0001 C CNN
F 3 "~" H 4650 1800 50  0001 C CNN
	1    4650 1800
	1    0    0    -1  
$EndComp
$Comp
L Device:C C7
U 1 1 5C21107C
P 5150 1800
F 0 "C7" H 5265 1846 50  0000 L CNN
F 1 "0.1µF" H 5265 1755 50  0000 L CNN
F 2 "Capacitor_SMD:C_0805_2012Metric" H 5188 1650 50  0001 C CNN
F 3 "~" H 5150 1800 50  0001 C CNN
	1    5150 1800
	1    0    0    -1  
$EndComp
Wire Wire Line
	4150 1650 4150 1550
Wire Wire Line
	4150 1550 4650 1550
Wire Wire Line
	4150 1950 4150 2050
Wire Wire Line
	4150 2050 4650 2050
Wire Wire Line
	4650 2050 4650 1950
Connection ~ 4650 2050
Wire Wire Line
	4650 2050 5150 2050
Wire Wire Line
	4650 1650 4650 1550
Connection ~ 4650 1550
Wire Wire Line
	4650 1550 5150 1550
Wire Wire Line
	5150 1650 5150 1550
Connection ~ 5150 1550
Wire Wire Line
	5150 1550 5350 1550
Wire Wire Line
	5150 1950 5150 2050
Connection ~ 5150 2050
Wire Wire Line
	5150 2050 5350 2050
Text Label 5350 1550 0    50   ~ 0
VDD
Text Label 5350 2050 0    50   ~ 0
GND
Wire Wire Line
	4750 4000 5400 4000
Wire Wire Line
	5400 4100 4750 4100
Wire Wire Line
	5400 4900 4750 4900
Wire Wire Line
	5400 5000 4750 5000
Wire Wire Line
	5400 5500 4750 5500
Wire Wire Line
	5400 5400 4750 5400
Wire Wire Line
	5400 4200 4750 4200
Wire Wire Line
	5400 4300 4750 4300
Wire Wire Line
	5400 5300 4750 5300
Wire Wire Line
	5400 5200 4750 5200
Text Label 5400 4400 0    50   ~ 0
SS
Text Label 5400 4500 0    50   ~ 0
SCK
Text Label 5400 4600 0    50   ~ 0
MISO
Text Label 5400 4700 0    50   ~ 0
MOSI
Text Label 5400 4800 0    50   ~ 0
SPI_WT_SS
Text Label 5400 5500 0    50   ~ 0
SCL
Text Label 5400 5400 0    50   ~ 0
SDA
Text Label 5400 5200 0    50   ~ 0
BUZZER
Text Label 2800 4000 0    50   ~ 0
ChargeEnable
Text Label 2800 5000 0    50   ~ 0
DischargeEn
Text Label 2800 5100 0    50   ~ 0
PrechargeEn
Text Label 2800 3700 0    50   ~ 0
ChargeDetect
Wire Wire Line
	3450 3700 2800 3700
Text Label 5400 4900 0    50   ~ 0
TX
Text Label 5400 5000 0    50   ~ 0
RX
Text Label 5400 4100 0    50   ~ 0
VoutSense
Wire Wire Line
	9200 2150 8800 2150
Wire Wire Line
	9200 2350 8800 2350
Wire Wire Line
	8800 2450 9200 2450
Wire Wire Line
	9200 2650 8800 2650
Wire Wire Line
	9200 2750 8800 2750
Text Label 8800 2150 0    50   ~ 0
VBAT+
Text Label 8800 2350 0    50   ~ 0
VDD
Text Label 8800 2450 0    50   ~ 0
GND
Text Label 8800 2650 0    50   ~ 0
SDA
Text Label 8800 2750 0    50   ~ 0
SCL
Wire Wire Line
	10100 2150 10500 2150
Text Label 10500 2150 0    50   ~ 0
VBATIO
$Comp
L Device:Fuse F1
U 1 1 5C244205
P 6750 900
F 0 "F1" V 6553 900 50  0000 C CNN
F 1 "70A" V 6644 900 50  0000 C CNN
F 2 "lib:M5FuseHolder" V 6680 900 50  0001 C CNN
F 3 "~" H 6750 900 50  0001 C CNN
	1    6750 900 
	0    1    1    0   
$EndComp
$Comp
L Connector:Conn_01x01_Female J8
U 1 1 5C244542
P 8450 1050
F 0 "J8" H 8344 825 50  0000 C CNN
F 1 "Conn_01x01_Female" H 8344 916 50  0000 C CNN
F 2 "lib:M5Bushing" H 8450 1050 50  0001 C CNN
F 3 "~" H 8450 1050 50  0001 C CNN
	1    8450 1050
	-1   0    0    1   
$EndComp
$Comp
L Device:R R10
U 1 1 5C2470CA
P 9300 1050
F 0 "R10" V 9093 1050 50  0000 C CNN
F 1 "5R" V 9184 1050 50  0000 C CNN
F 2 "Resistor_SMD:R_2512_6332Metric" V 9230 1050 50  0001 C CNN
F 3 "~" H 9300 1050 50  0001 C CNN
	1    9300 1050
	0    1    1    0   
$EndComp
Wire Wire Line
	8650 1050 9050 1050
Wire Wire Line
	9450 1050 9750 1050
Wire Wire Line
	6900 900  7050 900 
$Comp
L Connector:Conn_01x01_Female J9
U 1 1 5C257FE8
P 8400 1350
F 0 "J9" H 8294 1125 50  0000 C CNN
F 1 "Conn_01x01_Female" H 8294 1216 50  0000 C CNN
F 2 "lib:M5Bushing" H 8400 1350 50  0001 C CNN
F 3 "~" H 8400 1350 50  0001 C CNN
	1    8400 1350
	-1   0    0    1   
$EndComp
Wire Wire Line
	8600 1350 9000 1350
Text Label 9000 1350 0    50   ~ 0
CHARGER
$Comp
L Connector:Conn_01x01_Female J10
U 1 1 5C2641BD
P 8400 1650
F 0 "J10" H 8294 1425 50  0000 C CNN
F 1 "Conn_01x01_Female" H 8294 1516 50  0000 C CNN
F 2 "lib:M5Bushing" H 8400 1650 50  0001 C CNN
F 3 "~" H 8400 1650 50  0001 C CNN
	1    8400 1650
	-1   0    0    1   
$EndComp
Wire Wire Line
	8600 1650 9000 1650
Text Label 9000 1650 0    50   ~ 0
LOAD
Text Label 7200 900  0    50   ~ 0
VBAT+
Text Label 7200 1450 0    50   ~ 0
GND
Text Label 8700 1050 0    50   ~ 0
COMMON
$Comp
L Connector:Conn_01x01_Female J11
U 1 1 5C2709DD
P 8450 750
F 0 "J11" H 8344 525 50  0000 C CNN
F 1 "Conn_01x01_Female" H 8344 616 50  0000 C CNN
F 2 "lib:M5Bushing" H 8450 750 50  0001 C CNN
F 3 "~" H 8450 750 50  0001 C CNN
	1    8450 750 
	-1   0    0    1   
$EndComp
Text Label 650  7100 0    50   ~ 0
BT_TX
Text Label 650  7000 0    50   ~ 0
RX
Text Label 2350 7100 0    50   ~ 0
GND
Text Label 2350 7000 0    50   ~ 0
VDD
Wire Wire Line
	2200 7000 2350 7000
Wire Wire Line
	2350 7100 2200 7100
$Comp
L Connector:Conn_01x01_Female J4
U 1 1 5C29EBB8
P 6750 1950
F 0 "J4" H 6644 1725 50  0000 C CNN
F 1 "Conn_01x01_Female" H 6644 1816 50  0000 C CNN
F 2 "MountingHole:MountingHole_3.2mm_M3_Pad" H 6750 1950 50  0001 C CNN
F 3 "~" H 6750 1950 50  0001 C CNN
	1    6750 1950
	-1   0    0    1   
$EndComp
$Comp
L Connector:Conn_01x01_Female J3
U 1 1 5C29EBBE
P 6750 1850
F 0 "J3" H 6644 1625 50  0000 C CNN
F 1 "Conn_01x01_Female" H 6644 1716 50  0000 C CNN
F 2 "MountingHole:MountingHole_3.2mm_M3_Pad" H 6750 1850 50  0001 C CNN
F 3 "~" H 6750 1850 50  0001 C CNN
	1    6750 1850
	-1   0    0    1   
$EndComp
$Comp
L Connector:Conn_01x01_Female J6
U 1 1 5C2A6A31
P 6750 2150
F 0 "J6" H 6644 1925 50  0000 C CNN
F 1 "Conn_01x01_Female" H 6644 2016 50  0000 C CNN
F 2 "MountingHole:MountingHole_3.2mm_M3_Pad" H 6750 2150 50  0001 C CNN
F 3 "~" H 6750 2150 50  0001 C CNN
	1    6750 2150
	-1   0    0    1   
$EndComp
$Comp
L Connector:Conn_01x01_Female J5
U 1 1 5C2A6A37
P 6750 2050
F 0 "J5" H 6644 1825 50  0000 C CNN
F 1 "Conn_01x01_Female" H 6644 1916 50  0000 C CNN
F 2 "MountingHole:MountingHole_3.2mm_M3_Pad" H 6750 2050 50  0001 C CNN
F 3 "~" H 6750 2050 50  0001 C CNN
	1    6750 2050
	-1   0    0    1   
$EndComp
$Comp
L Device:R R8
U 1 1 5C2D687A
P 9700 6100
F 0 "R8" H 9770 6146 50  0000 L CNN
F 1 "1.5K" H 9770 6055 50  0000 L CNN
F 2 "Resistor_SMD:R_0805_2012Metric" V 9630 6100 50  0001 C CNN
F 3 "~" H 9700 6100 50  0001 C CNN
	1    9700 6100
	1    0    0    -1  
$EndComp
$Comp
L Transistor_FET:BSS138 Q1
U 1 1 5C2D698D
P 10000 5900
F 0 "Q1" H 10205 5946 50  0000 L CNN
F 1 "BSS138" H 10205 5855 50  0000 L CNN
F 2 "Package_TO_SOT_SMD:SOT-23" H 10200 5825 50  0001 L CIN
F 3 "https://www.fairchildsemi.com/datasheets/BS/BSS138.pdf" H 10000 5900 50  0001 L CNN
	1    10000 5900
	1    0    0    -1  
$EndComp
$Comp
L Device:Buzzer BZ1
U 1 1 5C2D6A95
P 10200 5450
F 0 "BZ1" H 10353 5479 50  0000 L CNN
F 1 "Buzzer" H 10353 5388 50  0000 L CNN
F 2 "Buzzer_Beeper:PUIAudio_SMT_0825_S_4_R" V 10175 5550 50  0001 C CNN
F 3 "~" V 10175 5550 50  0001 C CNN
	1    10200 5450
	1    0    0    -1  
$EndComp
Wire Wire Line
	9700 6250 9700 6300
Wire Wire Line
	9700 6300 10100 6300
Wire Wire Line
	10100 6100 10100 6300
Connection ~ 10100 6300
Wire Wire Line
	10100 6300 10350 6300
Wire Wire Line
	10100 5700 10100 5550
Wire Wire Line
	10100 5350 10100 5100
Wire Wire Line
	9800 5900 9700 5900
Wire Wire Line
	9700 5900 9700 5950
Wire Wire Line
	9700 5900 9400 5900
Connection ~ 9700 5900
Text Label 10350 6300 0    50   ~ 0
GND
Text Label 9400 5900 0    50   ~ 0
BUZZER
Text Label 10100 5100 0    50   ~ 0
VDD
$Comp
L Device:LED D1
U 1 1 5C2F76BD
P 7700 6100
F 0 "D1" V 7738 5983 50  0000 R CNN
F 1 "LED" V 7647 5983 50  0000 R CNN
F 2 "LED_SMD:LED_0805_2012Metric" H 7700 6100 50  0001 C CNN
F 3 "~" H 7700 6100 50  0001 C CNN
	1    7700 6100
	0    -1   -1   0   
$EndComp
$Comp
L Device:R R1
U 1 1 5C30AFAF
P 7700 5700
F 0 "R1" H 7770 5746 50  0000 L CNN
F 1 "4.7K" H 7770 5655 50  0000 L CNN
F 2 "Resistor_SMD:R_0805_2012Metric" V 7630 5700 50  0001 C CNN
F 3 "~" H 7700 5700 50  0001 C CNN
	1    7700 5700
	1    0    0    -1  
$EndComp
Wire Wire Line
	7700 5950 7700 5850
Wire Wire Line
	7700 6250 7700 6350
Wire Wire Line
	7700 5550 7700 5450
Text Label 8850 6350 0    50   ~ 0
GND
$Comp
L Device:LED D4
U 1 1 5C33A07E
P 8550 6100
F 0 "D4" V 8588 5983 50  0000 R CNN
F 1 "LED" V 8497 5983 50  0000 R CNN
F 2 "LED_SMD:LED_0805_2012Metric" H 8550 6100 50  0001 C CNN
F 3 "~" H 8550 6100 50  0001 C CNN
	1    8550 6100
	0    -1   -1   0   
$EndComp
$Comp
L Device:R R6
U 1 1 5C33A084
P 8550 5700
F 0 "R6" H 8620 5746 50  0000 L CNN
F 1 "4.7K" H 8620 5655 50  0000 L CNN
F 2 "Resistor_SMD:R_0805_2012Metric" V 8480 5700 50  0001 C CNN
F 3 "~" H 8550 5700 50  0001 C CNN
	1    8550 5700
	1    0    0    -1  
$EndComp
Wire Wire Line
	8550 5950 8550 5850
Wire Wire Line
	8550 5550 8550 5450
Text Label 8550 5450 0    50   ~ 0
LEDFail
Wire Wire Line
	8550 6250 8550 6350
Connection ~ 8550 6350
Wire Wire Line
	8550 6350 8850 6350
Wire Wire Line
	10100 3350 10350 3350
Wire Wire Line
	10100 3500 10350 3500
Wire Wire Line
	10100 3650 10350 3650
Wire Wire Line
	10100 3900 10350 3900
Wire Wire Line
	8500 3450 7850 3450
Wire Wire Line
	8500 3650 7850 3650
Wire Wire Line
	8500 3800 7850 3800
Wire Wire Line
	8500 3950 7850 3950
Wire Wire Line
	8500 4100 7850 4100
Wire Wire Line
	8500 4250 7850 4250
Wire Wire Line
	8500 4400 7850 4400
Text Label 7850 4400 0    50   ~ 0
PrechargeEn
Text Label 7850 4250 0    50   ~ 0
DischargeEn
Text Label 7850 3950 0    50   ~ 0
ChargeEnable
Text Label 7850 3450 0    50   ~ 0
ChargeDetect
Text Label 10350 3350 0    50   ~ 0
VBATIO
Text Label 7850 3800 0    50   ~ 0
VoutSense
Text Label 7850 3650 0    50   ~ 0
SAFETY
Text Label 2800 3600 0    50   ~ 0
SAFETY
Wire Wire Line
	3450 3600 2800 3600
$Comp
L Connector:Conn_01x06_Female J2
U 1 1 5C3BD52F
P 6700 4600
F 0 "J2" H 6594 4075 50  0000 C CNN
F 1 "Conn_01x06_Female" H 6594 4166 50  0000 C CNN
F 2 "Connector_PinHeader_2.54mm:PinHeader_1x06_P2.54mm_Vertical" H 6700 4600 50  0001 C CNN
F 3 "~" H 6700 4600 50  0001 C CNN
	1    6700 4600
	1    0    0    -1  
$EndComp
Text Label 6250 4900 0    50   ~ 0
GND
Text Label 2350 4700 0    50   ~ 0
EXT_SDA
Text Label 7850 4100 0    50   ~ 0
PowerIOEnable
Text Label 5400 5300 0    50   ~ 0
PowerIOEnable
Text Label 2800 4400 0    50   ~ 0
LEDCharge
Text Label 2800 4300 0    50   ~ 0
LEDFail
$Comp
L Device:C C8
U 1 1 5C3E4C07
P 2050 1850
F 0 "C8" H 2165 1896 50  0000 L CNN
F 1 "0.1µF" H 2165 1805 50  0000 L CNN
F 2 "Capacitor_SMD:C_0805_2012Metric" H 2088 1700 50  0001 C CNN
F 3 "~" H 2050 1850 50  0001 C CNN
	1    2050 1850
	1    0    0    -1  
$EndComp
$Comp
L Device:R R9
U 1 1 5C3E4D37
P 1350 1700
F 0 "R9" H 1420 1746 50  0000 L CNN
F 1 "100K" H 1420 1655 50  0000 L CNN
F 2 "Resistor_SMD:R_0805_2012Metric" V 1280 1700 50  0001 C CNN
F 3 "~" H 1350 1700 50  0001 C CNN
	1    1350 1700
	1    0    0    -1  
$EndComp
Wire Wire Line
	1350 1550 1350 1450
Wire Wire Line
	1350 1450 2050 1450
Wire Wire Line
	2050 1450 2050 1700
Connection ~ 2050 1450
Wire Wire Line
	2050 1450 2150 1450
Wire Wire Line
	2050 2000 2050 2500
Text Label 800  1950 0    50   ~ 0
TEMPSENSE
Text Label 5400 4000 0    50   ~ 0
TEMPSENSE
Wire Wire Line
	800  1950 1350 1950
Wire Wire Line
	2050 2500 2150 2500
Connection ~ 2050 2500
Text Label 2150 2500 0    50   ~ 0
GND
Text Label 2150 1450 0    50   ~ 0
VDD
Text Label 2350 4800 0    50   ~ 0
EXT_IO1
Text Label 2350 4900 0    50   ~ 0
EXT_IO2
Text Label 2350 4500 0    50   ~ 0
GND
Wire Wire Line
	2050 4500 2350 4500
Wire Wire Line
	2050 4600 3450 4600
Wire Wire Line
	2050 4700 3450 4700
Wire Wire Line
	2050 4800 3450 4800
Wire Wire Line
	2050 4900 3450 4900
Text Label 10350 3900 0    50   ~ 0
GND
Text Label 10350 3500 0    50   ~ 0
CHARGER
Text Label 10350 3650 0    50   ~ 0
LOAD
$Sheet
S 1200 6000 1000 650 
U 5C52E122
F0 "Sheet5C52E121" 50
F1 "SerUsb.sch" 50
F2 "TXD" I L 1200 6100 50 
F3 "RXD" I L 1200 6200 50 
F4 "GND" I L 1200 6550 50 
F5 "VCC" I L 1200 6450 50 
F6 "RTS" I R 2200 6100 50 
F7 "DTR" I R 2200 6200 50 
F8 "EN" I R 2200 6350 50 
$EndSheet
Wire Wire Line
	2950 2600 2950 2550
Connection ~ 2950 2550
Wire Wire Line
	2950 2900 2950 3100
Wire Wire Line
	2950 3100 3450 3100
Text Label 3050 3100 0    50   ~ 0
BOOT0
Wire Wire Line
	1200 6450 700  6450
Wire Wire Line
	1200 6550 700  6550
Text Label 700  6550 0    50   ~ 0
GND
Text Label 700  6450 0    50   ~ 0
VDD
Text Label 2400 6350 0    50   ~ 0
USB_EN
Text Label 2800 4500 0    50   ~ 0
USB_EN
$Comp
L MCU_ST_STM32F3:STM32F303CCTx U1
U 1 1 5C1FABDA
P 4150 4200
F 0 "U1" H 4100 2614 50  0000 C CNN
F 1 "STM32F303CCTx" H 4100 2523 50  0000 C CNN
F 2 "Package_QFP:LQFP-48_7x7mm_P0.5mm" H 3550 2800 50  0001 R CNN
F 3 "http://www.st.com/st-web-ui/static/active/en/resource/technical/document/datasheet/DM00058181.pdf" H 4150 4200 50  0001 C CNN
	1    4150 4200
	1    0    0    -1  
$EndComp
Wire Wire Line
	2800 4500 3450 4500
Text Label 4850 6800 0    50   ~ 0
RESET\
Text Label 900  6200 0    50   ~ 0
RX
NoConn ~ 3950 2700
Wire Wire Line
	1200 7300 650  7300
Wire Wire Line
	1200 7400 650  7400
Text Label 650  7300 0    50   ~ 0
BT_RTS
Text Label 650  7400 0    50   ~ 0
BT_CTS
Wire Wire Line
	650  7000 1200 7000
Wire Wire Line
	1200 7100 650  7100
Text Label 900  6100 0    50   ~ 0
USB_TX
Wire Wire Line
	900  6100 1200 6100
Text Label 2400 6100 0    50   ~ 0
USB_RTS
Text Label 2400 6200 0    50   ~ 0
USB_DTR
Wire Wire Line
	2200 6100 2400 6100
Wire Wire Line
	2400 6200 2200 6200
Wire Wire Line
	2200 6350 2400 6350
Wire Wire Line
	1200 6200 900  6200
$Sheet
S 3700 6400 950  850 
U 5C81147C
F0 "Sheet5C81147B" 50
F1 "BootBox.sch" 50
F2 "USB_TX" I L 3700 6550 50 
F3 "BT_TX" I L 3700 6650 50 
F4 "USB_DTR" I L 3700 6800 50 
F5 "BT_CTS" I L 3700 6900 50 
F6 "USB_RTS" I L 3700 7050 50 
F7 "BT_RTS" I L 3700 7150 50 
F8 "TX" I R 4650 6550 50 
F9 "RESET\\" I R 4650 6800 50 
F10 "BOOT0" I R 4650 7050 50 
$EndSheet
Wire Wire Line
	4650 6800 4850 6800
Wire Wire Line
	4650 6550 4850 6550
Wire Wire Line
	4650 7050 4850 7050
Text Label 4850 6550 0    50   ~ 0
TX
Text Label 4850 7050 0    50   ~ 0
BOOT0
Text Label 3300 6550 0    50   ~ 0
USB_TX
Wire Wire Line
	3300 6550 3700 6550
Wire Wire Line
	3300 6650 3700 6650
Wire Wire Line
	3300 6800 3700 6800
Wire Wire Line
	3300 6900 3700 6900
Wire Wire Line
	3300 7050 3700 7050
Wire Wire Line
	3300 7150 3700 7150
Text Label 3300 7050 0    50   ~ 0
USB_RTS
Text Label 3300 6800 0    50   ~ 0
USB_DTR
Text Label 3300 7150 0    50   ~ 0
BT_RTS
Text Label 3300 6650 0    50   ~ 0
BT_TX
Wire Wire Line
	1350 1850 1350 1950
NoConn ~ 4250 5700
Text Label 5400 4300 0    50   ~ 0
MODRX
Text Label 5400 4200 0    50   ~ 0
MODTX
Wire Wire Line
	4750 4400 6500 4400
Wire Wire Line
	4750 4500 6500 4500
Wire Wire Line
	4750 4600 6500 4600
Wire Wire Line
	4750 4700 6500 4700
Wire Wire Line
	4750 4800 6500 4800
Wire Wire Line
	6250 4900 6500 4900
Wire Wire Line
	2050 5400 3450 5400
Wire Wire Line
	2050 5500 3450 5500
$Comp
L power:PWR_FLAG #FLG0103
U 1 1 5CA31397
P 7050 850
F 0 "#FLG0103" H 7050 925 50  0001 C CNN
F 1 "PWR_FLAG" H 7050 1024 50  0000 C CNN
F 2 "" H 7050 850 50  0001 C CNN
F 3 "~" H 7050 850 50  0001 C CNN
	1    7050 850 
	1    0    0    -1  
$EndComp
Wire Wire Line
	7050 850  7050 900 
Connection ~ 7050 900 
Wire Wire Line
	7050 900  7200 900 
Text Label 3300 6900 0    50   ~ 0
BT_CTS
$Comp
L Isolator:SFH617A-1 U9
U 1 1 5C2FDB7B
P 6550 3200
F 0 "U9" H 6550 3525 50  0000 C CNN
F 1 "SFH617A-1" H 6550 3434 50  0000 C CNN
F 2 "Package_SO:SO-4_4.4x2.3mm_P1.27mm" H 6350 3000 50  0001 L CIN
F 3 "http://www.vishay.com/docs/83740/sfh617a.pdf" H 6550 3200 50  0001 L CNN
	1    6550 3200
	1    0    0    -1  
$EndComp
$Comp
L Device:R R44
U 1 1 5C2FDC9A
P 6000 3100
F 0 "R44" V 5793 3100 50  0000 C CNN
F 1 "4.7K" V 5884 3100 50  0000 C CNN
F 2 "Resistor_SMD:R_0805_2012Metric" V 5930 3100 50  0001 C CNN
F 3 "~" H 6000 3100 50  0001 C CNN
	1    6000 3100
	0    1    1    0   
$EndComp
Wire Wire Line
	6850 3100 6950 3100
Wire Wire Line
	6850 3300 6950 3300
Text Label 7000 2750 0    50   ~ 0
VDD
Text Label 7300 3950 0    50   ~ 0
GND
Wire Wire Line
	6250 3100 6150 3100
Wire Wire Line
	6250 3300 5750 3300
Wire Wire Line
	5750 3200 5750 3300
$Comp
L Device:R R45
U 1 1 5C3636AA
P 6950 2950
F 0 "R45" H 7020 2996 50  0000 L CNN
F 1 "100K" H 7020 2905 50  0000 L CNN
F 2 "Resistor_SMD:R_0805_2012Metric" V 6880 2950 50  0001 C CNN
F 3 "~" H 6950 2950 50  0001 C CNN
	1    6950 2950
	1    0    0    -1  
$EndComp
Wire Wire Line
	6950 2800 6950 2750
Wire Wire Line
	6950 2750 7000 2750
Connection ~ 6950 3100
Text Label 7300 3100 0    50   ~ 0
CONTACT_ON
Text Label 5400 5100 0    50   ~ 0
CONTACT_ON
Wire Wire Line
	5400 5100 4750 5100
Wire Wire Line
	3450 3800 2800 3800
Text Label 2800 3800 0    50   ~ 0
LEDPWR
Text Label 7700 5450 0    50   ~ 0
LEDPWR
Text Label 2050 5500 0    50   ~ 0
MODULESRESET\
Text Label 2050 5400 0    50   ~ 0
MODULESBOOT
NoConn ~ 6950 1850
NoConn ~ 6950 1950
NoConn ~ 6950 2050
NoConn ~ 6950 2150
NoConn ~ 3450 4100
NoConn ~ 3450 4200
Text Label 6100 900  0    50   ~ 0
BATCONNECT
Text Label 750  800  0    50   ~ 0
BATCONNECT
Wire Wire Line
	750  800  1300 800 
$Comp
L Device:D_TVS D6
U 1 1 5CC89820
P 7050 1150
F 0 "D6" V 7004 1229 50  0000 L CNN
F 1 "D_TVS" V 7095 1229 50  0000 L CNN
F 2 "Diode_SMD:D_2512_6332Metric" H 7050 1150 50  0001 C CNN
F 3 "~" H 7050 1150 50  0001 C CNN
	1    7050 1150
	0    1    1    0   
$EndComp
Wire Wire Line
	7200 1450 7050 1450
Wire Wire Line
	7050 1450 7050 1300
Wire Wire Line
	7050 1000 7050 900 
Text Label 9750 1050 0    50   ~ 0
GND
Wire Wire Line
	6100 900  6600 900 
Wire Wire Line
	6950 3100 7150 3100
Wire Wire Line
	7150 3100 7150 3400
Connection ~ 7150 3100
Wire Wire Line
	7150 3100 7300 3100
Wire Wire Line
	7300 3950 7150 3950
Wire Wire Line
	7150 3950 7150 3800
Wire Wire Line
	6950 3300 6950 3950
Wire Wire Line
	6950 3950 7150 3950
Connection ~ 7150 3950
$Comp
L Switch:SW_Push SW2
U 1 1 5D1A28A0
P 7150 3600
F 0 "SW2" V 7104 3748 50  0000 L CNN
F 1 "SW_Push" V 7195 3748 50  0000 L CNN
F 2 "Button_Switch_SMD:SW_SPST_B3SL-1002P" H 7150 3800 50  0001 C CNN
F 3 "" H 7150 3800 50  0001 C CNN
	1    7150 3600
	0    1    1    0   
$EndComp
Text Label 2350 4600 0    50   ~ 0
EXT_SCL
Wire Wire Line
	8650 750  9050 750 
Wire Wire Line
	9050 750  9050 1050
Wire Wire Line
	9050 1050 9150 1050
Connection ~ 9050 1050
$Comp
L Connector:Conn_01x05_Female J?
U 1 1 5D67B8D1
P 1850 4700
F 0 "J?" H 1744 4275 50  0000 C CNN
F 1 "Conn_01x05_Female" H 1744 4366 50  0000 C CNN
F 2 "" H 1850 4700 50  0001 C CNN
F 3 "~" H 1850 4700 50  0001 C CNN
	1    1850 4700
	-1   0    0    1   
$EndComp
Text Label 5400 4100 0    50   ~ 0
VoutSense
Text Label 5400 4300 0    50   ~ 0
MODRX
Text Label 5400 4200 0    50   ~ 0
MODTX
Text Label 2500 1150 0    50   ~ 0
MODRX
Text Label 2500 1050 0    50   ~ 0
MODTX
Text Label 2500 1150 0    50   ~ 0
MODRX
Text Label 2500 1050 0    50   ~ 0
MODTX
Wire Wire Line
	2900 1150 2500 1150
Wire Wire Line
	2500 1050 2900 1050
Wire Wire Line
	8100 6350 8550 6350
Wire Wire Line
	7700 6350 8100 6350
Connection ~ 8100 6350
Wire Wire Line
	8100 6250 8100 6350
$Comp
L Device:LED D3
U 1 1 5C334943
P 8100 6100
F 0 "D3" V 8138 5983 50  0000 R CNN
F 1 "LED" V 8047 5983 50  0000 R CNN
F 2 "LED_SMD:LED_0805_2012Metric" H 8100 6100 50  0001 C CNN
F 3 "~" H 8100 6100 50  0001 C CNN
	1    8100 6100
	0    -1   -1   0   
$EndComp
Wire Wire Line
	8100 5950 8100 5850
Wire Wire Line
	8100 5550 8100 5450
Text Label 8100 5450 0    50   ~ 0
LEDCharge
$Comp
L Device:R R5
U 1 1 5C334949
P 8100 5700
F 0 "R5" H 8170 5746 50  0000 L CNN
F 1 "4.7K" H 8170 5655 50  0000 L CNN
F 2 "Resistor_SMD:R_0805_2012Metric" V 8030 5700 50  0001 C CNN
F 3 "~" H 8100 5700 50  0001 C CNN
	1    8100 5700
	1    0    0    -1  
$EndComp
$Comp
L Device:R R?
U 1 1 5D5C2EEA
P 6000 2750
F 0 "R?" V 5793 2750 50  0000 C CNN
F 1 "4.7K" V 5884 2750 50  0000 C CNN
F 2 "Resistor_SMD:R_0805_2012Metric" V 5930 2750 50  0001 C CNN
F 3 "~" H 6000 2750 50  0001 C CNN
	1    6000 2750
	0    1    1    0   
$EndComp
Wire Wire Line
	6950 2750 6150 2750
Connection ~ 6950 2750
Wire Wire Line
	5850 2750 5800 2750
Wire Wire Line
	5800 2750 5800 3000
Wire Wire Line
	5800 3000 5400 3000
Wire Wire Line
	5400 2900 5550 2900
Text Label 5550 2900 0    50   ~ 0
GND
Wire Wire Line
	5400 3100 5850 3100
Wire Wire Line
	5400 3200 5750 3200
Text Label 5450 3000 0    50   ~ 0
LEDOUT
Connection ~ 1350 1950
Wire Wire Line
	1350 1950 1350 2000
Wire Wire Line
	2050 2500 1350 2500
Wire Wire Line
	1350 2500 1350 2400
$Comp
L Device:Thermistor TH1
U 1 1 5C3E4B0F
P 1350 2200
F 0 "TH1" H 1455 2246 50  0000 L CNN
F 1 "100k" H 1455 2155 50  0000 L CNN
F 2 "Resistor_SMD:R_0805_2012Metric" H 1350 2200 50  0001 C CNN
F 3 "~" H 1350 2200 50  0001 C CNN
	1    1350 2200
	1    0    0    -1  
$EndComp
$Comp
L Connector:Conn_01x04_Female J?
U 1 1 5D644CB7
P 5200 3100
F 0 "J?" H 5094 2675 50  0000 C CNN
F 1 "Conn_01x04_Female" H 5094 2766 50  0000 C CNN
F 2 "" H 5200 3100 50  0001 C CNN
F 3 "~" H 5200 3100 50  0001 C CNN
	1    5200 3100
	-1   0    0    1   
$EndComp
$EndSCHEMATC
