EESchema Schematic File Version 4
LIBS:Controller-cache
EELAYER 26 0
EELAYER END
$Descr A4 11693 8268
encoding utf-8
Sheet 7 8
Title ""
Date ""
Rev ""
Comp ""
Comment1 ""
Comment2 ""
Comment3 ""
Comment4 ""
$EndDescr
$Comp
L Connector:USB_B_Mini J14
U 1 1 5C543C06
P 1600 3200
F 0 "J14" H 1655 3667 50  0000 C CNN
F 1 "USB_B_Mini" H 1655 3576 50  0000 C CNN
F 2 "Connector_USB:USB_Mini-B_AdamTech_MUSB-B5-S-VT-TSMT-1_SMD_Vertical" H 1750 3150 50  0001 C CNN
F 3 "~" H 1750 3150 50  0001 C CNN
	1    1600 3200
	1    0    0    -1  
$EndComp
$Comp
L ftdichip:FT232RQ ??1
U 1 1 5C543F5C
P 6100 3200
F 0 "??1" H 6100 4578 50  0000 C CNN
F 1 "FT232RQ" H 6100 4487 50  0000 C CNN
F 2 "Package_DFN_QFN:QFN-32-1EP_5x5mm_P0.5mm_EP3.45x3.45mm" H 6100 3200 50  0001 C CNN
F 3 "" H 6100 3200 50  0001 C CNN
	1    6100 3200
	1    0    0    -1  
$EndComp
$Comp
L Device:C C24
U 1 1 5C54402F
P 3900 1950
F 0 "C24" H 4015 1996 50  0000 L CNN
F 1 "0.1µF" H 4015 1905 50  0000 L CNN
F 2 "Capacitor_SMD:C_0805_2012Metric" H 3938 1800 50  0001 C CNN
F 3 "~" H 3900 1950 50  0001 C CNN
	1    3900 1950
	1    0    0    -1  
$EndComp
$Comp
L Device:C C25
U 1 1 5C544071
P 7950 1750
F 0 "C25" H 8065 1796 50  0000 L CNN
F 1 "0.1µF" H 8065 1705 50  0000 L CNN
F 2 "Capacitor_SMD:C_0805_2012Metric" H 7988 1600 50  0001 C CNN
F 3 "~" H 7950 1750 50  0001 C CNN
	1    7950 1750
	1    0    0    -1  
$EndComp
$Comp
L Device:C C26
U 1 1 5C54411B
P 8250 1750
F 0 "C26" H 8365 1796 50  0000 L CNN
F 1 "0.1µF" H 8365 1705 50  0000 L CNN
F 2 "Capacitor_SMD:C_0805_2012Metric" H 8288 1600 50  0001 C CNN
F 3 "~" H 8250 1750 50  0001 C CNN
	1    8250 1750
	1    0    0    -1  
$EndComp
$Comp
L Device:R R43
U 1 1 5C544167
P 8900 2800
F 0 "R43" H 8970 2846 50  0000 L CNN
F 1 "4.7K" H 8970 2755 50  0000 L CNN
F 2 "Resistor_SMD:R_0805_2012Metric" V 8830 2800 50  0001 C CNN
F 3 "~" H 8900 2800 50  0001 C CNN
	1    8900 2800
	1    0    0    -1  
$EndComp
$Comp
L Device:LED_ALT D17
U 1 1 5C544203
P 8900 3200
F 0 "D17" V 8938 3082 50  0000 R CNN
F 1 "LED_ALT" V 8847 3082 50  0000 R CNN
F 2 "LED_SMD:LED_0805_2012Metric" H 8900 3200 50  0001 C CNN
F 3 "~" H 8900 3200 50  0001 C CNN
	1    8900 3200
	0    -1   -1   0   
$EndComp
Wire Wire Line
	6000 2000 6000 1500
Wire Wire Line
	6000 1500 6200 1500
Wire Wire Line
	8250 1500 8250 1600
Wire Wire Line
	7950 1600 7950 1500
Connection ~ 7950 1500
Wire Wire Line
	7950 1500 8250 1500
Wire Wire Line
	6200 2000 6200 1500
Connection ~ 6200 1500
Wire Wire Line
	6200 1500 7950 1500
Wire Wire Line
	7950 1900 7950 2050
Wire Wire Line
	7950 2050 8250 2050
Wire Wire Line
	8250 1900 8250 2050
Connection ~ 8250 2050
Wire Wire Line
	8250 2050 8700 2050
Wire Wire Line
	5800 4500 5800 4750
Wire Wire Line
	5800 4750 6000 4750
Wire Wire Line
	6000 4500 6000 4750
Connection ~ 6000 4750
Wire Wire Line
	6000 4750 6200 4750
Wire Wire Line
	6200 4500 6200 4750
Connection ~ 6200 4750
Wire Wire Line
	6200 4750 6400 4750
Wire Wire Line
	6400 4500 6400 4750
Text Label 5250 4750 0    50   ~ 0
USB_GND
Text Label 8700 2050 0    50   ~ 0
USB_GND
Text Label 8700 1500 0    50   ~ 0
USB_VCC
Wire Wire Line
	8250 1500 8700 1500
Connection ~ 8250 1500
Wire Wire Line
	1500 3600 1500 3800
Wire Wire Line
	1500 3800 1600 3800
Wire Wire Line
	1600 3600 1600 3800
Connection ~ 1600 3800
Text Label 2750 3800 0    50   ~ 0
USB_GND
Text Label 3000 3000 0    50   ~ 0
USB_VCC
NoConn ~ 7000 2600
NoConn ~ 7000 2800
NoConn ~ 7000 2900
NoConn ~ 7000 3000
Wire Wire Line
	5800 4750 4950 4750
Wire Wire Line
	4950 4750 4950 4100
Wire Wire Line
	4950 4100 5200 4100
Connection ~ 5800 4750
NoConn ~ 5200 3800
NoConn ~ 5200 3400
NoConn ~ 5200 3100
NoConn ~ 7000 3600
NoConn ~ 7000 3800
NoConn ~ 7000 4000
NoConn ~ 7000 4200
Wire Wire Line
	8900 3350 8900 3400
Wire Wire Line
	7000 3400 8900 3400
Wire Wire Line
	8900 3050 8900 2950
Wire Wire Line
	8900 2650 8900 2550
Wire Wire Line
	8900 2550 9000 2550
Text Label 9000 2550 0    50   ~ 0
USB_VCC
$Comp
L Device:Ferrite_Bead FB1
U 1 1 5C54F0C5
P 2650 3000
F 0 "FB1" V 2376 3000 50  0000 C CNN
F 1 "Ferrite_Bead" V 2467 3000 50  0000 C CNN
F 2 "Resistor_SMD:R_0805_2012Metric" V 2580 3000 50  0001 C CNN
F 3 "~" H 2650 3000 50  0001 C CNN
	1    2650 3000
	0    1    1    0   
$EndComp
Wire Wire Line
	2800 3000 3000 3000
Wire Wire Line
	5200 2300 4500 2300
Wire Wire Line
	4500 2300 4500 1650
Wire Wire Line
	4500 1650 3900 1650
Wire Wire Line
	3900 1650 3900 1800
Wire Wire Line
	3900 2100 3900 2300
Text Label 3450 2300 0    50   ~ 0
USB_GND
Wire Wire Line
	3450 2300 3900 2300
Wire Wire Line
	5200 2500 3850 2500
Wire Wire Line
	3850 2500 3850 3300
Wire Wire Line
	3850 3300 1900 3300
Wire Wire Line
	1900 3200 4150 3200
Wire Wire Line
	4150 3200 4150 2800
Wire Wire Line
	4150 2800 5200 2800
Wire Wire Line
	1900 3400 2100 3400
Wire Wire Line
	2100 3400 2100 3800
Wire Wire Line
	1600 3800 2100 3800
Connection ~ 2100 3800
$Comp
L Device:C C23
U 1 1 5C555EA2
P 2300 3550
F 0 "C23" H 2415 3596 50  0000 L CNN
F 1 "10nF" H 2415 3505 50  0000 L CNN
F 2 "Capacitor_SMD:C_0805_2012Metric" H 2338 3400 50  0001 C CNN
F 3 "~" H 2300 3550 50  0001 C CNN
	1    2300 3550
	1    0    0    -1  
$EndComp
Wire Wire Line
	1900 3000 2300 3000
Wire Wire Line
	2300 3400 2300 3000
Connection ~ 2300 3000
Wire Wire Line
	2300 3000 2500 3000
Wire Wire Line
	2100 3800 2300 3800
Wire Wire Line
	2300 3700 2300 3800
Connection ~ 2300 3800
Wire Wire Line
	2300 3800 2750 3800
Text HLabel 9850 5350 2    50   Input ~ 0
TXD
Text HLabel 9850 5500 2    50   Input ~ 0
RXD
Text HLabel 9850 5700 2    50   Input ~ 0
GND
Text HLabel 9850 4700 2    50   Input ~ 0
VCC
Text HLabel 9850 5050 2    50   Input ~ 0
RTS
Text HLabel 9850 5200 2    50   Input ~ 0
DTR
Text Label 7300 2300 0    50   ~ 0
USB_TXD
Text Label 7300 2400 0    50   ~ 0
USB_RXD
Text Label 7300 2500 0    50   ~ 0
USB_RTS
Text Label 7300 2700 0    50   ~ 0
USB_DTR
Wire Wire Line
	9150 5500 9850 5500
Wire Wire Line
	9150 5400 9650 5400
Wire Wire Line
	9650 5400 9650 5350
Wire Wire Line
	9650 5350 9850 5350
Wire Wire Line
	9850 5200 9500 5200
Wire Wire Line
	9500 5200 9500 5300
Wire Wire Line
	9500 5300 9150 5300
Wire Wire Line
	9400 5200 9150 5200
Wire Wire Line
	9400 5200 9400 5050
Wire Wire Line
	9400 5050 9850 5050
Wire Wire Line
	9850 5700 9150 5700
Wire Wire Line
	9850 4700 9500 4700
Wire Wire Line
	9500 4700 9500 4900
Wire Wire Line
	9500 4900 9150 4900
Wire Wire Line
	9150 5000 9650 5000
Wire Wire Line
	9650 5000 9650 4850
Wire Wire Line
	9650 4850 9850 4850
Text HLabel 9850 4850 2    50   Input ~ 0
EN
Wire Wire Line
	7000 2300 7300 2300
Wire Wire Line
	7300 2400 7000 2400
Wire Wire Line
	7000 2500 7300 2500
Wire Wire Line
	7300 2700 7000 2700
Wire Wire Line
	8350 4900 8200 4900
Wire Wire Line
	7900 5200 8350 5200
Wire Wire Line
	8350 5300 7900 5300
Wire Wire Line
	8350 5400 7900 5400
Wire Wire Line
	7900 5500 8350 5500
Wire Wire Line
	8350 5700 7900 5700
Text Label 7900 5700 0    50   ~ 0
USB_GND
Text Label 7900 5400 0    50   ~ 0
USB_TXD
Text Label 7900 5500 0    50   ~ 0
USB_RXD
Text Label 7900 5200 0    50   ~ 0
USB_RTS
Text Label 7900 5300 0    50   ~ 0
USB_DTR
Text Label 7900 4900 0    50   ~ 0
USB_VCC
$Comp
L power:PWR_FLAG #FLG0104
U 1 1 5CA524B6
P 6200 1400
F 0 "#FLG0104" H 6200 1475 50  0001 C CNN
F 1 "PWR_FLAG" H 6200 1574 50  0000 C CNN
F 2 "" H 6200 1400 50  0001 C CNN
F 3 "~" H 6200 1400 50  0001 C CNN
	1    6200 1400
	1    0    0    -1  
$EndComp
Wire Wire Line
	6200 1500 6200 1400
$Comp
L Isolator:Si8641EC-B-IS1 U12
U 1 1 5CA541B3
P 8750 5300
F 0 "U12" H 8750 5967 50  0000 C CNN
F 1 "Si8641EC-B-IS1" H 8750 5876 50  0000 C CNN
F 2 "Package_SO:SOIC-16_3.9x9.9mm_P1.27mm" H 8750 4750 50  0001 C CIN
F 3 "https://www.silabs.com/documents/public/data-sheets/si864x-datasheet.pdf" H 8750 5700 50  0001 C CNN
	1    8750 5300
	1    0    0    -1  
$EndComp
Wire Wire Line
	8350 5000 8200 5000
Wire Wire Line
	8200 5000 8200 4900
Connection ~ 8200 4900
Wire Wire Line
	8200 4900 7900 4900
$EndSCHEMATC
